hardware/gfx_module/src/out/gfx_dma_tb.vcd
$date
	Thu Nov  7 00:55:55 2024
$end
$version
	Icarus Verilog
$end
$timescale
	100ps
$end
$scope module GfxDmaTb $end
$var wire 1 ! clk $end
$var wire 13 " cram_addr [12:0] $end
$var wire 1 # cram_ce_b $end
$var wire 8 $ cram_data [7:0] $end
$var wire 1 % cram_oe_b $end
$var wire 1 & cram_we_b $end
$var wire 1 ' vga_ce_b $end
$var wire 1 ( vram_addr15_b $end
$var wire 8 ) vram_data [7:0] $end
$var wire 1 * vram_we_b $end
$var wire 16 + vram_addr [15:0] $end
$var wire 1 , dma_active $end
$var wire 8 - ctrlBusOutput [7:0] $end
$var wire 8 . ctrlBusInput [7:0] $end
$var reg 13 / reg_addr [12:0] $end
$var reg 1 0 reg_clk2 $end
$var reg 8 1 reg_data [7:0] $end
$var reg 1 2 reg_free_vbus_b $end
$var reg 1 3 reg_ram_ce_b $end
$var reg 1 4 reg_ram_re_b $end
$var reg 1 5 reg_ram_we_b $end
$var reg 1 6 reg_vga_active_b $end
$var reg 1 7 reg_vga_ce_b $end
$scope module bdAddrInst $end
$var wire 13 8 i_a [12:0] $end
$var wire 13 9 o_y [12:0] $end
$var wire 1 , i_oe_b $end
$upscope $end
$scope module bdCtrlInst $end
$var wire 8 : i_a [7:0] $end
$var wire 8 ; o_y [7:0] $end
$var wire 1 , i_oe_b $end
$upscope $end
$scope module bdDataInst $end
$var wire 8 < i_a [7:0] $end
$var wire 8 = o_y [7:0] $end
$var wire 1 , i_oe_b $end
$upscope $end
$scope module cram32Inst $end
$var wire 15 > i_addr [14:0] $end
$var wire 1 # i_ce_b $end
$var wire 1 % i_re_b $end
$var wire 1 & i_we_b $end
$var wire 8 ? int_data [7:0] $end
$var wire 8 @ io_data [7:0] $end
$upscope $end
$scope module gfxDmaInst $end
$var wire 1 A dst_out_enabled $end
$var wire 1 ! i_clk $end
$var wire 1 0 i_clk2 $end
$var wire 1 2 i_free_vbus_b $end
$var wire 1 B i_src_ce2_b $end
$var wire 1 ' i_src_ce_b $end
$var wire 8 C i_src_data [7:0] $end
$var wire 13 D io_src_addr [12:0] $end
$var wire 1 & io_src_we_b $end
$var wire 1 , o_active $end
$var wire 8 E o_dst_data [7:0] $end
$var wire 1 * o_dst_we_b $end
$var wire 1 % o_src_re_b $end
$var wire 1 F skip_cpy $end
$var wire 2 G o_src_ram_page [1:0] $end
$var wire 16 H o_dst_addr [15:0] $end
$var wire 16 I dst_addr_offset [15:0] $end
$var reg 1 J reg_active $end
$var reg 1 K reg_active_clk1 $end
$var reg 1 L reg_active_clk2 $end
$var reg 1 M reg_ctrl_config $end
$var reg 5 N reg_ctrl_cpy_x_mask [4:0] $end
$var reg 3 O reg_ctrl_cpy_y_mask [2:0] $end
$var reg 8 P reg_ctrl_dst_x_origin [7:0] $end
$var reg 8 Q reg_ctrl_dst_y_origin [7:0] $end
$var reg 8 R reg_ctrl_height [7:0] $end
$var reg 13 S reg_ctrl_src_addr [12:0] $end
$var reg 8 T reg_ctrl_src_x_origin [7:0] $end
$var reg 5 U reg_ctrl_src_y_origin [4:0] $end
$var reg 8 V reg_ctrl_width [7:0] $end
$var reg 16 W reg_dst_addr_hold [15:0] $end
$var reg 8 X reg_dst_data_hold [7:0] $end
$var reg 2 Y reg_src_ram_page [1:0] $end
$var reg 8 Z reg_x_cnt [7:0] $end
$var reg 8 [ reg_y_cnt [7:0] $end
$upscope $end
$scope module vram32Inst1 $end
$var wire 15 \ i_addr [14:0] $end
$var wire 1 ] i_ce_b $end
$var wire 1 6 i_re_b $end
$var wire 1 * i_we_b $end
$var wire 8 ^ int_data [7:0] $end
$var wire 8 _ io_data [7:0] $end
$var integer 32 ` i [31:0] $end
$upscope $end
$scope module vram32Inst2 $end
$var wire 15 a i_addr [14:0] $end
$var wire 1 ( i_ce_b $end
$var wire 1 6 i_re_b $end
$var wire 1 * i_we_b $end
$var wire 8 b int_data [7:0] $end
$var wire 8 c io_data [7:0] $end
$var integer 32 d i [31:0] $end
$upscope $end
$upscope $end
$enddefinitions $end
#0
$dumpvars
b111111111111111 d
bz c
bx b
bz a
b111111111111111 `
bz _
bx ^
z]
bz \
b0 [
b0 Z
bx Y
b0 X
b0 W
b0 V
bx U
bx T
b0 S
b0 R
b0 Q
b0 P
b111 O
b11111 N
0M
0L
0K
0J
b0 I
bz H
bx G
1F
bz E
bx D
bx C
xB
0A
bx @
bx ?
b0xxxxxxxxxxxxx >
bx =
b0 <
bx ;
b1111 :
bx 9
b0 8
17
16
15
14
13
02
b0 1
10
b0 /
b1111 .
bx -
x,
bz +
x*
bz )
z(
x'
x&
x%
bx $
x#
bx "
x!
$end
#20
b0 $
b0 =
b0 @
b0 C
1#
1'
0B
b1111 -
b1111 ;
b0 >
b0 "
b0 9
b0 D
bz G
0,
#50
1%
1&
#60
1*
#100
1!
#170
b10101110 ?
#199
00
#299
0!
#398
10
#498
1!
#597
00
#697
0!
#794
0'
b1110 -
b1110 ;
b1110 .
b1110 :
07
#796
10
#896
1!
#995
00
#1095
0!
#1194
10
#1294
1!
#1393
00
#1493
0!
#1588
0&
b1010 -
b1010 ;
b1010 .
b1010 :
05
#1592
10
#1692
b0 T
1!
#1791
00
#1891
0!
#1990
10
#2090
1!
#2189
00
#2289
0!
#2382
1&
b1 >
b1 "
b1 9
b1 D
b1110 -
b1110 ;
b1 /
b1 8
b1110 .
b1110 :
15
#2388
10
#2488
1!
#2587
00
#2687
0!
#2786
10
#2886
1!
#2985
00
#3085
0!
#3176
0&
b1010 -
b1010 ;
b1010 .
b1010 :
05
#3184
10
#3284
b0 Y
b0 U
1!
#3383
00
#3483
0!
#3582
10
#3682
1!
#3781
00
#3881
0!
#3970
1&
b10000 $
b10000 =
b10000 @
b10000 C
b10 >
b10 "
b10 9
b10 D
b1110 -
b1110 ;
b10000 1
b10000 <
b10 /
b10 8
b1110 .
b1110 :
15
#3980
10
#4080
1!
#4179
00
#4279
0!
#4378
10
#4478
1!
#4577
00
#4677
0!
#4764
0&
b1010 -
b1010 ;
b1010 .
b1010 :
05
#4776
10
#4876
b10000 I
b10000 P
1!
#4975
00
#5075
0!
#5174
10
#5274
1!
#5373
00
#5473
0!
#5558
1&
b11 >
b11 "
b11 9
b11 D
b1110 -
b1110 ;
b11 /
b11 8
b1110 .
b1110 :
15
#5572
10
#5672
1!
#5771
00
#5871
0!
#5970
10
#6070
1!
#6169
00
#6269
0!
#6352
0&
b1010 -
b1010 ;
b1010 .
b1010 :
05
#6368
10
#6468
b1000000010000 I
b10000 Q
1!
#6567
00
#6667
0!
#6766
10
#6866
1!
#6965
00
#7065
0!
#7146
1&
b101 $
b101 =
b101 @
b101 C
b100 >
b100 "
b100 9
b100 D
b1110 -
b1110 ;
b101 1
b101 <
b100 /
b100 8
b1110 .
b1110 :
15
#7164
10
#7264
1!
#7363
00
#7463
0!
#7562
10
#7662
1!
#7761
00
#7861
0!
#7940
0&
b1010 -
b1010 ;
b1010 .
b1010 :
05
#7960
10
#8060
b101 V
1!
#8159
00
#8259
0!
#8358
10
#8458
1!
#8557
00
#8657
0!
#8734
1&
b101 >
b101 "
b101 9
b101 D
b1110 -
b1110 ;
b101 /
b101 8
b1110 .
b1110 :
15
#8756
10
#8856
1!
#8955
00
#9055
0!
#9154
10
#9254
1!
#9353
00
#9453
0!
#9528
0&
b1010 -
b1010 ;
b1010 .
b1010 :
05
#9552
10
#9652
b101 R
1!
#9751
00
#9851
0!
#9950
10
#10050
1!
#10149
00
#10249
0!
#10322
1&
b11111111 $
b11111111 =
b11111111 @
b11111111 C
b110 >
b110 "
b110 9
b110 D
b1110 -
b1110 ;
b11111111 1
b11111111 <
b110 /
b110 8
b1110 .
b1110 :
15
#10348
10
#10448
1!
#10547
00
#10647
0!
#10746
10
#10846
1!
#10945
00
#11045
0!
#11116
0&
b1010 -
b1010 ;
b1010 .
b1010 :
05
#11144
10
#11244
1!
#11343
00
#11443
0!
#11542
10
#11642
1!
#11741
00
#11841
0!
#11910
1&
b0 $
b0 =
b0 @
b0 C
b111 >
b111 "
b111 9
b111 D
b1110 -
b1110 ;
b0 1
b0 <
b111 /
b111 8
b1110 .
b1110 :
15
#11940
10
#12040
1!
#12139
00
#12239
0!
#12338
10
#12438
1!
#12537
00
#12637
0!
#12704
0&
b1010 -
b1010 ;
b1010 .
b1010 :
05
#12736
10
#12836
1J
b101 [
b101100001011 I
b101 Z
1!
#12856
0#
1&
1%
1'
zB
bz $
bz =
bz @
bz C
bz -
bz ;
b0zzzzzzzzzzzzz >
bz "
bz 9
bz D
1,
#12935
00
#13006
bx ?
#13035
0!
#13134
10
#13234
1K
1!
#13254
0B
b0 >
b0 "
b0 9
b0 D
b0 G
#13284
bx $
bx =
bx @
bx C
0%
1&
#13333
00
#13404
b10101110 $
b10101110 =
b10101110 @
b10101110 C
b10101110 ?
#13433
0!
#13498
bz 1
bz <
bz /
bz 8
b1110 .
b1110 :
15
#13532
10
#13632
b0 a
b0 \
0]
b0 +
b0 H
b0 )
b0 E
b0 _
b0 c
1A
1L
1!
#13652
b101100001011 a
b101100001011 \
b101100001011 +
b101100001011 H
b101100001011 W
#13672
0F
b10101110 )
b10101110 E
b10101110 _
b10101110 c
b10101110 X
#13731
00
#13742
b110000001011 I
b100 [
#13782
b100000000 S
#13791
0*
#13802
b100000000 >
b100000000 "
b100000000 9
b100000000 D
b1011 b
b1011 ^
#13831
0!
#13930
10
#13990
1*
#14030
1!
#14050
b110000001011 a
b110000001011 \
b110000001011 +
b110000001011 H
b110000001011 W
#14129
00
#14140
b110100001011 I
b11 [
#14180
b1000000000 S
#14189
0*
#14200
b1000000000 >
b1000000000 "
b1000000000 9
b1000000000 D
#14229
0!
#14292
b1111 .
b1111 :
17
#14328
10
#14388
1*
#14428
1!
#14448
b110100001011 a
b110100001011 \
b110100001011 +
b110100001011 H
b110100001011 W
#14527
00
#14538
b111000001011 I
b10 [
#14578
b1100000000 S
#14587
0*
#14598
b1100000000 >
b1100000000 "
b1100000000 9
b1100000000 D
#14627
0!
#14726
10
#14786
1*
#14826
1!
#14846
b111000001011 a
b111000001011 \
b111000001011 +
b111000001011 H
b111000001011 W
#14925
00
#14936
b111100001011 I
b1 [
#14976
b10000000000 S
#14985
0*
#14996
b10000000000 >
b10000000000 "
b10000000000 9
b10000000000 D
#15025
0!
#15124
10
#15184
1*
#15224
1!
#15244
b111100001011 a
b111100001011 \
b111100001011 +
b111100001011 H
b111100001011 W
#15323
00
#15334
b1000000001011 I
b0 [
#15374
b10100000000 S
#15383
0*
#15394
b10100000000 >
b10100000000 "
b10100000000 9
b10100000000 D
#15423
0!
#15522
10
#15582
1*
#15622
1!
#15642
b1000000001011 a
b1000000001011 \
b1000000001011 +
b1000000001011 H
b1000000001011 W
#15702
b101100001011 I
b101 [
#15721
00
#15781
0*
#15792
b101100001100 I
b100 Z
#15821
0!
#15832
b0 S
#15852
b0 >
b0 "
b0 9
b0 D
#15872
b1 S
#15892
b1 >
b1 "
b1 9
b1 D
#15920
10
#15980
1*
#16020
1!
#16040
b101100001100 a
b101100001100 \
b101100001100 +
b101100001100 H
b101100001100 W
#16119
00
#16130
b110000001100 I
b100 [
#16170
b100000001 S
#16179
0*
#16190
b100000001 >
b100000001 "
b100000001 9
b100000001 D
b1100 b
b1100 ^
#16219
0!
#16318
10
#16340
b1 $
b1 =
b1 @
b1 C
b1 ?
#16378
1*
#16418
1!
#16438
b110000001100 a
b110000001100 \
b110000001100 +
b110000001100 H
b110000001100 W
#16458
b1 )
b1 E
b1 _
b1 c
b1 X
#16517
00
#16528
b110100001100 I
b11 [
#16568
b1000000001 S
#16577
0*
#16588
b1000000001 >
b1000000001 "
b1000000001 9
b1000000001 D
#16617
0!
#16716
10
#16738
b10001 $
b10001 =
b10001 @
b10001 C
b10001 ?
#16776
1*
#16816
1!
#16836
b110100001100 a
b110100001100 \
b110100001100 +
b110100001100 H
b110100001100 W
#16856
b10001 )
b10001 E
b10001 _
b10001 c
b10001 X
#16915
00
#16926
b111000001100 I
b10 [
#16966
b1100000001 S
#16975
0*
#16986
b1100000001 >
b1100000001 "
b1100000001 9
b1100000001 D
#17015
0!
#17114
10
#17136
b100001 $
b100001 =
b100001 @
b100001 C
b100001 ?
#17174
1*
#17214
1!
#17234
b111000001100 a
b111000001100 \
b111000001100 +
b111000001100 H
b111000001100 W
#17254
b100001 )
b100001 E
b100001 _
b100001 c
b100001 X
#17313
00
#17324
b111100001100 I
b1 [
#17364
b10000000001 S
#17373
0*
#17384
b10000000001 >
b10000000001 "
b10000000001 9
b10000000001 D
#17413
0!
#17512
10
#17534
b110001 $
b110001 =
b110001 @
b110001 C
b110001 ?
#17572
1*
#17612
1!
#17632
b111100001100 a
b111100001100 \
b111100001100 +
b111100001100 H
b111100001100 W
#17652
b110001 )
b110001 E
b110001 _
b110001 c
b110001 X
#17711
00
#17722
b1000000001100 I
b0 [
#17762
b10100000001 S
#17771
0*
#17782
b10100000001 >
b10100000001 "
b10100000001 9
b10100000001 D
#17811
0!
#17910
10
#17932
b1000001 $
b1000001 =
b1000001 @
b1000001 C
b1000001 ?
#17970
1*
#18010
1!
#18030
b1000000001100 a
b1000000001100 \
b1000000001100 +
b1000000001100 H
b1000000001100 W
#18050
b1000001 )
b1000001 E
b1000001 _
b1000001 c
b1000001 X
#18090
b101100001100 I
b101 [
#18109
00
#18169
0*
#18180
b101100001101 I
b11 Z
#18209
0!
#18220
b1 S
#18240
b1 >
b1 "
b1 9
b1 D
#18260
b10 S
#18280
b10 >
b10 "
b10 9
b10 D
#18308
10
#18368
1*
#18390
b10101110 $
b10101110 =
b10101110 @
b10101110 C
b10101110 ?
#18408
1!
#18428
b101100001101 a
b101100001101 \
b101100001101 +
b101100001101 H
b101100001101 W
#18448
b10101110 )
b10101110 E
b10101110 _
b10101110 c
b10101110 X
#18507
00
#18518
b110000001101 I
b100 [
#18558
b100000010 S
#18567
0*
#18578
b100000010 >
b100000010 "
b100000010 9
b100000010 D
b1101 b
b1101 ^
#18607
0!
#18706
10
#18728
b10 $
b10 =
b10 @
b10 C
b10 ?
#18766
1*
#18773
bz a
bz \
z]
bz +
bz H
bz )
bz E
bz _
bz c
0A
12
#18806
1!
#18905
00
#18923
bx b
bx ^
#19005
0!
#19104
10
#19204
1!
#19303
00
#19403
0!
#19502
10
#19602
1!
#19701
00
#19801
0!
#19900
10
#20000
1!
#20099
00
#20199
0!
#20298
10
#20362
b101100001101 a
b101100001101 \
0]
b101100001101 +
b101100001101 H
b10101110 )
b10101110 E
b10101110 _
b10101110 c
1A
02
#20398
1!
#20418
b110000001101 a
b110000001101 \
b110000001101 +
b110000001101 H
b110000001101 W
#20438
b10 )
b10 E
b10 _
b10 c
b10 X
#20497
00
#20508
b110100001101 I
b11 [
#20512
b1101 b
#20548
b1000000010 S
#20557
0*
#20568
b1000000010 >
b1000000010 "
b1000000010 9
b1000000010 D
b1101 ^
#20597
0!
#20696
10
#20718
b10010 $
b10010 =
b10010 @
b10010 C
b10010 ?
#20756
1*
#20796
1!
#20816
b110100001101 a
b110100001101 \
b110100001101 +
b110100001101 H
b110100001101 W
#20836
b10010 )
b10010 E
b10010 _
b10010 c
b10010 X
#20895
00
#20906
b111000001101 I
b10 [
#20946
b1100000010 S
#20955
0*
#20966
b1100000010 >
b1100000010 "
b1100000010 9
b1100000010 D
#20995
0!
#21094
10
#21116
b100010 $
b100010 =
b100010 @
b100010 C
b100010 ?
#21154
1*
#21194
1!
#21214
b111000001101 a
b111000001101 \
b111000001101 +
b111000001101 H
b111000001101 W
#21234
b100010 )
b100010 E
b100010 _
b100010 c
b100010 X
#21293
00
#21304
b111100001101 I
b1 [
#21344
b10000000010 S
#21353
0*
#21364
b10000000010 >
b10000000010 "
b10000000010 9
b10000000010 D
#21393
0!
#21492
10
#21514
b110010 $
b110010 =
b110010 @
b110010 C
b110010 ?
#21552
1*
#21592
1!
#21612
b111100001101 a
b111100001101 \
b111100001101 +
b111100001101 H
b111100001101 W
#21632
b110010 )
b110010 E
b110010 _
b110010 c
b110010 X
#21691
00
#21702
b1000000001101 I
b0 [
#21742
b10100000010 S
#21751
0*
#21762
b10100000010 >
b10100000010 "
b10100000010 9
b10100000010 D
#21791
0!
#21890
10
#21912
b1000010 $
b1000010 =
b1000010 @
b1000010 C
b1000010 ?
#21950
1*
#21990
1!
#22010
b1000000001101 a
b1000000001101 \
b1000000001101 +
b1000000001101 H
b1000000001101 W
#22030
b1000010 )
b1000010 E
b1000010 _
b1000010 c
b1000010 X
#22070
b101100001101 I
b101 [
#22089
00
#22149
0*
#22160
b101100001110 I
b10 Z
#22189
0!
#22200
b10 S
#22220
b10 >
b10 "
b10 9
b10 D
#22240
b11 S
#22260
b11 >
b11 "
b11 9
b11 D
#22288
10
#22348
1*
#22370
b10101110 $
b10101110 =
b10101110 @
b10101110 C
b10101110 ?
#22388
1!
#22408
b101100001110 a
b101100001110 \
b101100001110 +
b101100001110 H
b101100001110 W
#22428
b10101110 )
b10101110 E
b10101110 _
b10101110 c
b10101110 X
#22487
00
#22498
b110000001110 I
b100 [
#22538
b100000011 S
#22547
0*
#22558
b100000011 >
b100000011 "
b100000011 9
b100000011 D
b1110 b
b1110 ^
#22587
0!
#22686
10
#22708
b11 $
b11 =
b11 @
b11 C
b11 ?
#22746
1*
#22786
1!
#22806
b110000001110 a
b110000001110 \
b110000001110 +
b110000001110 H
b110000001110 W
#22826
b11 )
b11 E
b11 _
b11 c
b11 X
#22885
00
#22896
b110100001110 I
b11 [
#22936
b1000000011 S
#22945
0*
#22956
b1000000011 >
b1000000011 "
b1000000011 9
b1000000011 D
#22985
0!
#23084
10
#23106
b10011 $
b10011 =
b10011 @
b10011 C
b10011 ?
#23144
1*
#23184
1!
#23204
b110100001110 a
b110100001110 \
b110100001110 +
b110100001110 H
b110100001110 W
#23224
b10011 )
b10011 E
b10011 _
b10011 c
b10011 X
#23283
00
#23294
b111000001110 I
b10 [
#23334
b1100000011 S
#23343
0*
#23354
b1100000011 >
b1100000011 "
b1100000011 9
b1100000011 D
#23383
0!
#23482
10
#23504
b100011 $
b100011 =
b100011 @
b100011 C
b100011 ?
#23542
1*
#23582
1!
#23602
b111000001110 a
b111000001110 \
b111000001110 +
b111000001110 H
b111000001110 W
#23622
b100011 )
b100011 E
b100011 _
b100011 c
b100011 X
#23681
00
#23692
b111100001110 I
b1 [
#23732
b10000000011 S
#23741
0*
#23752
b10000000011 >
b10000000011 "
b10000000011 9
b10000000011 D
#23781
0!
#23880
10
#23902
b110011 $
b110011 =
b110011 @
b110011 C
b110011 ?
#23940
1*
#23980
1!
#24000
b111100001110 a
b111100001110 \
b111100001110 +
b111100001110 H
b111100001110 W
#24020
b110011 )
b110011 E
b110011 _
b110011 c
b110011 X
#24079
00
#24090
b1000000001110 I
b0 [
#24130
b10100000011 S
#24139
0*
#24150
b10100000011 >
b10100000011 "
b10100000011 9
b10100000011 D
#24179
0!
#24278
10
#24300
b1000011 $
b1000011 =
b1000011 @
b1000011 C
b1000011 ?
#24338
1*
#24378
1!
#24398
b1000000001110 a
b1000000001110 \
b1000000001110 +
b1000000001110 H
b1000000001110 W
#24418
b1000011 )
b1000011 E
b1000011 _
b1000011 c
b1000011 X
#24458
b101100001110 I
b101 [
#24477
00
#24537
0*
#24548
b101100001111 I
b1 Z
#24577
0!
#24588
b11 S
#24608
b11 >
b11 "
b11 9
b11 D
#24628
b100 S
#24648
b100 >
b100 "
b100 9
b100 D
#24676
10
#24736
1*
#24758
b10101110 $
b10101110 =
b10101110 @
b10101110 C
b10101110 ?
#24776
1!
#24796
b101100001111 a
b101100001111 \
b101100001111 +
b101100001111 H
b101100001111 W
#24816
b10101110 )
b10101110 E
b10101110 _
b10101110 c
b10101110 X
#24875
00
#24886
b110000001111 I
b100 [
#24926
b100000100 S
#24935
0*
#24946
b100000100 >
b100000100 "
b100000100 9
b100000100 D
b1111 b
b1111 ^
#24975
0!
#25074
10
#25096
b100 $
b100 =
b100 @
b100 C
b100 ?
#25134
1*
#25174
1!
#25194
b110000001111 a
b110000001111 \
b110000001111 +
b110000001111 H
b110000001111 W
#25214
b100 )
b100 E
b100 _
b100 c
b100 X
#25273
00
#25284
b110100001111 I
b11 [
#25324
b1000000100 S
#25333
0*
#25344
b1000000100 >
b1000000100 "
b1000000100 9
b1000000100 D
#25373
0!
#25472
10
#25494
b10100 $
b10100 =
b10100 @
b10100 C
b10100 ?
#25532
1*
#25572
1!
#25592
b110100001111 a
b110100001111 \
b110100001111 +
b110100001111 H
b110100001111 W
#25612
b10100 )
b10100 E
b10100 _
b10100 c
b10100 X
#25671
00
#25682
b111000001111 I
b10 [
#25722
b1100000100 S
#25731
0*
#25742
b1100000100 >
b1100000100 "
b1100000100 9
b1100000100 D
#25771
0!
#25870
10
#25892
b100100 $
b100100 =
b100100 @
b100100 C
b100100 ?
#25930
1*
#25970
1!
#25990
b111000001111 a
b111000001111 \
b111000001111 +
b111000001111 H
b111000001111 W
#26010
b100100 )
b100100 E
b100100 _
b100100 c
b100100 X
#26069
00
#26080
b111100001111 I
b1 [
#26120
b10000000100 S
#26129
0*
#26140
b10000000100 >
b10000000100 "
b10000000100 9
b10000000100 D
#26169
0!
#26268
10
#26290
b110100 $
b110100 =
b110100 @
b110100 C
b110100 ?
#26328
1*
#26368
1!
#26388
b111100001111 a
b111100001111 \
b111100001111 +
b111100001111 H
b111100001111 W
#26408
b110100 )
b110100 E
b110100 _
b110100 c
b110100 X
#26467
00
#26478
b1000000001111 I
b0 [
#26518
b10100000100 S
#26527
0*
#26538
b10100000100 >
b10100000100 "
b10100000100 9
b10100000100 D
#26567
0!
#26666
10
#26688
b1000100 $
b1000100 =
b1000100 @
b1000100 C
b1000100 ?
#26726
1*
#26766
1!
#26786
b1000000001111 a
b1000000001111 \
b1000000001111 +
b1000000001111 H
b1000000001111 W
#26806
b1000100 )
b1000100 E
b1000100 _
b1000100 c
b1000100 X
#26846
b101100001111 I
b101 [
#26865
00
#26925
0*
#26936
b101100010000 I
b0 Z
#26965
0!
#26976
b100 S
#26996
b100 >
b100 "
b100 9
b100 D
#27016
b101 S
#27036
b101 >
b101 "
b101 9
b101 D
#27064
10
#27124
1*
#27146
b10101110 $
b10101110 =
b10101110 @
b10101110 C
b10101110 ?
#27164
1!
#27184
b101100010000 a
b101100010000 \
b101100010000 +
b101100010000 H
b101100010000 W
#27204
b10101110 )
b10101110 E
b10101110 _
b10101110 c
b10101110 X
#27263
00
#27274
b110000010000 I
b100 [
#27314
b100000101 S
#27323
0*
#27334
b100000101 >
b100000101 "
b100000101 9
b100000101 D
b10000 b
b10000 ^
#27363
0!
#27462
10
#27484
b101 $
b101 =
b101 @
b101 C
b101 ?
#27522
1*
#27562
1!
#27582
b110000010000 a
b110000010000 \
b110000010000 +
b110000010000 H
b110000010000 W
#27602
b101 )
b101 E
b101 _
b101 c
b101 X
#27661
00
#27672
b110100010000 I
b11 [
#27712
b1000000101 S
#27721
0*
#27732
b1000000101 >
b1000000101 "
b1000000101 9
b1000000101 D
#27761
0!
#27860
10
#27882
b10101 $
b10101 =
b10101 @
b10101 C
b10101 ?
#27920
1*
#27960
1!
#27980
b110100010000 a
b110100010000 \
b110100010000 +
b110100010000 H
b110100010000 W
#28000
b10101 )
b10101 E
b10101 _
b10101 c
b10101 X
#28059
00
#28070
b111000010000 I
b10 [
#28110
b1100000101 S
#28119
0*
#28130
b1100000101 >
b1100000101 "
b1100000101 9
b1100000101 D
#28159
0!
#28258
10
#28280
b100101 $
b100101 =
b100101 @
b100101 C
b100101 ?
#28318
1*
#28358
1!
#28378
b111000010000 a
b111000010000 \
b111000010000 +
b111000010000 H
b111000010000 W
#28398
b100101 )
b100101 E
b100101 _
b100101 c
b100101 X
#28457
00
#28468
b111100010000 I
b1 [
#28508
b10000000101 S
#28517
0*
#28528
b10000000101 >
b10000000101 "
b10000000101 9
b10000000101 D
#28557
0!
#28656
10
#28678
b110101 $
b110101 =
b110101 @
b110101 C
b110101 ?
#28716
1*
#28756
1!
#28776
b111100010000 a
b111100010000 \
b111100010000 +
b111100010000 H
b111100010000 W
#28796
b110101 )
b110101 E
b110101 _
b110101 c
b110101 X
#28855
00
#28866
b1000000010000 I
b0 [
#28906
b10100000101 S
#28915
0*
#28926
b10100000101 >
b10100000101 "
b10100000101 9
b10100000101 D
#28955
0!
#29054
10
#29076
b1000101 $
b1000101 =
b1000101 @
b1000101 C
b1000101 ?
#29114
1*
#29154
1!
#29174
b1000000010000 a
b1000000010000 \
b1000000010000 +
b1000000010000 H
b1000000010000 W
#29194
b1000101 )
b1000101 E
b1000101 _
b1000101 c
b1000101 X
#29234
b101100010000 I
b101 [
#29253
00
#29313
0*
#29324
b101100010001 I
b11111111 Z
#29353
0!
#29364
b101 S
#29384
b101 >
b101 "
b101 9
b101 D
#29404
0J
0K
b110 S
#29424
bz $
bz =
bz @
bz C
1#
x%
1'
zB
b1111 -
b1111 ;
bz G
b0zzzzzzzzzzzzz >
bz "
bz 9
bz D
0,
#29452
10
#29454
1%
#29512
1*
#29552
bz a
bz \
z]
bz +
bz H
bz )
bz E
bz _
bz c
0A
0L
1!
#29574
bx ?
#29651
00
#29702
bx b
bx ^
