hardware/gfx_module/src/out/gfx_vga_tb.vcd
$date
	Thu Dec 19 02:09:29 2024
$end
$version
	Icarus Verilog
$end
$timescale
	100ps
$end
$scope module GfxVgaTb $end
$var wire 8 ! vdata [7:0] $end
$var wire 1 " vram1_cs $end
$var wire 1 # vram2_cs $end
$var wire 1 $ vsync $end
$var wire 1 % vga_out_b $end
$var wire 1 & vga_latch $end
$var wire 16 ' vaddr_mux [15:0] $end
$var wire 1 ( vaddr15_b $end
$var wire 16 ) vaddr [15:0] $end
$var wire 8 * pixel_data [7:0] $end
$var wire 2 + palette [1:0] $end
$var wire 8 , latch_cdata [7:0] $end
$var wire 1 - hsync $end
$var wire 1 . free_vbus_b $end
$var wire 1 / enabled_b $end
$var wire 8 0 cdata [7:0] $end
$var real 1 1 TCLK $end
$var reg 1 2 reg_clk $end
$var reg 2 3 reg_ctrl_addr [1:0] $end
$var reg 1 4 reg_ctrl_ce2 $end
$var reg 1 5 reg_ctrl_ce_b $end
$var reg 8 6 reg_ctrl_data [7:0] $end
$var reg 1 7 reg_ctrl_w_b $end
$scope module gfxAddrMuxInst0 $end
$var wire 1 8 i_addr_sel $end
$var wire 8 9 i_dma_addr [7:0] $end
$var wire 8 : i_vga_addr [7:0] $end
$var wire 8 ; o_addr [7:0] $end
$var wire 1 < o_addr7_b $end
$upscope $end
$scope module gfxAddrMuxInst1 $end
$var wire 1 = i_addr_sel $end
$var wire 8 > i_dma_addr [7:0] $end
$var wire 8 ? i_vga_addr [7:0] $end
$var wire 8 @ o_addr [7:0] $end
$var wire 1 ( o_addr7_b $end
$upscope $end
$scope module gfxVgaInst $end
$var wire 1 A active $end
$var wire 1 2 i_clk $end
$var wire 2 B i_ctrl_addr [1:0] $end
$var wire 1 4 i_ctrl_ce2 $end
$var wire 1 5 i_ctrl_ce_b $end
$var wire 8 C i_ctrl_data [7:0] $end
$var wire 1 7 i_ctrl_w_b $end
$var wire 8 D i_vdata [7:0] $end
$var wire 8 E i_vdata_delayed [7:0] $end
$var wire 1 F o_frame_end_b $end
$var wire 1 G o_frame_progress_b $end
$var wire 1 H o_frame_start_b $end
$var wire 1 . o_free_vbus_b $end
$var wire 1 - o_hsync $end
$var wire 2 I o_palette [1:0] $end
$var wire 1 % o_vga_out_b $end
$var wire 1 $ o_vsync $end
$var wire 16 J vaddr_shifted [15:0] $end
$var wire 16 K vaddr [15:0] $end
$var wire 1 L v_cnt_rst $end
$var wire 1 & o_vga_latch $end
$var wire 16 M o_vaddr [15:0] $end
$var wire 8 N o_pixel_data [7:0] $end
$var wire 1 / o_enabled_b $end
$var wire 10 O h_cnt_shifted [9:0] $end
$var wire 1 P h_cnt_rst $end
$var wire 8 Q dbr_pixel3 [7:0] $end
$var wire 8 R dbr_pixel2 [7:0] $end
$var wire 8 S dbr_pixel1 [7:0] $end
$var wire 8 T dbr_pixel0 [7:0] $end
$var wire 8 U dbr_pixel [7:0] $end
$var wire 1 V ctrl_enable $end
$var wire 1 W ctrl_double_res $end
$var parameter 10 X ACTIVE_H_END $end
$var parameter 10 Y ACTIVE_V_END $end
$var parameter 2 Z CTRL_ADDR_PALETTE $end
$var parameter 2 [ CTRL_ADDR_STATUS $end
$var parameter 2 \ CTRL_ADDR_X_SHIFT $end
$var parameter 2 ] CTRL_ADDR_Y_SHIFT $end
$var parameter 2 ^ CTRL_DOUBLE_RES $end
$var parameter 2 _ CTRL_ENABLE $end
$var parameter 10 ` FRAME_END_LINE $end
$var parameter 10 a FRAME_START_LINE $end
$var parameter 10 b HSYNC_END $end
$var parameter 10 c HSYNC_START $end
$var parameter 10 d H_CENTER_SHIFT $end
$var parameter 10 e H_CNT_RST $end
$var parameter 10 f VGA_OUT_END $end
$var parameter 10 g VGA_OUT_START $end
$var parameter 10 h VSYNC_END $end
$var parameter 10 i VSYNC_START $end
$var parameter 10 j V_CNT_RST $end
$var reg 2 k reg_ctrl_palette [1:0] $end
$var reg 2 l reg_ctrl_status [1:0] $end
$var reg 8 m reg_ctrl_x_shift [7:0] $end
$var reg 8 n reg_ctrl_y_shift [7:0] $end
$var reg 10 o reg_h_cnt [9:0] $end
$var reg 10 p reg_v_cnt [9:0] $end
$var reg 8 q reg_vdata [7:0] $end
$upscope $end
$scope module latch1Inst $end
$var wire 1 & i_clk $end
$var wire 1 % i_oe_b $end
$var wire 8 r o_out [7:0] $end
$var wire 8 s i_in [7:0] $end
$var parameter 32 t Delay $end
$var reg 8 u reg_q [7:0] $end
$upscope $end
$scope module paletteRamInst $end
$var wire 10 v i_addr_l [9:0] $end
$var wire 10 w i_addr_r [9:0] $end
$var wire 1 / i_ce_l_b $end
$var wire 1 x i_ce_r_b $end
$var wire 1 y i_oe_l_b $end
$var wire 1 z i_oe_r_b $end
$var wire 1 { i_rw_l_b $end
$var wire 1 | i_rw_r_b $end
$var wire 8 } int_data_l [7:0] $end
$var wire 8 ~ int_data_r [7:0] $end
$var wire 8 !" io_data_r [7:0] $end
$var wire 8 "" io_data_l [7:0] $end
$var parameter 32 #" AddrWidth $end
$var parameter 32 $" Delay $end
$var parameter 184 %" InitFile $end
$upscope $end
$scope module vram32Inst1 $end
$var wire 15 &" i_addr [14:0] $end
$var wire 1 " i_ce_b $end
$var wire 1 '" i_re_b $end
$var wire 1 (" i_we_b $end
$var wire 8 )" int_data [7:0] $end
$var wire 8 *" io_data [7:0] $end
$var parameter 32 +" AddrWidth $end
$var parameter 32 ," Delay $end
$var parameter 0 -" InitFile $end
$var integer 32 ." i [31:0] $end
$upscope $end
$scope module vram32Inst2 $end
$var wire 15 /" i_addr [14:0] $end
$var wire 1 # i_ce_b $end
$var wire 1 0" i_re_b $end
$var wire 1 1" i_we_b $end
$var wire 8 2" int_data [7:0] $end
$var wire 8 3" io_data [7:0] $end
$var parameter 32 4" AddrWidth $end
$var parameter 32 5" Delay $end
$var parameter 0 6" InitFile $end
$var integer 32 7" i [31:0] $end
$upscope $end
$upscope $end
$enddefinitions $end
$comment Show the parameter values. $end
$dumpall
b 6"
b1111 5"
b1111 4"
b -"
b1111 ,"
b1111 +"
b10111000101111011100100110000101101101001011110110001101101111011011000110111101110010010111110111000001100001011011000110010101110100011101000110010101011111011100100110000101101101 %"
b100011 $"
b1010 #"
b101 t
b1000001101 j
b111101010 i
b111101100 h
b1000100 g
b1001000011 f
b1100011111 e
b1000000 d
b1010010000 c
b1011110000 b
b0 a
b111100000 `
b0 _
b1 ^
b10 ]
b1 \
b0 [
b11 Z
b111100000 Y
b1000000011 X
r39.721946 1
$end
#0
$dumpvars
b111111111111111 7"
bx 3"
bx 2"
11"
00"
bx /"
b111111111111111 ."
bx *"
bx )"
1("
0'"
bx &"
bx ""
bz !"
bx ~
bx }
1|
1{
1z
0y
1x
b0 w
bx v
bx u
bx s
bx r
b0 q
b0 p
b0 o
b0 n
b0 m
b0 l
b0 k
0W
0V
b0 U
b0 T
b0 S
b0 R
b0 Q
0P
b1111000000 O
bx N
bx M
0L
b11100000 K
b11100000 J
bx I
xH
xG
xF
bx E
bx D
b1 C
b0 B
0A
bx @
bx ?
b1010 >
0=
x<
bx ;
bx :
b1010 9
08
17
b1 6
05
14
b0 3
12
bx 0
x/
x.
x-
bx ,
bx +
bx *
bx )
x(
bx '
x&
x%
x$
x#
x"
bx !
$end
#20
b0xxxxxxxx v
b0 +
b0 I
#50
bz 0
bz s
bz ""
1&
1H
1G
b0 v
b0 *
b0 N
1/
1F
1%
1$
1-
#60
0.
#100
bz ,
bz r
#120
bz @
bz ?
bz '
bz ;
bz :
1"
bz /"
bz &"
bz )
bz M
#199
02
#350
b10011001 ~
#397
1V
b1 l
07
#398
12
#400
b10011001 }
#438
b1111000001 O
b1 o
#447
b10011001 0
b10011001 s
b10011001 ""
0G
0H
0/
#488
0&
#597
02
#794
17
#796
12
#836
b11100001 J
b11100001 K
b1111000010 O
b10 o
#886
b10011001 u
1&
#995
02
#1194
12
#1234
b1111000011 O
b11 o
#1284
0&
#1393
02
#1592
12
#1632
b11100010 J
b11100010 K
b1111000100 O
b100 o
#1682
1&
#1791
02
#1990
12
#2030
b1111000101 O
b101 o
#2080
0&
#2189
02
#2388
12
#2428
b11100011 J
b11100011 K
b1111000110 O
b110 o
#2478
1&
#2587
02
#2786
12
#2826
b1111000111 O
b111 o
#2876
0&
#2985
02
#3184
12
#3224
b11100100 J
b11100100 K
b1111001000 O
b1000 o
#3274
1&
#3383
02
#3582
12
#3622
b1111001001 O
b1001 o
#3672
0&
#3781
02
#3980
12
#4020
b11100101 J
b11100101 K
b1111001010 O
b1010 o
#4070
1&
#4179
02
#4378
12
#4418
b1111001011 O
b1011 o
#4468
0&
#4577
02
#4776
12
#4816
b11100110 J
b11100110 K
b1111001100 O
b1100 o
#4866
1&
#4975
02
#5174
12
#5214
b1111001101 O
b1101 o
#5264
0&
#5373
02
#5572
12
#5612
b11100111 J
b11100111 K
b1111001110 O
b1110 o
#5662
1&
#5771
02
#5970
12
#6010
b1111001111 O
b1111 o
#6060
0&
#6169
02
#6368
12
#6408
b11101000 J
b11101000 K
b1111010000 O
b10000 o
#6458
1&
#6567
02
#6766
12
#6806
b1111010001 O
b10001 o
#6856
0&
#6965
02
#7164
12
#7204
b11101001 J
b11101001 K
b1111010010 O
b10010 o
#7254
1&
#7363
02
#7562
12
#7602
b1111010011 O
b10011 o
#7652
0&
#7761
02
#7960
12
#8000
b11101010 J
b11101010 K
b1111010100 O
b10100 o
#8050
1&
#8159
02
#8358
12
#8398
b1111010101 O
b10101 o
#8448
0&
#8557
02
#8756
12
#8796
b11101011 J
b11101011 K
b1111010110 O
b10110 o
#8846
1&
#8955
02
#9154
12
#9194
b1111010111 O
b10111 o
#9244
0&
#9353
02
#9552
12
#9592
b11101100 J
b11101100 K
b1111011000 O
b11000 o
#9642
1&
#9751
02
#9950
12
#9990
b1111011001 O
b11001 o
#10040
0&
#10149
02
#10348
12
#10388
b11101101 J
b11101101 K
b1111011010 O
b11010 o
#10438
1&
#10547
02
#10746
12
#10786
b1111011011 O
b11011 o
#10836
0&
#10945
02
#11144
12
#11184
b11101110 J
b11101110 K
b1111011100 O
b11100 o
#11234
1&
#11343
02
#11542
12
#11582
b1111011101 O
b11101 o
#11632
0&
#11741
02
#11940
12
#11980
b11101111 J
b11101111 K
b1111011110 O
b11110 o
#12030
1&
#12139
02
#12338
12
#12378
b1111011111 O
b11111 o
#12428
0&
#12537
02
#12736
12
#12776
b11110000 J
b11110000 K
b1111100000 O
b100000 o
#12826
1&
#12935
02
#13134
12
#13174
b1111100001 O
b100001 o
#13224
0&
#13333
02
#13532
12
#13572
b11110001 J
b11110001 K
b1111100010 O
b100010 o
#13622
1&
#13731
02
#13930
12
#13970
b1111100011 O
b100011 o
#14020
0&
#14129
02
#14328
12
#14368
b11110010 J
b11110010 K
b1111100100 O
b100100 o
#14418
1&
#14527
02
#14726
12
#14766
b1111100101 O
b100101 o
#14816
0&
#14925
02
#15124
12
#15164
b11110011 J
b11110011 K
b1111100110 O
b100110 o
#15214
1&
#15323
02
#15522
12
#15562
b1111100111 O
b100111 o
#15612
0&
#15721
02
#15920
12
#15960
b11110100 J
b11110100 K
b1111101000 O
b101000 o
#16010
1&
#16119
02
#16318
12
#16358
b1111101001 O
b101001 o
#16408
0&
#16517
02
#16716
12
#16756
b11110101 J
b11110101 K
b1111101010 O
b101010 o
#16806
1&
#16915
02
#17114
12
#17154
b1111101011 O
b101011 o
#17204
0&
#17313
02
#17512
12
#17552
b11110110 J
b11110110 K
b1111101100 O
b101100 o
#17602
1&
#17711
02
#17910
12
#17950
b1111101101 O
b101101 o
#18000
0&
#18109
02
#18308
12
#18348
b11110111 J
b11110111 K
b1111101110 O
b101110 o
#18398
1&
#18507
02
#18706
12
#18746
b1111101111 O
b101111 o
#18796
0&
#18905
02
#19104
12
#19144
b11111000 J
b11111000 K
b1111110000 O
b110000 o
#19194
1&
#19303
02
#19502
12
#19542
b1111110001 O
b110001 o
#19592
0&
#19701
02
#19900
12
#19940
b11111001 J
b11111001 K
b1111110010 O
b110010 o
#19990
1&
#20099
02
#20298
12
#20338
b1111110011 O
b110011 o
#20388
0&
#20497
02
#20696
12
#20736
b11111010 J
b11111010 K
b1111110100 O
b110100 o
#20786
1&
#20895
02
#21094
12
#21134
b1111110101 O
b110101 o
#21184
0&
#21293
02
#21492
12
#21532
b11111011 J
b11111011 K
b1111110110 O
b110110 o
#21582
1&
#21691
02
#21890
12
#21930
b1111110111 O
b110111 o
#21980
0&
#22089
02
#22288
12
#22328
b11111100 J
b11111100 K
b1111111000 O
b111000 o
#22378
1&
#22487
02
#22686
12
#22726
b1111111001 O
b111001 o
#22776
0&
#22885
02
#23084
12
#23124
b11111101 J
b11111101 K
b1111111010 O
b111010 o
#23174
1&
#23283
02
#23482
12
#23522
b1111111011 O
b111011 o
#23572
0&
#23681
02
#23880
12
#23920
b11111110 J
b11111110 K
b1111111100 O
b111100 o
#23970
1&
#24079
02
#24278
12
#24318
b1111111101 O
b111101 o
#24368
0&
#24477
02
#24676
12
#24716
b11111111 J
b11111111 K
b1111111110 O
b111110 o
#24766
1&
#24875
02
#25074
12
#25114
b1111111111 O
b111111 o
#25164
0&
#25273
02
#25472
12
#25512
b0 J
b0 K
1A
b0 O
b1000000 o
#25562
1&
#25632
1#
1(
1<
b0 @
b0 ?
b0 '
b0 ;
b0 :
0"
b0 /"
b0 &"
b0 )
b0 M
#25671
02
#25782
b0 !
b0 D
b0 *"
b0 3"
b0 2"
b0 )"
#25812
b0 E
#25870
12
#25910
b1 O
b1000001 o
#25960
0&
#25970
1.
#26069
02
#26268
12
#26308
b1 J
b1 K
b10 O
b1000010 o
#26358
1&
#26368
0.
#26428
b1 '
b1 ;
b1 :
b1 /"
b1 &"
b1 )
b1 M
#26467
02
#26578
b1 !
b1 D
b1 *"
b1 3"
b1 2"
b1 )"
#26608
b1 E
#26666
12
#26706
b11 O
b1000011 o
#26756
0&
#26766
1.
#26865
02
#27064
12
#27094
b1 U
b1 T
b1 q
#27104
b10 J
b10 K
b0 U
b100 O
b1000100 o
#27144
b1 v
b1 *
b1 N
#27154
1&
0%
#27164
0.
#27204
b10011001 ,
b10011001 r
#27224
b10 '
b10 ;
b10 :
b10 /"
b10 &"
b10 )
b10 M
#27263
02
#27374
b10 !
b10 D
b10 *"
b10 3"
b10 2"
b10 )"
#27404
b10 E
#27462
12
#27494
b1 0
b1 s
b1 ""
b1 }
#27502
b101 O
b1000101 o
#27552
0&
#27562
1.
#27661
02
#27860
12
#27890
b10 T
b10 q
#27900
b11 J
b11 K
b110 O
b1000110 o
#27940
b10 v
b10 *
b10 N
#27950
b1 u
1&
#27960
0.
#28000
b1 ,
b1 r
#28020
b11 '
b11 ;
b11 :
b11 /"
b11 &"
b11 )
b11 M
#28059
02
#28170
b11 !
b11 D
b11 *"
b11 3"
b11 2"
b11 )"
#28200
b11 E
#28258
12
#28290
b10 0
b10 s
b10 ""
b10 }
#28298
b10 U
b111 O
b1000111 o
#28348
0&
#28358
1.
#28457
02
#28656
12
#28686
b11 U
b11 T
b11 q
#28696
b100 J
b100 K
b0 U
b1000 O
b1001000 o
#28736
b11 v
b11 *
b11 N
#28746
b10 u
1&
#28756
0.
#28796
b10 ,
b10 r
#28816
b100 '
b100 ;
b100 :
b100 /"
b100 &"
b100 )
b100 M
#28855
02
#28966
b100 !
b100 D
b100 *"
b100 3"
b100 2"
b100 )"
#28996
b100 E
#29054
12
#29086
b11 0
b11 s
b11 ""
b11 }
#29094
b1001 O
b1001001 o
#29144
0&
#29154
1.
#29253
02
#29452
12
#29482
b0 T
b1 S
b100 q
#29492
b101 J
b101 K
b1010 O
b1001010 o
#29532
b100 v
b100 *
b100 N
#29542
b11 u
1&
#29552
0.
#29592
b11 ,
b11 r
#29612
b101 '
b101 ;
b101 :
b101 /"
b101 &"
b101 )
b101 M
#29651
02
#29762
b101 !
b101 D
b101 *"
b101 3"
b101 2"
b101 )"
#29792
b101 E
#29850
12
#29882
b100 0
b100 s
b100 ""
b100 }
#29890
b1011 O
b1001011 o
#29940
0&
#29950
1.
#30049
02
#30248
12
#30278
b1 U
b1 T
b101 q
#30288
b110 J
b110 K
b1100 O
b1001100 o
#30328
b101 v
b101 *
b101 N
#30338
b100 u
1&
#30348
0.
#30388
b100 ,
b100 r
#30408
b110 '
b110 ;
b110 :
b110 /"
b110 &"
b110 )
b110 M
#30447
02
#30558
b110 !
b110 D
b110 *"
b110 3"
b110 2"
b110 )"
#30588
b110 E
#30646
12
#30678
b101 0
b101 s
b101 ""
b101 }
#30686
b0 U
b1101 O
b1001101 o
#30736
0&
#30746
1.
#30845
02
#31044
12
#31074
b10 T
b110 q
#31084
b111 J
b111 K
b1110 O
b1001110 o
#31124
b110 v
b110 *
b110 N
#31134
b101 u
1&
#31144
0.
#31184
b101 ,
b101 r
#31204
b111 '
b111 ;
b111 :
b111 /"
b111 &"
b111 )
b111 M
#31243
02
#31354
b111 !
b111 D
b111 *"
b111 3"
b111 2"
b111 )"
#31384
b111 E
#31442
12
#31474
b110 0
b110 s
b110 ""
b110 }
#31482
b10 U
b1111 O
b1001111 o
#31532
0&
#31542
1.
#31641
02
#31840
12
#31870
b11 U
b11 T
b111 q
#31880
b1000 J
b1000 K
b1 U
b10000 O
b1010000 o
#31920
b111 v
b111 *
b111 N
#31930
b110 u
1&
#31940
0.
#31980
b110 ,
b110 r
#32000
b1000 '
b1000 ;
b1000 :
b1000 /"
b1000 &"
b1000 )
b1000 M
#32039
02
#32150
b1000 !
b1000 D
b1000 *"
b1000 3"
b1000 2"
b1000 )"
#32180
b1000 E
#32238
12
#32270
b111 0
b111 s
b111 ""
b111 }
#32278
b0 U
b10001 O
b1010001 o
#32328
0&
#32338
1.
#32437
02
#32636
12
#32666
b0 T
b10 S
b1000 q
#32676
b1001 J
b1001 K
b10010 O
b1010010 o
#32716
b1000 v
b1000 *
b1000 N
#32726
b111 u
1&
#32736
0.
#32776
b111 ,
b111 r
#32796
b1001 '
b1001 ;
b1001 :
b1001 /"
b1001 &"
b1001 )
b1001 M
#32835
02
#32946
b1001 !
b1001 D
b1001 *"
b1001 3"
b1001 2"
b1001 )"
#32976
b1001 E
#33034
12
#33066
b1000 0
b1000 s
b1000 ""
b1000 }
#33074
b10011 O
b1010011 o
#33124
0&
#33134
1.
#33233
02
#33432
12
#33462
b1 U
b1 T
b1001 q
#33472
b1010 J
b1010 K
b10 U
b10100 O
b1010100 o
#33512
b1001 v
b1001 *
b1001 N
#33522
b1000 u
1&
#33532
0.
#33572
b1000 ,
b1000 r
#33592
b1010 '
b1010 ;
b1010 :
b1010 /"
b1010 &"
b1010 )
b1010 M
#33631
02
#33742
b1010 !
b1010 D
b1010 *"
b1010 3"
b1010 2"
b1010 )"
#33772
b1010 E
#33830
12
#33862
b1001 0
b1001 s
b1001 ""
b1001 }
#33870
b0 U
b10101 O
b1010101 o
#33920
0&
#33930
1.
#34029
02
#34228
12
#34258
b10 T
b1010 q
#34268
b1011 J
b1011 K
b10110 O
b1010110 o
#34308
b1010 v
b1010 *
b1010 N
#34318
b1001 u
1&
#34328
0.
#34368
b1001 ,
b1001 r
#34388
b1011 '
b1011 ;
b1011 :
b1011 /"
b1011 &"
b1011 )
b1011 M
#34427
02
#34538
b1011 !
b1011 D
b1011 *"
b1011 3"
b1011 2"
b1011 )"
#34568
b1011 E
#34626
12
#34658
b1010 0
b1010 s
b1010 ""
b1010 }
#34666
b10 U
b10111 O
b1010111 o
#34716
0&
#34726
1.
#34825
02
#35024
12
#35054
b11 U
b11 T
b1011 q
#35064
b1100 J
b1100 K
b10 U
b11000 O
b1011000 o
#35104
b1011 v
b1011 *
b1011 N
#35114
b1010 u
1&
#35124
0.
#35164
b1010 ,
b1010 r
#35184
b1100 '
b1100 ;
b1100 :
b1100 /"
b1100 &"
b1100 )
b1100 M
#35223
02
#35334
b1100 !
b1100 D
b1100 *"
b1100 3"
b1100 2"
b1100 )"
#35364
b1100 E
#35422
12
#35454
b1011 0
b1011 s
b1011 ""
b1011 }
#35462
b0 U
b11001 O
b1011001 o
#35512
0&
#35522
1.
#35621
02
#35820
12
#35850
b0 T
b11 S
b1100 q
#35860
b1101 J
b1101 K
b11010 O
b1011010 o
#35900
b1100 v
b1100 *
b1100 N
#35910
b1011 u
1&
#35920
0.
#35960
b1011 ,
b1011 r
#35980
b1101 '
b1101 ;
b1101 :
b1101 /"
b1101 &"
b1101 )
b1101 M
#36019
02
#36130
b1101 !
b1101 D
b1101 *"
b1101 3"
b1101 2"
b1101 )"
#36160
b1101 E
#36218
12
#36250
b1100 0
b1100 s
b1100 ""
b1100 }
#36258
b11011 O
b1011011 o
#36308
0&
#36318
1.
#36417
02
#36616
12
#36646
b1 U
b1 T
b1101 q
#36656
b1110 J
b1110 K
b11 U
b11100 O
b1011100 o
#36696
b1101 v
b1101 *
b1101 N
#36706
b1100 u
1&
#36716
0.
#36756
b1100 ,
b1100 r
#36776
b1110 '
b1110 ;
b1110 :
b1110 /"
b1110 &"
b1110 )
b1110 M
#36815
02
#36926
b1110 !
b1110 D
b1110 *"
b1110 3"
b1110 2"
b1110 )"
#36956
b1110 E
#37014
12
#37046
b1101 0
b1101 s
b1101 ""
b1101 }
#37054
b0 U
b11101 O
b1011101 o
#37104
0&
#37114
1.
#37213
02
#37412
12
#37442
b10 T
b1110 q
#37452
b1111 J
b1111 K
b11110 O
b1011110 o
#37492
b1110 v
b1110 *
b1110 N
#37502
b1101 u
1&
#37512
0.
#37552
b1101 ,
b1101 r
#37572
b1111 '
b1111 ;
b1111 :
b1111 /"
b1111 &"
b1111 )
b1111 M
#37611
02
#37722
b1111 !
b1111 D
b1111 *"
b1111 3"
b1111 2"
b1111 )"
#37752
b1111 E
#37810
12
#37842
b1110 0
b1110 s
b1110 ""
b1110 }
#37850
b10 U
b11111 O
b1011111 o
#37900
0&
#37910
1.
#38009
02
#38208
12
#38238
b11 U
b11 T
b1111 q
#38248
b10000 J
b10000 K
b100000 O
b1100000 o
#38288
b1111 v
b1111 *
b1111 N
#38298
b1110 u
1&
#38308
0.
#38348
b1110 ,
b1110 r
#38368
b10000 '
b10000 ;
b10000 :
b10000 /"
b10000 &"
b10000 )
b10000 M
#38407
02
#38518
b10000 !
b10000 D
b10000 *"
b10000 3"
b10000 2"
b10000 )"
#38548
b10000 E
#38606
12
#38638
b1111 0
b1111 s
b1111 ""
b1111 }
#38646
b0 U
b100001 O
b1100001 o
#38696
0&
#38706
1.
#38805
02
#39004
12
#39034
b1 U
b0 T
b0 S
b1 R
b10000 q
#39044
b10001 J
b10001 K
b0 U
b100010 O
b1100010 o
#39084
b10000 v
b10000 *
b10000 N
#39094
b1111 u
1&
#39104
0.
#39144
b1111 ,
b1111 r
#39164
b10001 '
b10001 ;
b10001 :
b10001 /"
b10001 &"
b10001 )
b10001 M
#39203
02
#39314
b10001 !
b10001 D
b10001 *"
b10001 3"
b10001 2"
b10001 )"
#39344
b10001 E
#39402
12
#39434
b10000 0
b10000 s
b10000 ""
b10000 }
#39442
b100011 O
b1100011 o
#39492
0&
#39502
1.
#39601
02
#39800
12
#39830
b1 U
b1 T
b10001 q
#39840
b10010 J
b10010 K
b0 U
b100100 O
b1100100 o
#39880
b10001 v
b10001 *
b10001 N
#39890
b10000 u
1&
#39900
0.
#39940
b10000 ,
b10000 r
#39960
b10010 '
b10010 ;
b10010 :
b10010 /"
b10010 &"
b10010 )
b10010 M
#39999
02
#40110
b10010 !
b10010 D
b10010 *"
b10010 3"
b10010 2"
b10010 )"
#40140
b10010 E
#40198
12
#40230
b10001 0
b10001 s
b10001 ""
b10001 }
#40238
b1 U
b100101 O
b1100101 o
#40288
0&
#40298
1.
#40397
02
#40596
12
#40626
b10 T
b10010 q
#40636
b10011 J
b10011 K
b0 U
b100110 O
b1100110 o
#40676
b10010 v
b10010 *
b10010 N
#40686
b10001 u
1&
#40696
0.
#40736
b10001 ,
b10001 r
#40756
b10011 '
b10011 ;
b10011 :
b10011 /"
b10011 &"
b10011 )
b10011 M
#40795
02
#40906
b10011 !
b10011 D
b10011 *"
b10011 3"
b10011 2"
b10011 )"
#40936
b10011 E
#40994
12
#41026
b10010 0
b10010 s
b10010 ""
b10010 }
#41034
b10 U
b100111 O
b1100111 o
#41084
0&
#41094
1.
#41193
02
#41392
12
#41422
b11 U
b11 T
b10011 q
#41432
b10100 J
b10100 K
b0 U
b101000 O
b1101000 o
#41472
b10011 v
b10011 *
b10011 N
#41482
b10010 u
1&
#41492
0.
#41532
b10010 ,
b10010 r
#41552
b10100 '
b10100 ;
b10100 :
b10100 /"
b10100 &"
b10100 )
b10100 M
#41591
02
#41702
b10100 !
b10100 D
b10100 *"
b10100 3"
b10100 2"
b10100 )"
#41732
b10100 E
#41790
12
#41822
b10011 0
b10011 s
b10011 ""
b10011 }
#41830
b1 U
b101001 O
b1101001 o
#41880
0&
#41890
1.
#41989
02
#42188
12
#42218
b0 T
b1 S
b10100 q
#42228
b10101 J
b10101 K
b0 U
b101010 O
b1101010 o
#42268
b10100 v
b10100 *
b10100 N
#42278
b10011 u
1&
#42288
0.
#42328
b10011 ,
b10011 r
#42348
b10101 '
b10101 ;
b10101 :
b10101 /"
b10101 &"
b10101 )
b10101 M
#42387
02
#42498
b10101 !
b10101 D
b10101 *"
b10101 3"
b10101 2"
b10101 )"
#42528
b10101 E
#42586
12
#42618
b10100 0
b10100 s
b10100 ""
b10100 }
#42626
b101011 O
b1101011 o
#42676
0&
#42686
1.
#42785
02
#42984
12
#43014
b1 U
b1 T
b10101 q
#43024
b10110 J
b10110 K
b101100 O
b1101100 o
#43064
b10101 v
b10101 *
b10101 N
#43074
b10100 u
1&
#43084
0.
#43124
b10100 ,
b10100 r
#43144
b10110 '
b10110 ;
b10110 :
b10110 /"
b10110 &"
b10110 )
b10110 M
#43183
02
#43294
b10110 !
b10110 D
b10110 *"
b10110 3"
b10110 2"
b10110 )"
#43324
b10110 E
#43382
12
#43414
b10101 0
b10101 s
b10101 ""
b10101 }
#43422
b101101 O
b1101101 o
#43472
0&
#43482
1.
#43581
02
#43780
12
#43810
b10 T
b10110 q
#43820
b10111 J
b10111 K
b0 U
b101110 O
b1101110 o
#43860
b10110 v
b10110 *
b10110 N
#43870
b10101 u
1&
#43880
0.
#43920
b10101 ,
b10101 r
#43940
b10111 '
b10111 ;
b10111 :
b10111 /"
b10111 &"
b10111 )
b10111 M
#43979
02
#44090
b10111 !
b10111 D
b10111 *"
b10111 3"
b10111 2"
b10111 )"
#44120
b10111 E
#44178
12
#44210
b10110 0
b10110 s
b10110 ""
b10110 }
#44218
b10 U
b101111 O
b1101111 o
#44268
0&
#44278
1.
#44377
02
#44576
12
#44606
b11 U
b11 T
b10111 q
#44616
b11000 J
b11000 K
b1 U
b110000 O
b1110000 o
#44656
b10111 v
b10111 *
b10111 N
#44666
b10110 u
1&
#44676
0.
#44716
b10110 ,
b10110 r
#44736
b11000 '
b11000 ;
b11000 :
b11000 /"
b11000 &"
b11000 )
b11000 M
#44775
02
#44886
b11000 !
b11000 D
b11000 *"
b11000 3"
b11000 2"
b11000 )"
#44916
b11000 E
#44974
12
#45006
b10111 0
b10111 s
b10111 ""
b10111 }
#45014
b110001 O
b1110001 o
#45064
0&
#45074
1.
#45173
02
#45372
12
#45402
b0 T
b10 S
b11000 q
#45412
b11001 J
b11001 K
b0 U
b110010 O
b1110010 o
#45452
b11000 v
b11000 *
b11000 N
#45462
b10111 u
1&
#45472
0.
#45512
b10111 ,
b10111 r
#45532
b11001 '
b11001 ;
b11001 :
b11001 /"
b11001 &"
b11001 )
b11001 M
#45571
02
#45682
b11001 !
b11001 D
b11001 *"
b11001 3"
b11001 2"
b11001 )"
#45712
b11001 E
#45770
12
#45802
b11000 0
b11000 s
b11000 ""
b11000 }
#45810
b110011 O
b1110011 o
#45860
0&
#45870
1.
#45969
02
#46168
12
#46198
b1 U
b1 T
b11001 q
#46208
b11010 J
b11010 K
b10 U
b110100 O
b1110100 o
#46248
b11001 v
b11001 *
b11001 N
#46258
b11000 u
1&
#46268
0.
#46308
b11000 ,
b11000 r
#46328
b11010 '
b11010 ;
b11010 :
b11010 /"
b11010 &"
b11010 )
b11010 M
#46367
02
#46478
b11010 !
b11010 D
b11010 *"
b11010 3"
b11010 2"
b11010 )"
#46508
b11010 E
#46566
12
#46598
b11001 0
b11001 s
b11001 ""
b11001 }
#46606
b1 U
b110101 O
b1110101 o
#46656
0&
#46666
1.
#46765
02
#46964
12
#46994
b10 T
b11010 q
#47004
b11011 J
b11011 K
b0 U
b110110 O
b1110110 o
#47044
b11010 v
b11010 *
b11010 N
#47054
b11001 u
1&
#47064
0.
#47104
b11001 ,
b11001 r
#47124
b11011 '
b11011 ;
b11011 :
b11011 /"
b11011 &"
b11011 )
b11011 M
#47163
02
#47274
b11011 !
b11011 D
b11011 *"
b11011 3"
b11011 2"
b11011 )"
#47304
b11011 E
#47362
12
#47394
b11010 0
b11010 s
b11010 ""
b11010 }
#47402
b10 U
b110111 O
b1110111 o
#47452
0&
#47462
1.
#47561
02
#47760
12
#47790
b11 U
b11 T
b11011 q
#47800
b11100 J
b11100 K
b10 U
b111000 O
b1111000 o
#47840
b11011 v
b11011 *
b11011 N
#47850
b11010 u
1&
#47860
0.
#47900
b11010 ,
b11010 r
#47920
b11100 '
b11100 ;
b11100 :
b11100 /"
b11100 &"
b11100 )
b11100 M
#47959
02
#48070
b11100 !
b11100 D
b11100 *"
b11100 3"
b11100 2"
b11100 )"
#48100
b11100 E
#48158
12
#48190
b11011 0
b11011 s
b11011 ""
b11011 }
#48198
b1 U
b111001 O
b1111001 o
#48248
0&
#48258
1.
#48357
02
#48556
12
#48586
b0 T
b11 S
b11100 q
