hardware/gfx_module/src/out/gfx_tb.vcd
$date
	Thu Dec 26 10:19:48 2024
$end
$version
	Icarus Verilog
$end
$timescale
	100ps
$end
$scope module GfxTb $end
$var wire 8 ! cbus_data [7:0] $end
$var wire 1 " clk $end
$var wire 1 # dma_ce_b $end
$var wire 15 $ dram_addr [14:0] $end
$var wire 1 % dram_ce_b $end
$var wire 8 & dram_data [7:0] $end
$var wire 1 ' dram_re_b $end
$var wire 1 ( dram_we_b $end
$var wire 1 ) vga_signal_hsync $end
$var wire 8 * vga_signal_rgb [7:0] $end
$var wire 1 + vga_signal_vsync $end
$var wire 8 , vram_data [7:0] $end
$var wire 16 - vram_addr [15:0] $end
$var wire 1 . vram1_cs_b $end
$var wire 1 / vram0_cs_b $end
$var wire 1 0 vga_vsync $end
$var wire 16 1 vga_vram_addr [15:0] $end
$var wire 8 2 vga_pixel_data [7:0] $end
$var wire 2 3 vga_palette_data [1:0] $end
$var wire 1 4 vga_out_b $end
$var wire 1 5 vga_latch $end
$var wire 1 6 vga_hsync $end
$var wire 1 7 vga_free_vbus $end
$var wire 1 8 vga_enabled_b $end
$var wire 8 9 plt_data [7:0] $end
$var wire 8 : latch_vga_signals [7:0] $end
$var wire 1 ; dma_vram_we_b $end
$var wire 16 < dma_vram_addr [15:0] $end
$var wire 1 = dma_vaddr_sel $end
$var wire 1 > dma_active $end
$var wire 4 ? bd_int_ctrl [3:0] $end
$var parameter 1 @ HIGH $end
$var parameter 1 A HZ $end
$var parameter 1 B LOW $end
$var real 1 C T_UCLK $end
$var real 1 D T_VCLK $end
$var reg 13 E reg_cbus_addr [12:0] $end
$var reg 2 F reg_cbus_bank_sel [1:0] $end
$var reg 8 G reg_cbus_data [7:0] $end
$var reg 1 H reg_cbus_dma_ce_b $end
$var reg 1 I reg_cbus_dram_ce_b $end
$var reg 1 J reg_cbus_plt_ce_b $end
$var reg 1 K reg_cbus_re_b $end
$var reg 1 L reg_cbus_vga_ce_b $end
$var reg 1 M reg_cbus_we_b $end
$var reg 1 N reg_clk2 $end
$scope module bdAddrInst $end
$var wire 15 O i_a [14:0] $end
$var wire 15 P o_y [14:0] $end
$var wire 1 > i_oe_b $end
$var parameter 32 Q BusWidth $end
$var parameter 32 R Delay $end
$upscope $end
$scope module bdCtrlInst $end
$var wire 4 S i_a [3:0] $end
$var wire 4 T o_y [3:0] $end
$var wire 1 > i_oe_b $end
$var parameter 32 U BusWidth $end
$var parameter 32 V Delay $end
$upscope $end
$scope module bdDataInst $end
$var wire 1 K i_dir $end
$var wire 8 W io_a [7:0] $end
$var wire 8 X io_b [7:0] $end
$var wire 1 > i_oe_b $end
$var parameter 32 Y BusWidth $end
$var parameter 32 Z Delay $end
$upscope $end
$scope module dram32Inst0 $end
$var wire 15 [ i_addr [14:0] $end
$var wire 1 % i_ce_b $end
$var wire 1 ' i_re_b $end
$var wire 1 ( i_we_b $end
$var wire 8 \ io_data [7:0] $end
$var parameter 32 ] AddrWidth $end
$var parameter 32 ^ Delay $end
$var parameter 32 _ HZDelay1 $end
$var parameter 32 ` HZDelay2 $end
$var parameter 0 a InitFile $end
$var integer 32 b i [31:0] $end
$upscope $end
$scope module gfxAddrMuxInst0 $end
$var wire 8 c i_dma_addr [7:0] $end
$var wire 8 d i_vga_addr [7:0] $end
$var wire 1 e o_addr7_b $end
$var wire 8 f o_addr [7:0] $end
$var wire 1 = i_addr_sel $end
$upscope $end
$scope module gfxAddrMuxInst1 $end
$var wire 8 g i_dma_addr [7:0] $end
$var wire 8 h i_vga_addr [7:0] $end
$var wire 1 . o_addr7_b $end
$var wire 8 i o_addr [7:0] $end
$var wire 1 = i_addr_sel $end
$upscope $end
$scope module gfxDmaInst $end
$var wire 1 j dst_out_enabled $end
$var wire 1 " i_clk $end
$var wire 1 N i_clk2 $end
$var wire 1 " i_clk3 $end
$var wire 1 # i_src_ce_b $end
$var wire 8 k i_src_data [7:0] $end
$var wire 13 l io_src_addr [12:0] $end
$var wire 1 ( io_src_we_b $end
$var wire 1 > o_active $end
$var wire 1 = o_addr_sel $end
$var wire 16 m o_dst_addr [15:0] $end
$var wire 8 n o_dst_data [7:0] $end
$var wire 1 ; o_dst_we_b $end
$var wire 1 o skip_cpy $end
$var wire 2 p o_src_ram_page [1:0] $end
$var wire 1 7 i_free_vbus $end
$var wire 16 q dst_addr_offset [15:0] $end
$var parameter 1 r CFG_CPY_ALL $end
$var parameter 1 s CFG_CPY_NON_ZERO $end
$var parameter 3 t CTRL_ADDR_DST_ADDR_H $end
$var parameter 3 u CTRL_ADDR_DST_ADDR_L $end
$var parameter 3 v CTRL_ADDR_HEIGHT $end
$var parameter 3 w CTRL_ADDR_MASK $end
$var parameter 3 x CTRL_ADDR_SRC_ADDR_H $end
$var parameter 3 y CTRL_ADDR_SRC_ADDR_L $end
$var parameter 3 z CTRL_ADDR_STATE $end
$var parameter 3 { CTRL_ADDR_WIDTH $end
$var reg 1 | reg_active $end
$var reg 1 } reg_active_clk1 $end
$var reg 1 ~ reg_active_clk2 $end
$var reg 1 !" reg_ctrl_config $end
$var reg 5 "" reg_ctrl_cpy_x_mask [4:0] $end
$var reg 3 #" reg_ctrl_cpy_y_mask [2:0] $end
$var reg 2 $" reg_ctrl_data_mask [1:0] $end
$var reg 8 %" reg_ctrl_dst_x_origin [7:0] $end
$var reg 8 &" reg_ctrl_dst_y_origin [7:0] $end
$var reg 8 '" reg_ctrl_height [7:0] $end
$var reg 2 (" reg_ctrl_src_ram_page [1:0] $end
$var reg 8 )" reg_ctrl_src_x_origin [7:0] $end
$var reg 5 *" reg_ctrl_src_y_origin [4:0] $end
$var reg 8 +" reg_ctrl_width [7:0] $end
$var reg 16 ," reg_dst_addr_hold [15:0] $end
$var reg 8 -" reg_dst_data_hold [7:0] $end
$var reg 1 ." reg_free_vbus $end
$var reg 13 /" reg_src_addr [12:0] $end
$var reg 8 0" reg_x_cnt [7:0] $end
$var reg 8 1" reg_y_cnt [7:0] $end
$upscope $end
$scope module gfxVgaInst $end
$var wire 1 2" active $end
$var wire 1 " i_clk $end
$var wire 2 3" i_ctrl_addr [1:0] $end
$var wire 1 L i_ctrl_ce_b $end
$var wire 1 K i_ctrl_re_b $end
$var wire 1 M i_ctrl_we_b $end
$var wire 8 4" i_vdata [7:0] $end
$var wire 8 5" i_vdata_delayed [7:0] $end
$var wire 8 6" io_ctrl_data [7:0] $end
$var wire 1 7" o_frame_end_b $end
$var wire 1 8" o_frame_progress_b $end
$var wire 1 9" o_frame_start_b $end
$var wire 1 7 o_free_vbus $end
$var wire 1 6 o_hsync $end
$var wire 2 :" o_palette [1:0] $end
$var wire 16 ;" o_vaddr [15:0] $end
$var wire 1 4 o_vga_out_b $end
$var wire 1 0 o_vsync $end
$var wire 16 <" vaddr_shifted [15:0] $end
$var wire 16 =" vaddr [15:0] $end
$var wire 1 >" v_cnt_rst $end
$var wire 1 5 o_vga_latch $end
$var wire 8 ?" o_pixel_data [7:0] $end
$var wire 1 8 o_enabled_b $end
$var wire 10 @" h_cnt_shifted [9:0] $end
$var wire 1 A" h_cnt_rst $end
$var wire 8 B" dbr_pixel3 [7:0] $end
$var wire 8 C" dbr_pixel2 [7:0] $end
$var wire 8 D" dbr_pixel1 [7:0] $end
$var wire 8 E" dbr_pixel0 [7:0] $end
$var wire 8 F" dbr_pixel [7:0] $end
$var wire 1 G" ctrl_enable $end
$var wire 1 H" ctrl_double_res $end
$var parameter 10 I" ACTIVE_H_END $end
$var parameter 10 J" ACTIVE_V_END $end
$var parameter 2 K" CTRL_ADDR_PALETTE $end
$var parameter 2 L" CTRL_ADDR_STATUS $end
$var parameter 2 M" CTRL_ADDR_X_SHIFT $end
$var parameter 2 N" CTRL_ADDR_Y_SHIFT $end
$var parameter 2 O" CTRL_DOUBLE_RES $end
$var parameter 2 P" CTRL_ENABLE $end
$var parameter 10 Q" FRAME_END_LINE $end
$var parameter 10 R" FRAME_START_LINE $end
$var parameter 10 S" HSYNC_END $end
$var parameter 10 T" HSYNC_START $end
$var parameter 10 U" H_CENTER_SHIFT $end
$var parameter 10 V" H_CNT_RST $end
$var parameter 10 W" VGA_OUT_END $end
$var parameter 10 X" VGA_OUT_START $end
$var parameter 10 Y" VSYNC_END $end
$var parameter 10 Z" VSYNC_START $end
$var parameter 10 [" V_CNT_RST $end
$var reg 2 \" reg_ctrl_palette [1:0] $end
$var reg 2 ]" reg_ctrl_status [1:0] $end
$var reg 8 ^" reg_ctrl_x_shift [7:0] $end
$var reg 8 _" reg_ctrl_y_shift [7:0] $end
$var reg 10 `" reg_h_cnt [9:0] $end
$var reg 10 a" reg_v_cnt [9:0] $end
$var reg 8 b" reg_vdata [7:0] $end
$upscope $end
$scope module latch0Inst $end
$var wire 1 5 i_clk $end
$var wire 8 c" i_in [7:0] $end
$var wire 1 8 i_oe_b $end
$var wire 8 d" o_out [7:0] $end
$var parameter 32 e" Delay $end
$var reg 8 f" reg_q [7:0] $end
$upscope $end
$scope module latch1Inst $end
$var wire 1 5 i_clk $end
$var wire 1 4 i_oe_b $end
$var wire 8 g" o_out [7:0] $end
$var wire 8 h" i_in [7:0] $end
$var parameter 32 i" Delay $end
$var reg 8 j" reg_q [7:0] $end
$upscope $end
$scope module paletteRamInst $end
$var wire 10 k" i_addr_l [9:0] $end
$var wire 10 l" i_addr_r [9:0] $end
$var wire 1 J i_ce_l_b $end
$var wire 1 8 i_ce_r_b $end
$var wire 1 K i_oe_l_b $end
$var wire 1 8 i_oe_r_b $end
$var wire 1 M i_rw_l_b $end
$var wire 1 m" i_rw_r_b $end
$var wire 8 n" int_data_l [7:0] $end
$var wire 8 o" int_data_r [7:0] $end
$var wire 8 p" io_data_l [7:0] $end
$var wire 8 q" io_data_r [7:0] $end
$var parameter 32 r" AddrWidth $end
$var parameter 32 s" Delay $end
$var parameter 184 t" InitFile $end
$upscope $end
$scope module vram32Inst0 $end
$var wire 15 u" i_addr [14:0] $end
$var wire 1 / i_ce_b $end
$var wire 1 = i_re_b $end
$var wire 1 ; i_we_b $end
$var wire 8 v" io_data [7:0] $end
$var parameter 32 w" AddrWidth $end
$var parameter 32 x" Delay $end
$var parameter 32 y" HZDelay1 $end
$var parameter 32 z" HZDelay2 $end
$var parameter 0 {" InitFile $end
$var integer 32 |" i [31:0] $end
$upscope $end
$scope module vram32Inst1 $end
$var wire 15 }" i_addr [14:0] $end
$var wire 1 . i_ce_b $end
$var wire 1 = i_re_b $end
$var wire 1 ; i_we_b $end
$var wire 8 ~" io_data [7:0] $end
$var parameter 32 !# AddrWidth $end
$var parameter 32 "# Delay $end
$var parameter 32 ## HZDelay1 $end
$var parameter 32 $# HZDelay2 $end
$var parameter 0 %# InitFile $end
$var integer 32 &# i [31:0] $end
$upscope $end
$upscope $end
$enddefinitions $end
$comment Show the parameter values. $end
$dumpall
b %#
b110 $#
b0 ##
b1111 "#
b1111 !#
b {"
b110 z"
b0 y"
b1111 x"
b1111 w"
b10111000101111011100100110000101101101001011110110001101101111011011000110111101110010010111110111000001100001011011000110010101110100011101000110010101011111011100100110000101101101 t"
b100011 s"
b1010 r"
b101 i"
b101 e"
b1000001101 ["
b111101010 Z"
b111101100 Y"
b1000100 X"
b1001000011 W"
b1100011111 V"
b1000000 U"
b1010010000 T"
b1011110000 S"
b0 R"
b111100000 Q"
b0 P"
b1 O"
b10 N"
b1 M"
b0 L"
b11 K"
b111100000 J"
b1000000011 I"
b100 {
b111 z
b0 y
b1 x
b110 w
b101 v
b10 u
b11 t
0s
1r
b a
b110 `
b0 _
b1111 ^
b1111 ]
b101 Z
b1000 Y
b101 V
b100 U
b101 R
b1111 Q
r39.721946 D
r79.44389200000001 C
0B
zA
1@
$end
#0
$dumpvars
b111111111111111 &#
bx ~"
bx }"
b111111111111111 |"
bx v"
bx u"
bx q"
bx p"
bx o"
bx n"
1m"
bx l"
b0 k"
bx j"
bx h"
bx g"
bx f"
bx d"
b0xx c"
b0 b"
b0 a"
b0 `"
b0 _"
b0 ^"
b0 ]"
b0 \"
0H"
0G"
b0 F"
b0 E"
b0 D"
b0 C"
b0 B"
0A"
b1111000000 @"
bx ?"
0>"
b11100000 ="
b11100000 <"
bx ;"
bx :"
x9"
x8"
x7"
bx 6"
bx 5"
bx 4"
b0 3"
02"
b0 1"
b0 0"
b0 /"
0."
b10101010 -"
b0 ,"
b0 +"
b0 *"
b0 )"
b0 ("
b0 '"
b0 &"
b0 %"
b0 $"
b111 #"
b11111 ""
0!"
0~
0}
0|
b0 q
bx p
0o
bx n
b0 m
bx l
bx k
0j
bx i
bx h
b0 g
bx f
xe
bx d
b0 c
b111111111111111 b
bx \
bx [
bx X
bx W
bx T
b1111 S
bx P
b0 O
1N
1M
1L
1K
1J
1I
1H
b0 G
b0 F
b0 E
bx ?
x>
x=
b0 <
x;
bx :
bx 9
x8
x7
x6
x5
x4
bx 3
bx 2
bx 1
x0
x/
x.
bx -
bx ,
x+
bx *
x)
x(
x'
bx &
x%
bx $
x#
x"
bx !
$end
#20
bz p
0>
b0xxxxxxxx l"
b0 3
b0 :"
#50
b11 f"
bz 9
bz h"
bz q"
15
19"
18"
b0 !
b0 W
b0 6"
b0 p"
b0 l"
b0 2
b0 ?"
18
17"
14
10
b11 c"
16
0=
#60
1."
17
1;
1"
#70
1(
1'
1#
1%
b0 l
b0 $
b0 P
b0 [
b1111 ?
b1111 T
#100
0+
0)
bz :
bz d"
b0 *
b0 g"
#110
1=
#120
b0 h
b11100000 d
b11100000 1
b11100000 ;"
#199
0N
#210
0/
b0 }"
b0 u"
1.
b0 i
1e
b0 -
b0 f
#220
b0 &
b0 X
b0 \
b0 k
#259
0"
#260
bz ,
bz n
bz 4"
bz v"
bz ~"
#290
bz 5"
#350
b10011001 n"
#398
1N
#400
b10011001 o"
#458
1"
#597
0N
#657
0"
#794
1G"
b1 ]"
b111 S
0M
0L
b1 !
b1 W
b1 6"
b1 p"
b1 G
#796
1N
#844
b10011001 9
b10011001 h"
b10011001 q"
0(
08"
09"
08
b111 ?
b111 T
b1 &
b1 X
b1 \
b1 k
#856
1"
#894
1+
1)
b11 :
b11 d"
#896
b1111000001 @"
b1 `"
#946
05
#995
0N
#1055
0"
#1194
1N
#1254
1"
#1294
b11100001 <"
b11100001 ="
b1111000010 @"
b10 `"
#1344
b10011001 j"
15
#1393
0N
#1414
b11100001 d
b11100001 1
b11100001 ;"
#1453
0"
#1588
b1111 S
1M
1L
#1592
1N
#1638
1(
b1111 ?
b1111 T
#1652
1"
#1692
b1111000011 @"
b11 `"
#1742
05
#1791
0N
#1851
0"
#1990
1N
#2050
1"
#2090
b11100010 <"
b11100010 ="
b1111000100 @"
b100 `"
#2140
15
#2189
0N
#2210
b11100010 d
b11100010 1
b11100010 ;"
#2249
0"
#2388
1N
#2448
1"
#2488
b1111000101 @"
b101 `"
#2538
05
#2587
0N
#2647
0"
#2786
1N
#2846
1"
#2886
b11100011 <"
b11100011 ="
b1111000110 @"
b110 `"
#2936
15
#2985
0N
#3006
b11100011 d
b11100011 1
b11100011 ;"
#3045
0"
#3184
1N
#3244
1"
#3284
b1111000111 @"
b111 `"
#3334
05
#3383
0N
#3443
0"
#3582
1N
#3642
1"
#3682
b11100100 <"
b11100100 ="
b1111001000 @"
b1000 `"
#3732
15
#3781
0N
#3802
b11100100 d
b11100100 1
b11100100 ;"
#3841
0"
#3980
1N
#4040
1"
#4080
b1111001001 @"
b1001 `"
#4130
05
#4179
0N
#4239
0"
#4378
1N
#4438
1"
#4478
b11100101 <"
b11100101 ="
b1111001010 @"
b1010 `"
#4528
15
#4577
0N
#4598
b11100101 d
b11100101 1
b11100101 ;"
#4637
0"
#4776
1N
#4836
1"
#4876
b1111001011 @"
b1011 `"
#4926
05
#4975
0N
#5035
0"
#5174
1N
#5234
1"
#5274
b11100110 <"
b11100110 ="
b1111001100 @"
b1100 `"
#5324
15
#5373
0N
#5394
b11100110 d
b11100110 1
b11100110 ;"
#5433
0"
#5572
1N
#5632
1"
#5672
b1111001101 @"
b1101 `"
#5722
05
#5771
0N
#5831
0"
#5970
1N
#6030
1"
#6070
b11100111 <"
b11100111 ="
b1111001110 @"
b1110 `"
#6120
15
#6169
0N
#6190
b11100111 d
b11100111 1
b11100111 ;"
#6229
0"
#6368
1N
#6428
1"
#6468
b1111001111 @"
b1111 `"
#6518
05
#6567
0N
#6627
0"
#6766
1N
#6826
1"
#6866
b11101000 <"
b11101000 ="
b1111010000 @"
b10000 `"
#6916
15
#6965
0N
#6986
b11101000 d
b11101000 1
b11101000 ;"
#7025
0"
#7164
1N
#7224
1"
#7264
b1111010001 @"
b10001 `"
#7314
05
#7363
0N
#7423
0"
#7562
1N
#7622
1"
#7662
b11101001 <"
b11101001 ="
b1111010010 @"
b10010 `"
#7712
15
#7761
0N
#7782
b11101001 d
b11101001 1
b11101001 ;"
#7821
0"
#7960
1N
#8020
1"
#8060
b1111010011 @"
b10011 `"
#8110
05
#8159
0N
#8219
0"
#8358
1N
#8418
1"
#8458
b11101010 <"
b11101010 ="
b1111010100 @"
b10100 `"
#8508
15
#8557
0N
#8578
b11101010 d
b11101010 1
b11101010 ;"
#8617
0"
#8756
1N
#8816
1"
#8856
b1111010101 @"
b10101 `"
#8906
05
#8955
0N
#9015
0"
#9154
1N
#9214
1"
#9254
b11101011 <"
b11101011 ="
b1111010110 @"
b10110 `"
#9304
15
#9353
0N
#9374
b11101011 d
b11101011 1
b11101011 ;"
#9413
0"
#9552
1N
#9612
1"
#9652
b1111010111 @"
b10111 `"
#9702
05
#9751
0N
#9811
0"
#9950
1N
#10010
1"
#10050
b11101100 <"
b11101100 ="
b1111011000 @"
b11000 `"
#10100
15
#10149
0N
#10170
b11101100 d
b11101100 1
b11101100 ;"
#10209
0"
#10348
1N
#10408
1"
#10448
b1111011001 @"
b11001 `"
#10498
05
#10547
0N
#10607
0"
#10746
1N
#10806
1"
#10846
b11101101 <"
b11101101 ="
b1111011010 @"
b11010 `"
#10896
15
#10945
0N
#10966
b11101101 d
b11101101 1
b11101101 ;"
#11005
0"
#11144
1N
#11204
1"
#11244
b1111011011 @"
b11011 `"
#11294
05
#11343
0N
#11403
0"
#11542
1N
#11602
1"
#11642
b11101110 <"
b11101110 ="
b1111011100 @"
b11100 `"
#11692
15
#11741
0N
#11762
b11101110 d
b11101110 1
b11101110 ;"
#11801
0"
#11940
1N
#12000
1"
#12040
b1111011101 @"
b11101 `"
#12090
05
#12139
0N
#12199
0"
#12338
1N
#12398
1"
#12438
b11101111 <"
b11101111 ="
b1111011110 @"
b11110 `"
#12488
15
#12537
0N
#12558
b11101111 d
b11101111 1
b11101111 ;"
#12597
0"
#12736
1N
#12796
1"
#12836
b1111011111 @"
b11111 `"
#12886
05
#12935
0N
#12995
0"
#13134
1N
#13194
1"
#13234
b11110000 <"
b11110000 ="
b1111100000 @"
b100000 `"
#13284
15
#13333
0N
#13354
b11110000 d
b11110000 1
b11110000 ;"
#13393
0"
#13532
1N
#13592
1"
#13632
b1111100001 @"
b100001 `"
#13682
05
#13731
0N
#13791
0"
#13930
1N
#13990
1"
#14030
b11110001 <"
b11110001 ="
b1111100010 @"
b100010 `"
#14080
15
#14129
0N
#14150
b11110001 d
b11110001 1
b11110001 ;"
#14189
0"
#14328
1N
#14388
1"
#14428
b1111100011 @"
b100011 `"
#14478
05
#14527
0N
#14587
0"
#14726
1N
#14786
1"
#14826
b11110010 <"
b11110010 ="
b1111100100 @"
b100100 `"
#14876
15
#14925
0N
#14946
b11110010 d
b11110010 1
b11110010 ;"
#14985
0"
#15124
1N
#15184
1"
#15224
b1111100101 @"
b100101 `"
#15274
05
#15323
0N
#15383
0"
#15522
1N
#15582
1"
#15622
b11110011 <"
b11110011 ="
b1111100110 @"
b100110 `"
#15672
15
#15721
0N
#15742
b11110011 d
b11110011 1
b11110011 ;"
#15781
0"
#15920
1N
#15980
1"
#16020
b1111100111 @"
b100111 `"
#16070
05
#16119
0N
#16179
0"
#16318
1N
#16378
1"
#16418
b11110100 <"
b11110100 ="
b1111101000 @"
b101000 `"
#16468
15
#16517
0N
#16538
b11110100 d
b11110100 1
b11110100 ;"
#16577
0"
#16716
1N
#16776
1"
#16816
b1111101001 @"
b101001 `"
#16866
05
#16915
0N
#16975
0"
#17114
1N
#17174
1"
#17214
b11110101 <"
b11110101 ="
b1111101010 @"
b101010 `"
#17264
15
#17313
0N
#17334
b11110101 d
b11110101 1
b11110101 ;"
#17373
0"
#17512
1N
#17572
1"
#17612
b1111101011 @"
b101011 `"
#17662
05
#17711
0N
#17771
0"
#17910
1N
#17970
1"
#18010
b11110110 <"
b11110110 ="
b1111101100 @"
b101100 `"
#18060
15
#18109
0N
#18130
b11110110 d
b11110110 1
b11110110 ;"
#18169
0"
#18308
1N
#18368
1"
#18408
b1111101101 @"
b101101 `"
#18458
05
#18507
0N
#18567
0"
#18706
1N
#18766
1"
#18806
b11110111 <"
b11110111 ="
b1111101110 @"
b101110 `"
#18856
15
#18905
0N
#18926
b11110111 d
b11110111 1
b11110111 ;"
#18965
0"
#19104
1N
#19164
1"
#19204
b1111101111 @"
b101111 `"
#19254
05
#19303
0N
#19363
0"
#19502
1N
#19562
1"
#19602
b11111000 <"
b11111000 ="
b1111110000 @"
b110000 `"
#19652
15
#19701
0N
#19722
b11111000 d
b11111000 1
b11111000 ;"
#19761
0"
#19900
1N
#19960
1"
#20000
b1111110001 @"
b110001 `"
#20050
05
#20099
0N
#20159
0"
#20298
1N
#20358
1"
#20398
b11111001 <"
b11111001 ="
b1111110010 @"
b110010 `"
#20448
15
#20497
0N
#20518
b11111001 d
b11111001 1
b11111001 ;"
#20557
0"
#20696
1N
#20756
1"
#20796
b1111110011 @"
b110011 `"
#20846
05
#20895
0N
#20955
0"
#21094
1N
#21154
1"
#21194
b11111010 <"
b11111010 ="
b1111110100 @"
b110100 `"
#21244
15
#21293
0N
#21314
b11111010 d
b11111010 1
b11111010 ;"
#21353
0"
#21492
1N
#21552
1"
#21592
b1111110101 @"
b110101 `"
#21642
05
#21691
0N
#21751
0"
#21890
1N
#21950
1"
#21990
b11111011 <"
b11111011 ="
b1111110110 @"
b110110 `"
#22040
15
#22089
0N
#22110
b11111011 d
b11111011 1
b11111011 ;"
#22149
0"
#22288
1N
#22348
1"
#22388
b1111110111 @"
b110111 `"
#22438
05
#22487
0N
#22547
0"
#22686
1N
#22746
1"
#22786
b11111100 <"
b11111100 ="
b1111111000 @"
b111000 `"
#22836
15
#22885
0N
#22906
b11111100 d
b11111100 1
b11111100 ;"
#22945
0"
#23084
1N
#23144
1"
#23184
b1111111001 @"
b111001 `"
#23234
05
#23283
0N
#23343
0"
#23482
1N
#23542
1"
#23582
b11111101 <"
b11111101 ="
b1111111010 @"
b111010 `"
#23632
15
#23681
0N
#23702
b11111101 d
b11111101 1
b11111101 ;"
#23741
0"
#23880
1N
#23940
1"
#23980
b1111111011 @"
b111011 `"
#24030
05
#24079
0N
#24139
0"
#24278
1N
#24338
1"
#24378
b11111110 <"
b11111110 ="
b1111111100 @"
b111100 `"
#24428
15
#24477
0N
#24498
b11111110 d
b11111110 1
b11111110 ;"
#24537
0"
#24676
1N
#24736
1"
#24776
b1111111101 @"
b111101 `"
#24826
05
#24875
0N
#24935
0"
#25074
1N
#25134
1"
#25174
b11111111 <"
b11111111 ="
b1111111110 @"
b111110 `"
#25224
15
#25273
0N
#25294
b11111111 d
b11111111 1
b11111111 ;"
#25333
0"
#25472
1N
#25532
1"
#25572
b1111111111 @"
b111111 `"
#25622
05
#25671
0N
#25731
0"
#25870
1N
#25930
1"
#25970
b0 <"
b0 ="
12"
b0 @"
b1000000 `"
#26020
15
#26030
07
#26069
0N
#26090
b0 d
b0 1
b0 ;"
#26129
0"
#26268
1N
#26328
0."
1"
#26368
b1 @"
b1000001 `"
#26378
0=
#26418
05
#26428
17
#26467
0N
#26527
0"
#26528
b0 ,
b0 n
b0 4"
b0 v"
b0 ~"
#26558
b0 5"
#26666
1N
#26726
1."
1"
#26766
b1 <"
b1 ="
b10 @"
b1000010 `"
#26776
1=
#26816
15
#26826
07
#26865
0N
#26886
b1 d
b1 1
b1 ;"
#26925
0"
#26926
bz ,
bz n
bz 4"
bz v"
bz ~"
#26956
bz 5"
#27064
1N
#27124
0."
1"
#27164
b11 @"
b1000011 `"
#27174
0=
#27214
05
#27224
17
#27263
0N
#27274
b1 }"
b1 u"
b1 -
b1 f
#27323
0"
#27424
b1 ,
b1 n
b1 4"
b1 v"
b1 ~"
#27454
b1 5"
#27462
1N
#27522
1."
1"
#27552
b1 F"
b1 E"
b1 b"
#27562
b10 <"
b10 ="
b0 F"
b100 @"
b1000100 `"
#27572
1=
#27602
b1 l"
b1 2
b1 ?"
#27612
15
04
#27622
07
#27661
0N
#27662
b10011001 *
b10011001 g"
#27672
b0 }"
b0 u"
b0 -
b0 f
#27682
b10 d
b10 1
b10 ;"
#27721
0"
#27722
bz ,
bz n
bz 4"
bz v"
bz ~"
#27752
bz 5"
#27860
1N
#27920
0."
1"
#27952
b1 9
b1 h"
b1 q"
b1 o"
#27960
b101 @"
b1000101 `"
#27970
0=
#28010
05
#28020
17
#28059
0N
#28070
b10 }"
b10 u"
b10 -
b10 f
#28119
0"
#28220
b10 ,
b10 n
b10 4"
b10 v"
b10 ~"
#28250
b10 5"
#28258
1N
#28318
1."
1"
#28348
b10 E"
b10 b"
#28358
b11 <"
b11 ="
b110 @"
b1000110 `"
#28368
1=
#28398
b10 l"
b10 2
b10 ?"
#28408
b1 j"
15
#28418
07
#28457
0N
#28458
b1 *
b1 g"
#28468
b0 }"
b0 u"
b0 -
b0 f
#28478
b11 d
b11 1
b11 ;"
#28517
0"
#28518
bz ,
bz n
bz 4"
bz v"
bz ~"
#28548
bz 5"
#28656
1N
#28716
0."
1"
#28748
b10 9
b10 h"
b10 q"
b10 o"
#28756
b10 F"
b111 @"
b1000111 `"
#28766
0=
#28806
05
#28816
17
#28855
0N
#28866
b11 }"
b11 u"
b11 -
b11 f
#28915
0"
#29016
b11 ,
b11 n
b11 4"
b11 v"
b11 ~"
#29046
b11 5"
#29054
1N
#29114
1."
1"
#29144
b11 F"
b11 E"
b11 b"
#29154
b100 <"
b100 ="
b0 F"
b1000 @"
b1001000 `"
#29164
1=
#29194
b11 l"
b11 2
b11 ?"
#29204
b10 j"
15
#29214
07
#29253
0N
#29254
b10 *
b10 g"
#29264
b0 }"
b0 u"
b0 -
b0 f
#29274
b100 d
b100 1
b100 ;"
#29313
0"
#29314
bz ,
bz n
bz 4"
bz v"
bz ~"
#29344
bz 5"
#29452
1N
#29512
0."
1"
#29544
b11 9
b11 h"
b11 q"
b11 o"
#29552
b1001 @"
b1001001 `"
#29562
0=
#29602
05
#29612
17
#29651
0N
#29662
b100 }"
b100 u"
b100 -
b100 f
#29711
0"
#29812
b100 ,
b100 n
b100 4"
b100 v"
b100 ~"
#29842
b100 5"
#29850
1N
#29910
1."
1"
#29940
b0 E"
b1 D"
b100 b"
#29950
b101 <"
b101 ="
b1010 @"
b1001010 `"
#29960
1=
#29990
b100 l"
b100 2
b100 ?"
#30000
b11 j"
15
#30010
07
#30049
0N
#30050
b11 *
b11 g"
#30060
b0 }"
b0 u"
b0 -
b0 f
#30070
b101 d
b101 1
b101 ;"
#30109
0"
#30110
bz ,
bz n
bz 4"
bz v"
bz ~"
#30140
bz 5"
#30248
1N
#30308
0."
1"
#30340
b100 9
b100 h"
b100 q"
b100 o"
#30348
b1011 @"
b1001011 `"
#30358
0=
#30398
05
#30408
17
#30447
0N
#30458
b101 }"
b101 u"
b101 -
b101 f
#30507
0"
#30608
b101 ,
b101 n
b101 4"
b101 v"
b101 ~"
#30638
b101 5"
#30646
1N
#30706
1."
1"
#30736
b1 F"
b1 E"
b101 b"
#30746
b110 <"
b110 ="
b1100 @"
b1001100 `"
#30756
1=
#30786
b101 l"
b101 2
b101 ?"
#30796
b100 j"
15
#30806
07
#30845
0N
#30846
b100 *
b100 g"
#30856
b0 }"
b0 u"
b0 -
b0 f
#30866
b110 d
b110 1
b110 ;"
#30905
0"
#30906
bz ,
bz n
bz 4"
bz v"
bz ~"
#30936
bz 5"
#31044
1N
#31104
0."
1"
#31136
b101 9
b101 h"
b101 q"
b101 o"
#31144
b0 F"
b1101 @"
b1001101 `"
#31154
0=
#31194
05
#31204
17
#31243
0N
#31254
b110 }"
b110 u"
b110 -
b110 f
#31303
0"
#31404
b110 ,
b110 n
b110 4"
b110 v"
b110 ~"
#31434
b110 5"
#31442
1N
#31502
1."
1"
#31532
b10 E"
b110 b"
#31542
b111 <"
b111 ="
b1110 @"
b1001110 `"
#31552
1=
#31582
b110 l"
b110 2
b110 ?"
#31592
b101 j"
15
#31602
07
#31641
0N
#31642
b101 *
b101 g"
#31652
b0 }"
b0 u"
b0 -
b0 f
#31662
b111 d
b111 1
b111 ;"
#31701
0"
#31702
bz ,
bz n
bz 4"
bz v"
bz ~"
#31732
bz 5"
#31840
1N
#31900
0."
1"
#31932
b110 9
b110 h"
b110 q"
b110 o"
#31940
b10 F"
b1111 @"
b1001111 `"
#31950
0=
#31990
05
#32000
17
#32039
0N
#32050
b111 }"
b111 u"
b111 -
b111 f
#32099
0"
#32200
b111 ,
b111 n
b111 4"
b111 v"
b111 ~"
#32230
b111 5"
#32238
1N
#32298
1."
1"
#32328
b11 F"
b11 E"
b111 b"
#32338
b1000 <"
b1000 ="
b1 F"
b10000 @"
b1010000 `"
#32348
1=
#32378
b111 l"
b111 2
b111 ?"
#32388
b110 j"
15
#32398
07
#32437
0N
#32438
b110 *
b110 g"
#32448
b0 }"
b0 u"
b0 -
b0 f
#32458
b1000 d
b1000 1
b1000 ;"
#32497
0"
