hardware/gfx_module/src/out/gfx_vga_tb.vcd
$date
	Thu Nov  7 00:55:55 2024
$end
$version
	Icarus Verilog
$end
$timescale
	100ps
$end
$scope module GfxVgaTb $end
$var wire 8 ! vdata [7:0] $end
$var wire 1 " vram1_cs $end
$var wire 1 # vram2_cs $end
$var wire 1 $ vsync $end
$var wire 1 % vga_out_b $end
$var wire 1 & vga_latch $end
$var wire 1 ' vaddr15_b $end
$var wire 16 ( vaddr [15:0] $end
$var wire 8 ) rgb_data [7:0] $end
$var wire 2 * palette [1:0] $end
$var wire 8 + latch_cdata [7:0] $end
$var wire 1 , hsync $end
$var wire 1 - free_vbus_b $end
$var wire 1 . enabled_b $end
$var wire 8 / cdata [7:0] $end
$var wire 1 0 active_b $end
$var reg 1 1 reg_clk $end
$var reg 2 2 reg_ctrl_addr [1:0] $end
$var reg 1 3 reg_ctrl_ce2 $end
$var reg 1 4 reg_ctrl_ce_b $end
$var reg 8 5 reg_ctrl_data [7:0] $end
$var reg 1 6 reg_ctrl_w_b $end
$scope module gfxVgaInst $end
$var wire 1 1 i_clk $end
$var wire 2 7 i_ctrl_addr [1:0] $end
$var wire 1 3 i_ctrl_ce2 $end
$var wire 1 4 i_ctrl_ce_b $end
$var wire 8 8 i_ctrl_data [7:0] $end
$var wire 1 6 i_ctrl_w_b $end
$var wire 8 9 i_vdata [7:0] $end
$var wire 8 : i_vdata_delayed [7:0] $end
$var wire 1 0 o_active_b $end
$var wire 1 ; o_frame_end_b $end
$var wire 1 < o_frame_progress_b $end
$var wire 1 = o_frame_start_b $end
$var wire 1 - o_free_vbus_b $end
$var wire 1 , o_hsync $end
$var wire 2 > o_palette [1:0] $end
$var wire 1 % o_vga_out_b $end
$var wire 1 $ o_vsync $end
$var wire 16 ? vaddr_shifted [15:0] $end
$var wire 16 @ vaddr [15:0] $end
$var wire 1 A v_cnt_rst $end
$var wire 1 & o_vga_latch $end
$var wire 1 ' o_vaddr15_b $end
$var wire 16 B o_vaddr [15:0] $end
$var wire 8 C o_rgb_data [7:0] $end
$var wire 1 . o_enabled_b $end
$var wire 10 D h_cnt_shifted [9:0] $end
$var wire 1 E h_cnt_rst $end
$var wire 8 F dbr_rgb3 [7:0] $end
$var wire 8 G dbr_rgb2 [7:0] $end
$var wire 8 H dbr_rgb1 [7:0] $end
$var wire 8 I dbr_rgb0 [7:0] $end
$var wire 8 J dbr_rgb [7:0] $end
$var wire 1 K ctrl_enable $end
$var wire 1 L ctrl_double_res $end
$var wire 1 M active $end
$var reg 2 N reg_ctrl_palette [1:0] $end
$var reg 2 O reg_ctrl_status [1:0] $end
$var reg 8 P reg_ctrl_x_shift [7:0] $end
$var reg 8 Q reg_ctrl_y_shift [7:0] $end
$var reg 10 R reg_h_cnt [9:0] $end
$var reg 10 S reg_v_cnt [9:0] $end
$var reg 8 T reg_vdata [7:0] $end
$upscope $end
$scope module latch1Inst $end
$var wire 1 & i_clk $end
$var wire 1 % i_oe_b $end
$var wire 8 U o_out [7:0] $end
$var wire 8 V i_in [7:0] $end
$var reg 8 W reg_q [7:0] $end
$upscope $end
$scope module paletteRamInst $end
$var wire 10 X i_addr_l [9:0] $end
$var wire 10 Y i_addr_r [9:0] $end
$var wire 1 . i_ce_l_b $end
$var wire 1 Z i_ce_r_b $end
$var wire 1 0 i_oe_l_b $end
$var wire 1 [ i_oe_r_b $end
$var wire 1 \ i_rw_l_b $end
$var wire 1 ] i_rw_r_b $end
$var wire 8 ^ int_data_l [7:0] $end
$var wire 8 _ int_data_r [7:0] $end
$var wire 8 ` io_data_r [7:0] $end
$var wire 8 a io_data_l [7:0] $end
$upscope $end
$scope module vram32Inst1 $end
$var wire 15 b i_addr [14:0] $end
$var wire 1 " i_ce_b $end
$var wire 1 0 i_re_b $end
$var wire 1 c i_we_b $end
$var wire 8 d int_data [7:0] $end
$var wire 8 e io_data [7:0] $end
$var integer 32 f i [31:0] $end
$upscope $end
$scope module vram32Inst2 $end
$var wire 15 g i_addr [14:0] $end
$var wire 1 # i_ce_b $end
$var wire 1 0 i_re_b $end
$var wire 1 h i_we_b $end
$var wire 8 i int_data [7:0] $end
$var wire 8 j io_data [7:0] $end
$var integer 32 k i [31:0] $end
$upscope $end
$upscope $end
$enddefinitions $end
#0
$dumpvars
b111111111111111 k
bx j
bx i
1h
bx g
b111111111111111 f
bx e
bx d
1c
bx b
bx a
bz `
bx _
bx ^
1]
1\
1[
1Z
b0 Y
bx X
bx W
bx V
bx U
b0 T
b0 S
b0 R
b0 Q
b0 P
b0 O
b0 N
xM
0L
0K
b0 J
b0 I
b0 H
b0 G
b0 F
0E
b1111000000 D
bx C
bx B
0A
b11100000 @
b11100000 ?
bx >
x=
x<
x;
bx :
bx 9
b1 8
b0 7
16
b1 5
04
13
b0 2
11
x0
bx /
x.
x-
x,
bx +
bx *
bx )
bx (
x'
x&
x%
x$
x#
x"
bx !
$end
#20
b0xxxxxxxx X
b0 *
b0 >
#50
bz /
bz V
bz a
1&
1=
1<
b0 X
b0 )
b0 C
1.
1;
1$
1,
#60
bz !
bz 9
bz e
bz j
1%
0M
10
#80
0-
#110
bz +
bz U
1#
z'
#120
1"
bz g
bz b
bz :
bz (
bz B
#199
01
#350
b10011001 _
#397
1K
b1 O
06
#398
11
#400
b10011001 ^
#438
b1111000001 D
b1 R
#447
0<
0=
0.
#488
0&
#597
01
#794
16
#796
11
#836
b11100001 ?
b11100001 @
b1111000010 D
b10 R
#886
bz W
1&
#995
01
#1194
11
#1234
b1111000011 D
b11 R
#1284
0&
#1393
01
#1592
11
#1632
b11100010 ?
b11100010 @
b1111000100 D
b100 R
#1682
1&
#1791
01
#1990
11
#2030
b1111000101 D
b101 R
#2080
0&
#2189
01
#2388
11
#2428
b11100011 ?
b11100011 @
b1111000110 D
b110 R
#2478
1&
#2587
01
#2786
11
#2826
b1111000111 D
b111 R
#2876
0&
#2985
01
#3184
11
#3224
b11100100 ?
b11100100 @
b1111001000 D
b1000 R
#3274
1&
#3383
01
#3582
11
#3622
b1111001001 D
b1001 R
#3672
0&
#3781
01
#3980
11
#4020
b11100101 ?
b11100101 @
b1111001010 D
b1010 R
#4070
1&
#4179
01
#4378
11
#4418
b1111001011 D
b1011 R
#4468
0&
#4577
01
#4776
11
#4816
b11100110 ?
b11100110 @
b1111001100 D
b1100 R
#4866
1&
#4975
01
#5174
11
#5214
b1111001101 D
b1101 R
#5264
0&
#5373
01
#5572
11
#5612
b11100111 ?
b11100111 @
b1111001110 D
b1110 R
#5662
1&
#5771
01
#5970
11
#6010
b1111001111 D
b1111 R
#6060
0&
#6169
01
#6368
11
#6408
b11101000 ?
b11101000 @
b1111010000 D
b10000 R
#6458
1&
#6567
01
#6766
11
#6806
b1111010001 D
b10001 R
#6856
0&
#6965
01
#7164
11
#7204
b11101001 ?
b11101001 @
b1111010010 D
b10010 R
#7254
1&
#7363
01
#7562
11
#7602
b1111010011 D
b10011 R
#7652
0&
#7761
01
#7960
11
#8000
b11101010 ?
b11101010 @
b1111010100 D
b10100 R
#8050
1&
#8159
01
#8358
11
#8398
b1111010101 D
b10101 R
#8448
0&
#8557
01
#8756
11
#8796
b11101011 ?
b11101011 @
b1111010110 D
b10110 R
#8846
1&
#8955
01
#9154
11
#9194
b1111010111 D
b10111 R
#9244
0&
#9353
01
#9552
11
#9592
b11101100 ?
b11101100 @
b1111011000 D
b11000 R
#9642
1&
#9751
01
#9950
11
#9990
b1111011001 D
b11001 R
#10040
0&
#10149
01
#10348
11
#10388
b11101101 ?
b11101101 @
b1111011010 D
b11010 R
#10438
1&
#10547
01
#10746
11
#10786
b1111011011 D
b11011 R
#10836
0&
#10945
01
#11144
11
#11184
b11101110 ?
b11101110 @
b1111011100 D
b11100 R
#11234
1&
#11343
01
#11542
11
#11582
b1111011101 D
b11101 R
#11632
0&
#11741
01
#11940
11
#11980
b11101111 ?
b11101111 @
b1111011110 D
b11110 R
#12030
1&
#12139
01
#12338
11
#12378
b1111011111 D
b11111 R
#12428
0&
#12537
01
#12736
11
#12776
b11110000 ?
b11110000 @
b1111100000 D
b100000 R
#12826
1&
#12935
01
#13134
11
#13174
b1111100001 D
b100001 R
#13224
0&
#13333
01
#13532
11
#13572
b11110001 ?
b11110001 @
b1111100010 D
b100010 R
#13622
1&
#13731
01
#13930
11
#13970
b1111100011 D
b100011 R
#14020
0&
#14129
01
#14328
11
#14368
b11110010 ?
b11110010 @
b1111100100 D
b100100 R
#14418
1&
#14527
01
#14726
11
#14766
b1111100101 D
b100101 R
#14816
0&
#14925
01
#15124
11
#15164
b11110011 ?
b11110011 @
b1111100110 D
b100110 R
#15214
1&
#15323
01
#15522
11
#15562
b1111100111 D
b100111 R
#15612
0&
#15721
01
#15920
11
#15960
b11110100 ?
b11110100 @
b1111101000 D
b101000 R
#16010
1&
#16119
01
#16318
11
#16358
b1111101001 D
b101001 R
#16408
0&
#16517
01
#16716
11
#16756
b11110101 ?
b11110101 @
b1111101010 D
b101010 R
#16806
1&
#16915
01
#17114
11
#17154
b1111101011 D
b101011 R
#17204
0&
#17313
01
#17512
11
#17552
b11110110 ?
b11110110 @
b1111101100 D
b101100 R
#17602
1&
#17711
01
#17910
11
#17950
b1111101101 D
b101101 R
#18000
0&
#18109
01
#18308
11
#18348
b11110111 ?
b11110111 @
b1111101110 D
b101110 R
#18398
1&
#18507
01
#18706
11
#18746
b1111101111 D
b101111 R
#18796
0&
#18905
01
#19104
11
#19144
b11111000 ?
b11111000 @
b1111110000 D
b110000 R
#19194
1&
#19303
01
#19502
11
#19542
b1111110001 D
b110001 R
#19592
0&
#19701
01
#19900
11
#19940
b11111001 ?
b11111001 @
b1111110010 D
b110010 R
#19990
1&
#20099
01
#20298
11
#20338
b1111110011 D
b110011 R
#20388
0&
#20497
01
#20696
11
#20736
b11111010 ?
b11111010 @
b1111110100 D
b110100 R
#20786
1&
#20895
01
#21094
11
#21134
b1111110101 D
b110101 R
#21184
0&
#21293
01
#21492
11
#21532
b11111011 ?
b11111011 @
b1111110110 D
b110110 R
#21582
1&
#21691
01
#21890
11
#21930
b1111110111 D
b110111 R
#21980
0&
#22089
01
#22288
11
#22328
b11111100 ?
b11111100 @
b1111111000 D
b111000 R
#22378
1&
#22487
01
#22686
11
#22726
b1111111001 D
b111001 R
#22776
0&
#22885
01
#23084
11
#23124
b11111101 ?
b11111101 @
b1111111010 D
b111010 R
#23174
1&
#23283
01
#23482
11
#23522
b1111111011 D
b111011 R
#23572
0&
#23681
01
#23880
11
#23920
b11111110 ?
b11111110 @
b1111111100 D
b111100 R
#23970
1&
#24079
01
#24278
11
#24318
b1111111101 D
b111101 R
#24368
0&
#24477
01
#24676
11
#24716
b11111111 ?
b11111111 @
b1111111110 D
b111110 R
#24766
1&
#24796
1-
#24875
01
#25074
11
#25114
b1111111111 D
b111111 R
#25164
0&
#25273
01
#25472
11
#25512
b0 ?
b0 @
b0 D
b1000000 R
#25562
1&
#25572
b10011001 /
b10011001 V
b10011001 a
1M
00
#25671
01
#25682
1#
1'
#25692
bx !
bx 9
bx e
bx j
0"
b0 g
b0 b
b0 (
b0 B
#25752
bx :
#25842
b0 !
b0 9
b0 e
b0 j
b0 i
b0 d
#25870
11
#25902
b0 :
#25910
b1 D
b1000001 R
#25960
0&
#26069
01
#26268
11
#26308
b1 ?
b1 @
b10 D
b1000010 R
#26358
b10011001 W
1&
#26428
b1 g
b1 b
b1 (
b1 B
#26467
01
#26578
b1 !
b1 9
b1 e
b1 j
b1 i
b1 d
#26638
b1 :
#26666
11
#26706
b11 D
b1000011 R
#26756
0&
#26865
01
#27064
11
#27094
b1 J
b1 I
b1 T
#27104
b10 ?
b10 @
b0 J
b100 D
b1000100 R
#27144
b1 X
b1 )
b1 C
#27154
1&
#27164
0%
#27214
b10011001 +
b10011001 U
#27224
b10 g
b10 b
b10 (
b10 B
#27263
01
#27374
b10 !
b10 9
b10 e
b10 j
b10 i
b10 d
#27434
b10 :
#27462
11
#27494
b1 /
b1 V
b1 a
b1 ^
#27502
b101 D
b1000101 R
#27552
0&
#27661
01
#27860
11
#27890
b10 I
b10 T
#27900
b11 ?
b11 @
b110 D
b1000110 R
#27940
b10 X
b10 )
b10 C
#27950
b1 W
1&
#28000
b1 +
b1 U
#28020
b11 g
b11 b
b11 (
b11 B
#28059
01
#28170
b11 !
b11 9
b11 e
b11 j
b11 i
b11 d
#28230
b11 :
#28258
11
#28290
b10 /
b10 V
b10 a
b10 ^
#28298
b10 J
b111 D
b1000111 R
#28348
0&
#28457
01
#28656
11
#28686
b11 J
b11 I
b11 T
#28696
b100 ?
b100 @
b0 J
b1000 D
b1001000 R
#28736
b11 X
b11 )
b11 C
#28746
b10 W
1&
#28796
b10 +
b10 U
#28816
b100 g
b100 b
b100 (
b100 B
#28855
01
#28966
b100 !
b100 9
b100 e
b100 j
b100 i
b100 d
#29026
b100 :
#29054
11
#29086
b11 /
b11 V
b11 a
b11 ^
#29094
b1001 D
b1001001 R
#29144
0&
#29253
01
#29452
11
#29482
b0 I
b1 H
b100 T
#29492
b101 ?
b101 @
b1010 D
b1001010 R
#29532
b100 X
b100 )
b100 C
#29542
b11 W
1&
#29592
b11 +
b11 U
#29612
b101 g
b101 b
b101 (
b101 B
#29651
01
#29762
b101 !
b101 9
b101 e
b101 j
b101 i
b101 d
#29822
b101 :
#29850
11
#29882
b100 /
b100 V
b100 a
b100 ^
#29890
b1011 D
b1001011 R
#29940
0&
#30049
01
#30248
11
#30278
b1 J
b1 I
b101 T
#30288
b110 ?
b110 @
b1100 D
b1001100 R
#30328
b101 X
b101 )
b101 C
#30338
b100 W
1&
#30388
b100 +
b100 U
#30408
b110 g
b110 b
b110 (
b110 B
#30447
01
#30558
b110 !
b110 9
b110 e
b110 j
b110 i
b110 d
#30618
b110 :
#30646
11
#30678
b101 /
b101 V
b101 a
b101 ^
#30686
b0 J
b1101 D
b1001101 R
#30736
0&
#30845
01
#31044
11
#31074
b10 I
b110 T
#31084
b111 ?
b111 @
b1110 D
b1001110 R
#31124
b110 X
b110 )
b110 C
#31134
b101 W
1&
#31184
b101 +
b101 U
#31204
b111 g
b111 b
b111 (
b111 B
#31243
01
#31354
b111 !
b111 9
b111 e
b111 j
b111 i
b111 d
#31414
b111 :
#31442
11
#31474
b110 /
b110 V
b110 a
b110 ^
#31482
b10 J
b1111 D
b1001111 R
#31532
0&
#31641
01
#31840
11
#31870
b11 J
b11 I
b111 T
#31880
b1000 ?
b1000 @
b1 J
b10000 D
b1010000 R
#31920
b111 X
b111 )
b111 C
#31930
b110 W
1&
#31980
b110 +
b110 U
#32000
b1000 g
b1000 b
b1000 (
b1000 B
#32039
01
#32150
b1000 !
b1000 9
b1000 e
b1000 j
b1000 i
b1000 d
#32210
b1000 :
#32238
11
#32270
b111 /
b111 V
b111 a
b111 ^
#32278
b0 J
b10001 D
b1010001 R
#32328
0&
#32437
01
#32636
11
#32666
b0 I
b10 H
b1000 T
#32676
b1001 ?
b1001 @
b10010 D
b1010010 R
#32716
b1000 X
b1000 )
b1000 C
#32726
b111 W
1&
#32776
b111 +
b111 U
#32796
b1001 g
b1001 b
b1001 (
b1001 B
#32835
01
#32946
b1001 !
b1001 9
b1001 e
b1001 j
b1001 i
b1001 d
#33006
b1001 :
#33034
11
#33066
b1000 /
b1000 V
b1000 a
b1000 ^
#33074
b10011 D
b1010011 R
#33124
0&
#33233
01
#33432
11
#33462
b1 J
b1 I
b1001 T
#33472
b1010 ?
b1010 @
b10 J
b10100 D
b1010100 R
#33512
b1001 X
b1001 )
b1001 C
#33522
b1000 W
1&
#33572
b1000 +
b1000 U
#33592
b1010 g
b1010 b
b1010 (
b1010 B
#33631
01
#33742
b1010 !
b1010 9
b1010 e
b1010 j
b1010 i
b1010 d
#33802
b1010 :
#33830
11
#33862
b1001 /
b1001 V
b1001 a
b1001 ^
#33870
b0 J
b10101 D
b1010101 R
#33920
0&
#34029
01
#34228
11
#34258
b10 I
b1010 T
#34268
b1011 ?
b1011 @
b10110 D
b1010110 R
#34308
b1010 X
b1010 )
b1010 C
#34318
b1001 W
1&
#34368
b1001 +
b1001 U
#34388
b1011 g
b1011 b
b1011 (
b1011 B
#34427
01
#34538
b1011 !
b1011 9
b1011 e
b1011 j
b1011 i
b1011 d
#34598
b1011 :
#34626
11
#34658
b1010 /
b1010 V
b1010 a
b1010 ^
#34666
b10 J
b10111 D
b1010111 R
#34716
0&
#34825
01
#35024
11
#35054
b11 J
b11 I
b1011 T
#35064
b1100 ?
b1100 @
b10 J
b11000 D
b1011000 R
#35104
b1011 X
b1011 )
b1011 C
#35114
b1010 W
1&
#35164
b1010 +
b1010 U
#35184
b1100 g
b1100 b
b1100 (
b1100 B
#35223
01
#35334
b1100 !
b1100 9
b1100 e
b1100 j
b1100 i
b1100 d
#35394
b1100 :
#35422
11
#35454
b1011 /
b1011 V
b1011 a
b1011 ^
#35462
b0 J
b11001 D
b1011001 R
#35512
0&
#35621
01
#35820
11
#35850
b0 I
b11 H
b1100 T
#35860
b1101 ?
b1101 @
b11010 D
b1011010 R
#35900
b1100 X
b1100 )
b1100 C
#35910
b1011 W
1&
#35960
b1011 +
b1011 U
#35980
b1101 g
b1101 b
b1101 (
b1101 B
#36019
01
#36130
b1101 !
b1101 9
b1101 e
b1101 j
b1101 i
b1101 d
#36190
b1101 :
#36218
11
#36250
b1100 /
b1100 V
b1100 a
b1100 ^
#36258
b11011 D
b1011011 R
#36308
0&
#36417
01
#36616
11
#36646
b1 J
b1 I
b1101 T
#36656
b1110 ?
b1110 @
b11 J
b11100 D
b1011100 R
#36696
b1101 X
b1101 )
b1101 C
#36706
b1100 W
1&
#36756
b1100 +
b1100 U
#36776
b1110 g
b1110 b
b1110 (
b1110 B
#36815
01
#36926
b1110 !
b1110 9
b1110 e
b1110 j
b1110 i
b1110 d
#36986
b1110 :
#37014
11
#37046
b1101 /
b1101 V
b1101 a
b1101 ^
#37054
b0 J
b11101 D
b1011101 R
#37104
0&
#37213
01
#37412
11
#37442
b10 I
b1110 T
#37452
b1111 ?
b1111 @
b11110 D
b1011110 R
#37492
b1110 X
b1110 )
b1110 C
#37502
b1101 W
1&
#37552
b1101 +
b1101 U
#37572
b1111 g
b1111 b
b1111 (
b1111 B
#37611
01
#37722
b1111 !
b1111 9
b1111 e
b1111 j
b1111 i
b1111 d
#37782
b1111 :
#37810
11
#37842
b1110 /
b1110 V
b1110 a
b1110 ^
#37850
b10 J
b11111 D
b1011111 R
#37900
0&
#38009
01
#38208
11
#38238
b11 J
b11 I
b1111 T
#38248
b10000 ?
b10000 @
b100000 D
b1100000 R
#38288
b1111 X
b1111 )
b1111 C
#38298
b1110 W
1&
#38348
b1110 +
b1110 U
#38368
b10000 g
b10000 b
b10000 (
b10000 B
#38407
01
#38518
b10000 !
b10000 9
b10000 e
b10000 j
b10000 i
b10000 d
#38578
b10000 :
#38606
11
#38638
b1111 /
b1111 V
b1111 a
b1111 ^
#38646
b0 J
b100001 D
b1100001 R
#38696
0&
#38805
01
#39004
11
#39034
b1 J
b0 I
b0 H
b1 G
b10000 T
#39044
b10001 ?
b10001 @
b0 J
b100010 D
b1100010 R
#39084
b10000 X
b10000 )
b10000 C
#39094
b1111 W
1&
#39144
b1111 +
b1111 U
#39164
b10001 g
b10001 b
b10001 (
b10001 B
#39203
01
#39314
b10001 !
b10001 9
b10001 e
b10001 j
b10001 i
b10001 d
#39374
b10001 :
#39402
11
#39434
b10000 /
b10000 V
b10000 a
b10000 ^
#39442
b100011 D
b1100011 R
#39492
0&
#39601
01
#39800
11
#39830
b1 J
b1 I
b10001 T
#39840
b10010 ?
b10010 @
b0 J
b100100 D
b1100100 R
#39880
b10001 X
b10001 )
b10001 C
#39890
b10000 W
1&
#39940
b10000 +
b10000 U
#39960
b10010 g
b10010 b
b10010 (
b10010 B
#39999
01
#40110
b10010 !
b10010 9
b10010 e
b10010 j
b10010 i
b10010 d
#40170
b10010 :
#40198
11
#40230
b10001 /
b10001 V
b10001 a
b10001 ^
#40238
b1 J
b100101 D
b1100101 R
#40288
0&
#40397
01
#40596
11
#40626
b10 I
b10010 T
#40636
b10011 ?
b10011 @
b0 J
b100110 D
b1100110 R
#40676
b10010 X
b10010 )
b10010 C
#40686
b10001 W
1&
#40736
b10001 +
b10001 U
#40756
b10011 g
b10011 b
b10011 (
b10011 B
#40795
01
#40906
b10011 !
b10011 9
b10011 e
b10011 j
b10011 i
b10011 d
#40966
b10011 :
#40994
11
#41026
b10010 /
b10010 V
b10010 a
b10010 ^
#41034
b10 J
b100111 D
b1100111 R
#41084
0&
#41193
01
#41392
11
#41422
b11 J
b11 I
b10011 T
#41432
b10100 ?
b10100 @
b0 J
b101000 D
b1101000 R
#41472
b10011 X
b10011 )
b10011 C
#41482
b10010 W
1&
#41532
b10010 +
b10010 U
#41552
b10100 g
b10100 b
b10100 (
b10100 B
#41591
01
#41702
b10100 !
b10100 9
b10100 e
b10100 j
b10100 i
b10100 d
#41762
b10100 :
#41790
11
#41822
b10011 /
b10011 V
b10011 a
b10011 ^
#41830
b1 J
b101001 D
b1101001 R
#41880
0&
#41989
01
#42188
11
#42218
b0 I
b1 H
b10100 T
#42228
b10101 ?
b10101 @
b0 J
b101010 D
b1101010 R
#42268
b10100 X
b10100 )
b10100 C
#42278
b10011 W
1&
#42328
b10011 +
b10011 U
#42348
b10101 g
b10101 b
b10101 (
b10101 B
#42387
01
#42498
b10101 !
b10101 9
b10101 e
b10101 j
b10101 i
b10101 d
#42558
b10101 :
#42586
11
#42618
b10100 /
b10100 V
b10100 a
b10100 ^
#42626
b101011 D
b1101011 R
#42676
0&
#42785
01
#42984
11
#43014
b1 J
b1 I
b10101 T
#43024
b10110 ?
b10110 @
b101100 D
b1101100 R
#43064
b10101 X
b10101 )
b10101 C
#43074
b10100 W
1&
#43124
b10100 +
b10100 U
#43144
b10110 g
b10110 b
b10110 (
b10110 B
#43183
01
#43294
b10110 !
b10110 9
b10110 e
b10110 j
b10110 i
b10110 d
#43354
b10110 :
#43382
11
#43414
b10101 /
b10101 V
b10101 a
b10101 ^
#43422
b101101 D
b1101101 R
#43472
0&
#43581
01
#43780
11
#43810
b10 I
b10110 T
#43820
b10111 ?
b10111 @
b0 J
b101110 D
b1101110 R
#43860
b10110 X
b10110 )
b10110 C
#43870
b10101 W
1&
#43920
b10101 +
b10101 U
#43940
b10111 g
b10111 b
b10111 (
b10111 B
#43979
01
#44090
b10111 !
b10111 9
b10111 e
b10111 j
b10111 i
b10111 d
#44150
b10111 :
#44178
11
#44210
b10110 /
b10110 V
b10110 a
b10110 ^
#44218
b10 J
b101111 D
b1101111 R
#44268
0&
#44377
01
#44576
11
#44606
b11 J
b11 I
b10111 T
#44616
b11000 ?
b11000 @
b1 J
b110000 D
b1110000 R
#44656
b10111 X
b10111 )
b10111 C
#44666
b10110 W
1&
#44716
b10110 +
b10110 U
#44736
b11000 g
b11000 b
b11000 (
b11000 B
#44775
01
#44886
b11000 !
b11000 9
b11000 e
b11000 j
b11000 i
b11000 d
#44946
b11000 :
#44974
11
#45006
b10111 /
b10111 V
b10111 a
b10111 ^
#45014
b110001 D
b1110001 R
#45064
0&
#45173
01
#45372
11
#45402
b0 I
b10 H
b11000 T
#45412
b11001 ?
b11001 @
b0 J
b110010 D
b1110010 R
#45452
b11000 X
b11000 )
b11000 C
#45462
b10111 W
1&
#45512
b10111 +
b10111 U
#45532
b11001 g
b11001 b
b11001 (
b11001 B
#45571
01
#45682
b11001 !
b11001 9
b11001 e
b11001 j
b11001 i
b11001 d
#45742
b11001 :
#45770
11
#45802
b11000 /
b11000 V
b11000 a
b11000 ^
#45810
b110011 D
b1110011 R
#45860
0&
#45969
01
#46168
11
#46198
b1 J
b1 I
b11001 T
#46208
b11010 ?
b11010 @
b10 J
b110100 D
b1110100 R
#46248
b11001 X
b11001 )
b11001 C
#46258
b11000 W
1&
#46308
b11000 +
b11000 U
#46328
b11010 g
b11010 b
b11010 (
b11010 B
#46367
01
#46478
b11010 !
b11010 9
b11010 e
b11010 j
b11010 i
b11010 d
#46538
b11010 :
#46566
11
#46598
b11001 /
b11001 V
b11001 a
b11001 ^
#46606
b1 J
b110101 D
b1110101 R
#46656
0&
#46765
01
#46964
11
#46994
b10 I
b11010 T
#47004
b11011 ?
b11011 @
b0 J
b110110 D
b1110110 R
#47044
b11010 X
b11010 )
b11010 C
#47054
b11001 W
1&
#47104
b11001 +
b11001 U
#47124
b11011 g
b11011 b
b11011 (
b11011 B
#47163
01
#47274
b11011 !
b11011 9
b11011 e
b11011 j
b11011 i
b11011 d
#47334
b11011 :
#47362
11
#47394
b11010 /
b11010 V
b11010 a
b11010 ^
#47402
b10 J
b110111 D
b1110111 R
#47452
0&
#47561
01
#47760
11
#47790
b11 J
b11 I
b11011 T
#47800
b11100 ?
b11100 @
b10 J
b111000 D
b1111000 R
#47840
b11011 X
b11011 )
b11011 C
#47850
b11010 W
1&
#47900
b11010 +
b11010 U
#47920
b11100 g
b11100 b
b11100 (
b11100 B
#47959
01
#48070
b11100 !
b11100 9
b11100 e
b11100 j
b11100 i
b11100 d
#48130
b11100 :
#48158
11
#48190
b11011 /
b11011 V
b11011 a
b11011 ^
#48198
b1 J
b111001 D
b1111001 R
#48248
0&
#48357
01
#48556
11
#48586
b0 I
b11 H
b11100 T
#48596
b11101 ?
b11101 @
b0 J
b111010 D
b1111010 R
#48636
b11100 X
b11100 )
b11100 C
#48646
b11011 W
1&
#48696
b11011 +
b11011 U
#48716
b11101 g
b11101 b
b11101 (
b11101 B
#48755
01
#48866
b11101 !
b11101 9
b11101 e
b11101 j
b11101 i
b11101 d
#48926
b11101 :
#48954
11
#48986
b11100 /
b11100 V
b11100 a
b11100 ^
#48994
b111011 D
b1111011 R
#49044
0&
#49153
01
#49352
11
#49382
b1 J
b1 I
b11101 T
#49392
b11110 ?
b11110 @
b11 J
b111100 D
b1111100 R
#49432
b11101 X
b11101 )
b11101 C
#49442
b11100 W
1&
#49492
b11100 +
b11100 U
#49512
b11110 g
b11110 b
b11110 (
b11110 B
#49551
01
#49662
b11110 !
b11110 9
b11110 e
b11110 j
b11110 i
b11110 d
#49722
b11110 :
#49750
11
#49782
b11101 /
b11101 V
b11101 a
b11101 ^
#49790
b1 J
b111101 D
b1111101 R
#49840
0&
#49949
01
#50148
11
#50178
b10 I
b11110 T
#50188
b11111 ?
b11111 @
b0 J
b111110 D
b1111110 R
#50228
b11110 X
b11110 )
b11110 C
#50238
b11101 W
1&
#50288
b11101 +
b11101 U
#50308
b11111 g
b11111 b
b11111 (
b11111 B
#50347
01
#50458
b11111 !
b11111 9
b11111 e
b11111 j
b11111 i
b11111 d
#50518
b11111 :
#50546
11
#50578
b11110 /
b11110 V
b11110 a
b11110 ^
#50586
b10 J
b111111 D
b1111111 R
#50636
0&
#50745
01
#50944
11
#50974
b11 J
b11 I
b11111 T
#50984
b100000 ?
b100000 @
b1000000 D
b10000000 R
#51024
b11111 X
b11111 )
b11111 C
#51034
b11110 W
1&
#51084
b11110 +
b11110 U
#51104
b100000 g
b100000 b
b100000 (
b100000 B
#51143
01
#51254
b100000 !
b100000 9
b100000 e
b100000 j
b100000 i
b100000 d
#51314
b100000 :
#51342
11
#51374
b11111 /
b11111 V
b11111 a
b11111 ^
#51382
b1 J
b1000001 D
b10000001 R
#51432
0&
#51541
01
#51740
11
#51770
b10 J
b0 I
b0 H
b10 G
b100000 T
#51780
b100001 ?
b100001 @
b0 J
b1000010 D
b10000010 R
#51820
b100000 X
b100000 )
b100000 C
#51830
b11111 W
1&
#51880
b11111 +
b11111 U
#51900
b100001 g
b100001 b
b100001 (
b100001 B
#51939
01
#52050
b100001 !
b100001 9
b100001 e
b100001 j
b100001 i
b100001 d
#52110
b100001 :
#52138
11
#52170
b100000 /
b100000 V
b100000 a
b100000 ^
#52178
b1000011 D
b10000011 R
#52228
0&
#52337
01
#52536
11
#52566
b1 J
b1 I
b100001 T
#52576
b100010 ?
b100010 @
b0 J
b1000100 D
b10000100 R
#52616
b100001 X
b100001 )
b100001 C
#52626
b100000 W
1&
#52676
b100000 +
b100000 U
#52696
b100010 g
b100010 b
b100010 (
b100010 B
#52735
01
#52846
b100010 !
b100010 9
b100010 e
b100010 j
b100010 i
b100010 d
#52906
b100010 :
#52934
11
#52966
b100001 /
b100001 V
b100001 a
b100001 ^
#52974
b10 J
b1000101 D
b10000101 R
#53024
0&
#53133
01
#53332
11
#53362
b10 I
b100010 T
#53372
b100011 ?
b100011 @
b0 J
b1000110 D
b10000110 R
#53412
b100010 X
b100010 )
b100010 C
#53422
b100001 W
1&
#53472
b100001 +
b100001 U
#53492
b100011 g
b100011 b
b100011 (
b100011 B
#53531
01
#53642
b100011 !
b100011 9
b100011 e
b100011 j
b100011 i
b100011 d
#53702
b100011 :
#53730
11
#53762
b100010 /
b100010 V
b100010 a
b100010 ^
#53770
b10 J
b1000111 D
b10000111 R
#53820
0&
#53929
01
#54128
11
#54158
b11 J
b11 I
b100011 T
#54168
b100100 ?
b100100 @
b0 J
b1001000 D
b10001000 R
#54208
b100011 X
b100011 )
b100011 C
#54218
b100010 W
1&
#54268
b100010 +
b100010 U
#54288
b100100 g
b100100 b
b100100 (
b100100 B
#54327
01
#54438
b100100 !
b100100 9
b100100 e
b100100 j
b100100 i
b100100 d
#54498
b100100 :
#54526
11
#54558
b100011 /
b100011 V
b100011 a
b100011 ^
#54566
b10 J
b1001001 D
b10001001 R
#54616
0&
#54725
01
#54924
11
#54954
b0 I
b1 H
b100100 T
#54964
b100101 ?
b100101 @
b0 J
b1001010 D
b10001010 R
#55004
b100100 X
b100100 )
b100100 C
#55014
b100011 W
1&
#55064
b100011 +
b100011 U
