hardware/gfx_module/src/out/gfx_dma_tb.vcd
$date
	Sat Dec  7 13:22:41 2024
$end
$version
	Icarus Verilog
$end
$timescale
	100ps
$end
$scope module GfxDmaTb $end
$var wire 1 ! clk $end
$var wire 13 " cram_addr [12:0] $end
$var wire 1 # cram_ce_b $end
$var wire 8 $ cram_data [7:0] $end
$var wire 1 % cram_oe_b $end
$var wire 1 & cram_we_b $end
$var wire 1 ' vga_ce_b $end
$var wire 1 ( vram_addr15_b $end
$var wire 8 ) vram_data [7:0] $end
$var wire 1 * vram_we_b $end
$var wire 16 + vram_addr [15:0] $end
$var wire 1 , dma_active $end
$var wire 8 - ctrlBusOutput [7:0] $end
$var wire 8 . ctrlBusInput [7:0] $end
$var parameter 1 / HIGH $end
$var parameter 1 0 HZ $end
$var parameter 1 1 LOW $end
$var real 1 2 UTCLK $end
$var real 1 3 VTCLK $end
$var reg 13 4 reg_addr [12:0] $end
$var reg 1 5 reg_clk2 $end
$var reg 8 6 reg_data [7:0] $end
$var reg 1 7 reg_free_vbus_b $end
$var reg 1 8 reg_ram_ce_b $end
$var reg 1 9 reg_ram_re_b $end
$var reg 1 : reg_ram_we_b $end
$var reg 1 ; reg_vga_active_b $end
$var reg 1 < reg_vga_ce_b $end
$scope module bdAddrInst $end
$var wire 13 = i_a [12:0] $end
$var wire 13 > o_y [12:0] $end
$var wire 1 , i_oe_b $end
$var parameter 32 ? BusWidth $end
$upscope $end
$scope module bdCtrlInst $end
$var wire 8 @ i_a [7:0] $end
$var wire 8 A o_y [7:0] $end
$var wire 1 , i_oe_b $end
$var parameter 32 B BusWidth $end
$upscope $end
$scope module bdDataInst $end
$var wire 8 C i_a [7:0] $end
$var wire 8 D o_y [7:0] $end
$var wire 1 , i_oe_b $end
$var parameter 32 E BusWidth $end
$upscope $end
$scope module cram32Inst $end
$var wire 15 F i_addr [14:0] $end
$var wire 1 # i_ce_b $end
$var wire 1 % i_re_b $end
$var wire 1 & i_we_b $end
$var wire 8 G int_data [7:0] $end
$var wire 8 H io_data [7:0] $end
$var parameter 32 I AddrWidth $end
$var parameter 32 J Delay $end
$var parameter 104 K InitFile $end
$upscope $end
$scope module gfxDmaInst $end
$var wire 1 L dst_out_enabled $end
$var wire 1 ! i_clk $end
$var wire 1 5 i_clk2 $end
$var wire 1 7 i_free_vbus_b $end
$var wire 1 M i_src_ce2_b $end
$var wire 1 ' i_src_ce_b $end
$var wire 8 N i_src_data [7:0] $end
$var wire 13 O io_src_addr [12:0] $end
$var wire 1 & io_src_we_b $end
$var wire 1 , o_active $end
$var wire 8 P o_dst_data [7:0] $end
$var wire 1 * o_dst_we_b $end
$var wire 1 % o_src_re_b $end
$var wire 1 Q skip_cpy $end
$var wire 2 R o_src_ram_page [1:0] $end
$var wire 16 S o_dst_addr [15:0] $end
$var wire 16 T dst_addr_offset [15:0] $end
$var parameter 1 U CFG_CPY_ALL $end
$var parameter 1 V CFG_CPY_NON_ZERO $end
$var parameter 3 W CTRL_ADDR_DST_ADDR_H $end
$var parameter 3 X CTRL_ADDR_DST_ADDR_L $end
$var parameter 3 Y CTRL_ADDR_HEIGHT $end
$var parameter 3 Z CTRL_ADDR_MASK $end
$var parameter 3 [ CTRL_ADDR_SRC_ADDR_H $end
$var parameter 3 \ CTRL_ADDR_SRC_ADDR_L $end
$var parameter 3 ] CTRL_ADDR_STATE $end
$var parameter 3 ^ CTRL_ADDR_WIDTH $end
$var reg 1 _ reg_active $end
$var reg 1 ` reg_active_clk1 $end
$var reg 1 a reg_active_clk2 $end
$var reg 1 b reg_ctrl_config $end
$var reg 5 c reg_ctrl_cpy_x_mask [4:0] $end
$var reg 3 d reg_ctrl_cpy_y_mask [2:0] $end
$var reg 2 e reg_ctrl_data_mask [1:0] $end
$var reg 8 f reg_ctrl_dst_x_origin [7:0] $end
$var reg 8 g reg_ctrl_dst_y_origin [7:0] $end
$var reg 8 h reg_ctrl_height [7:0] $end
$var reg 13 i reg_ctrl_src_addr [12:0] $end
$var reg 8 j reg_ctrl_src_x_origin [7:0] $end
$var reg 5 k reg_ctrl_src_y_origin [4:0] $end
$var reg 8 l reg_ctrl_width [7:0] $end
$var reg 16 m reg_dst_addr_hold [15:0] $end
$var reg 8 n reg_dst_data_hold [7:0] $end
$var reg 2 o reg_src_ram_page [1:0] $end
$var reg 8 p reg_x_cnt [7:0] $end
$var reg 8 q reg_y_cnt [7:0] $end
$upscope $end
$scope module vram32Inst1 $end
$var wire 15 r i_addr [14:0] $end
$var wire 1 s i_ce_b $end
$var wire 1 ; i_re_b $end
$var wire 1 * i_we_b $end
$var wire 8 t int_data [7:0] $end
$var wire 8 u io_data [7:0] $end
$var parameter 32 v AddrWidth $end
$var parameter 32 w Delay $end
$var parameter 0 x InitFile $end
$var integer 32 y i [31:0] $end
$upscope $end
$scope module vram32Inst2 $end
$var wire 15 z i_addr [14:0] $end
$var wire 1 ( i_ce_b $end
$var wire 1 ; i_re_b $end
$var wire 1 * i_we_b $end
$var wire 8 { int_data [7:0] $end
$var wire 8 | io_data [7:0] $end
$var parameter 32 } AddrWidth $end
$var parameter 32 ~ Delay $end
$var parameter 0 !" InitFile $end
$var integer 32 "" i [31:0] $end
$upscope $end
$upscope $end
$enddefinitions $end
$comment Show the parameter values. $end
$dumpall
b !"
b1111 ~
b1111 }
b x
b1111 w
b1111 v
b100 ^
b111 ]
b0 \
b1 [
b110 Z
b101 Y
b10 X
b11 W
0V
1U
b101110001011110111001001100001011011010010111101100100011011010110000101011111011100100110000101101101 K
b1111 J
b1111 I
b1000 E
b1000 B
b1101 ?
r39.721946 3
r79.44389200000001 2
01
z0
1/
$end
#0
$dumpvars
b111111111111111 ""
bz |
bx {
bz z
b111111111111111 y
bz u
bx t
zs
bz r
b0 q
b0 p
bx o
b0 n
b0 m
b0 l
bx k
bx j
b0 i
b0 h
b0 g
b0 f
bx e
b111 d
b11111 c
0b
0a
0`
0_
b0 T
bz S
bx R
1Q
bz P
bx O
bx N
xM
0L
bx H
bx G
b0xxxxxxxxxxxxx F
bx D
b0 C
bx A
b1111 @
bx >
b0 =
1<
1;
1:
19
18
07
b0 6
15
b0 4
b1111 .
bx -
x,
bz +
x*
bz )
z(
x'
x&
x%
bx $
x#
bx "
x!
$end
#20
b0 $
b0 D
b0 H
b0 N
1#
1'
0M
b1111 -
b1111 A
b0 F
b0 "
b0 >
b0 O
bz R
0,
#50
1%
1&
#60
1*
#100
1!
#170
b10101110 G
#199
05
#299
0!
#398
15
#498
1!
#597
05
#697
0!
#794
0'
b1110 -
b1110 A
b1110 .
b1110 @
0<
#796
15
#896
1!
#995
05
#1095
0!
#1194
15
#1294
1!
#1393
05
#1493
0!
#1588
0&
b1010 -
b1010 A
b1010 .
b1010 @
0:
#1592
15
#1692
b0 j
1!
#1791
05
#1891
0!
#1990
15
#2090
1!
#2189
05
#2289
0!
#2382
1&
b1 F
b1 "
b1 >
b1 O
b1110 -
b1110 A
b1 4
b1 =
b1110 .
b1110 @
1:
#2388
15
#2488
1!
#2587
05
#2687
0!
#2786
15
#2886
1!
#2985
05
#3085
0!
#3176
0&
b1010 -
b1010 A
b1010 .
b1010 @
0:
#3184
15
#3284
b0 o
b0 k
1!
#3383
05
#3483
0!
#3582
15
#3682
1!
#3781
05
#3881
0!
#3970
1&
b10000 $
b10000 D
b10000 H
b10000 N
b10 F
b10 "
b10 >
b10 O
b1110 -
b1110 A
b10000 6
b10000 C
b10 4
b10 =
b1110 .
b1110 @
1:
#3980
15
#4080
1!
#4179
05
#4279
0!
#4378
15
#4478
1!
#4577
05
#4677
0!
#4764
0&
b1010 -
b1010 A
b1010 .
b1010 @
0:
#4776
15
#4876
b10000 T
b10000 f
1!
#4975
05
#5075
0!
#5174
15
#5274
1!
#5373
05
#5473
0!
#5558
1&
b11 F
b11 "
b11 >
b11 O
b1110 -
b1110 A
b11 4
b11 =
b1110 .
b1110 @
1:
#5572
15
#5672
1!
#5771
05
#5871
0!
#5970
15
#6070
1!
#6169
05
#6269
0!
#6352
0&
b1010 -
b1010 A
b1010 .
b1010 @
0:
#6368
15
#6468
b1000000010000 T
b10000 g
1!
#6567
05
#6667
0!
#6766
15
#6866
1!
#6965
05
#7065
0!
#7146
1&
b101 $
b101 D
b101 H
b101 N
b100 F
b100 "
b100 >
b100 O
b1110 -
b1110 A
b101 6
b101 C
b100 4
b100 =
b1110 .
b1110 @
1:
#7164
15
#7264
1!
#7363
05
#7463
0!
#7562
15
#7662
1!
#7761
05
#7861
0!
#7940
0&
b1010 -
b1010 A
b1010 .
b1010 @
0:
#7960
15
#8060
b101 l
1!
#8159
05
#8259
0!
#8358
15
#8458
1!
#8557
05
#8657
0!
#8734
1&
b101 F
b101 "
b101 >
b101 O
b1110 -
b1110 A
b101 4
b101 =
b1110 .
b1110 @
1:
#8756
15
#8856
1!
#8955
05
#9055
0!
#9154
15
#9254
1!
#9353
05
#9453
0!
#9528
0&
b1010 -
b1010 A
b1010 .
b1010 @
0:
#9552
15
#9652
b101 h
1!
#9751
05
#9851
0!
#9950
15
#10050
1!
#10149
05
#10249
0!
#10322
1&
b11111111 $
b11111111 D
b11111111 H
b11111111 N
b110 F
b110 "
b110 >
b110 O
b1110 -
b1110 A
b11111111 6
b11111111 C
b110 4
b110 =
b1110 .
b1110 @
1:
#10348
15
#10448
1!
#10547
05
#10647
0!
#10746
15
#10846
1!
#10945
05
#11045
0!
#11116
0&
b1010 -
b1010 A
b1010 .
b1010 @
0:
#11144
15
#11244
1!
#11343
05
#11443
0!
#11542
15
#11642
1!
#11741
05
#11841
0!
#11910
1&
b0 $
b0 D
b0 H
b0 N
b111 F
b111 "
b111 >
b111 O
b1110 -
b1110 A
b0 6
b0 C
b111 4
b111 =
b1110 .
b1110 @
1:
#11940
15
#12040
1!
#12139
05
#12239
0!
#12338
15
#12438
1!
#12537
05
#12637
0!
#12704
0&
b1010 -
b1010 A
b1010 .
b1010 @
0:
#12736
15
#12836
1_
b0 e
b101 q
b101100001011 T
b101 p
1!
#12856
0#
1&
1%
1'
zM
bz $
bz D
bz H
bz N
bz -
bz A
b0zzzzzzzzzzzzz F
bz "
bz >
bz O
1,
#12935
05
#13006
bx G
#13035
0!
#13134
15
#13234
1`
1!
#13254
0M
b0 F
b0 "
b0 >
b0 O
b0 R
#13284
bx $
bx D
bx H
bx N
0%
1&
#13333
05
#13404
b10101110 $
b10101110 D
b10101110 H
b10101110 N
b10101110 G
#13433
0!
#13498
bz 6
bz C
bz 4
bz =
b1110 .
b1110 @
1:
#13532
15
#13632
b0 z
b0 r
0s
b0 +
b0 S
b0 )
b0 P
b0 u
b0 |
1L
1a
1!
#13652
b101100001011 z
b101100001011 r
b101100001011 +
b101100001011 S
b101100001011 m
#13672
0Q
b10101110 )
b10101110 P
b10101110 u
b10101110 |
b10101110 n
#13731
05
#13742
b110000001011 T
b100 q
#13782
b100000000 i
#13791
0*
#13802
b100000000 F
b100000000 "
b100000000 >
b100000000 O
b1011 {
b1011 t
#13831
0!
#13930
15
#13990
1*
#14030
1!
#14050
b110000001011 z
b110000001011 r
b110000001011 +
b110000001011 S
b110000001011 m
#14129
05
#14140
b110100001011 T
b11 q
#14180
b1000000000 i
#14189
0*
#14200
b1000000000 F
b1000000000 "
b1000000000 >
b1000000000 O
#14229
0!
#14292
b1111 .
b1111 @
1<
#14328
15
#14388
1*
#14428
1!
#14448
b110100001011 z
b110100001011 r
b110100001011 +
b110100001011 S
b110100001011 m
#14527
05
#14538
b111000001011 T
b10 q
#14578
b1100000000 i
#14587
0*
#14598
b1100000000 F
b1100000000 "
b1100000000 >
b1100000000 O
#14627
0!
#14726
15
#14786
1*
#14826
1!
#14846
b111000001011 z
b111000001011 r
b111000001011 +
b111000001011 S
b111000001011 m
#14925
05
#14936
b111100001011 T
b1 q
#14976
b10000000000 i
#14985
0*
#14996
b10000000000 F
b10000000000 "
b10000000000 >
b10000000000 O
#15025
0!
#15124
15
#15184
1*
#15224
1!
#15244
b111100001011 z
b111100001011 r
b111100001011 +
b111100001011 S
b111100001011 m
#15323
05
#15334
b1000000001011 T
b0 q
#15374
b10100000000 i
#15383
0*
#15394
b10100000000 F
b10100000000 "
b10100000000 >
b10100000000 O
#15423
0!
#15522
15
#15582
1*
#15622
1!
#15642
b1000000001011 z
b1000000001011 r
b1000000001011 +
b1000000001011 S
b1000000001011 m
#15702
b101100001011 T
b101 q
#15721
05
#15781
0*
#15792
b101100001100 T
b100 p
#15821
0!
#15832
b0 i
#15852
b0 F
b0 "
b0 >
b0 O
#15872
b1 i
#15892
b1 F
b1 "
b1 >
b1 O
#15920
15
#15980
1*
#16020
1!
#16040
b101100001100 z
b101100001100 r
b101100001100 +
b101100001100 S
b101100001100 m
#16119
05
#16130
b110000001100 T
b100 q
#16170
b100000001 i
#16179
0*
#16190
b100000001 F
b100000001 "
b100000001 >
b100000001 O
b1100 {
b1100 t
#16219
0!
#16318
15
#16340
b1 $
b1 D
b1 H
b1 N
b1 G
#16378
1*
#16418
1!
#16438
b110000001100 z
b110000001100 r
b110000001100 +
b110000001100 S
b110000001100 m
#16458
b1 )
b1 P
b1 u
b1 |
b1 n
#16517
05
#16528
b110100001100 T
b11 q
#16568
b1000000001 i
#16577
0*
#16588
b1000000001 F
b1000000001 "
b1000000001 >
b1000000001 O
#16617
0!
#16716
15
#16738
b10001 $
b10001 D
b10001 H
b10001 N
b10001 G
#16776
1*
#16816
1!
#16836
b110100001100 z
b110100001100 r
b110100001100 +
b110100001100 S
b110100001100 m
#16856
b10001 )
b10001 P
b10001 u
b10001 |
b10001 n
#16915
05
#16926
b111000001100 T
b10 q
#16966
b1100000001 i
#16975
0*
#16986
b1100000001 F
b1100000001 "
b1100000001 >
b1100000001 O
#17015
0!
#17114
15
#17136
b100001 $
b100001 D
b100001 H
b100001 N
b100001 G
#17174
1*
#17214
1!
#17234
b111000001100 z
b111000001100 r
b111000001100 +
b111000001100 S
b111000001100 m
#17254
b100001 )
b100001 P
b100001 u
b100001 |
b100001 n
#17313
05
#17324
b111100001100 T
b1 q
#17364
b10000000001 i
#17373
0*
#17384
b10000000001 F
b10000000001 "
b10000000001 >
b10000000001 O
#17413
0!
#17512
15
#17534
b110001 $
b110001 D
b110001 H
b110001 N
b110001 G
#17572
1*
#17612
1!
#17632
b111100001100 z
b111100001100 r
b111100001100 +
b111100001100 S
b111100001100 m
#17652
b110001 )
b110001 P
b110001 u
b110001 |
b110001 n
#17711
05
#17722
b1000000001100 T
b0 q
#17762
b10100000001 i
#17771
0*
#17782
b10100000001 F
b10100000001 "
b10100000001 >
b10100000001 O
#17811
0!
#17910
15
#17932
b1000001 $
b1000001 D
b1000001 H
b1000001 N
b1000001 G
#17970
1*
#18010
1!
#18030
b1000000001100 z
b1000000001100 r
b1000000001100 +
b1000000001100 S
b1000000001100 m
#18050
b1000001 )
b1000001 P
b1000001 u
b1000001 |
b1000001 n
#18090
b101100001100 T
b101 q
#18109
05
#18169
0*
#18180
b101100001101 T
b11 p
#18209
0!
#18220
b1 i
#18240
b1 F
b1 "
b1 >
b1 O
#18260
b10 i
#18280
b10 F
b10 "
b10 >
b10 O
#18308
15
#18368
1*
#18390
b10101110 $
b10101110 D
b10101110 H
b10101110 N
b10101110 G
#18408
1!
#18428
b101100001101 z
b101100001101 r
b101100001101 +
b101100001101 S
b101100001101 m
#18448
b10101110 )
b10101110 P
b10101110 u
b10101110 |
b10101110 n
#18507
05
#18518
b110000001101 T
b100 q
#18558
b100000010 i
#18567
0*
#18578
b100000010 F
b100000010 "
b100000010 >
b100000010 O
b1101 {
b1101 t
#18607
0!
#18706
15
#18728
b10 $
b10 D
b10 H
b10 N
b10 G
#18766
1*
#18773
bz z
bz r
zs
bz +
bz S
bz )
bz P
bz u
bz |
0L
17
#18806
1!
#18905
05
#18923
bx {
bx t
#19005
0!
#19104
15
#19204
1!
#19303
05
#19403
0!
#19502
15
#19602
1!
#19701
05
#19801
0!
#19900
15
#20000
1!
#20099
05
#20199
0!
#20298
15
#20362
b101100001101 z
b101100001101 r
0s
b101100001101 +
b101100001101 S
b10101110 )
b10101110 P
b10101110 u
b10101110 |
1L
07
#20398
1!
#20418
b110000001101 z
b110000001101 r
b110000001101 +
b110000001101 S
b110000001101 m
#20438
b10 )
b10 P
b10 u
b10 |
b10 n
#20497
05
#20508
b110100001101 T
b11 q
#20512
b1101 {
#20548
b1000000010 i
#20557
0*
#20568
b1000000010 F
b1000000010 "
b1000000010 >
b1000000010 O
b1101 t
#20597
0!
#20696
15
#20718
b10010 $
b10010 D
b10010 H
b10010 N
b10010 G
#20756
1*
#20796
1!
#20816
b110100001101 z
b110100001101 r
b110100001101 +
b110100001101 S
b110100001101 m
#20836
b10010 )
b10010 P
b10010 u
b10010 |
b10010 n
#20895
05
#20906
b111000001101 T
b10 q
#20946
b1100000010 i
#20955
0*
#20966
b1100000010 F
b1100000010 "
b1100000010 >
b1100000010 O
#20995
0!
#21094
15
#21116
b100010 $
b100010 D
b100010 H
b100010 N
b100010 G
#21154
1*
#21194
1!
#21214
b111000001101 z
b111000001101 r
b111000001101 +
b111000001101 S
b111000001101 m
#21234
b100010 )
b100010 P
b100010 u
b100010 |
b100010 n
#21293
05
#21304
b111100001101 T
b1 q
#21344
b10000000010 i
#21353
0*
#21364
b10000000010 F
b10000000010 "
b10000000010 >
b10000000010 O
#21393
0!
#21492
15
#21514
b110010 $
b110010 D
b110010 H
b110010 N
b110010 G
#21552
1*
#21592
1!
#21612
b111100001101 z
b111100001101 r
b111100001101 +
b111100001101 S
b111100001101 m
#21632
b110010 )
b110010 P
b110010 u
b110010 |
b110010 n
#21691
05
#21702
b1000000001101 T
b0 q
#21742
b10100000010 i
#21751
0*
#21762
b10100000010 F
b10100000010 "
b10100000010 >
b10100000010 O
#21791
0!
#21890
15
#21912
b1000010 $
b1000010 D
b1000010 H
b1000010 N
b1000010 G
#21950
1*
#21990
1!
#22010
b1000000001101 z
b1000000001101 r
b1000000001101 +
b1000000001101 S
b1000000001101 m
#22030
b1000010 )
b1000010 P
b1000010 u
b1000010 |
b1000010 n
#22070
b101100001101 T
b101 q
#22089
05
#22149
0*
#22160
b101100001110 T
b10 p
#22189
0!
#22200
b10 i
#22220
b10 F
b10 "
b10 >
b10 O
#22240
b11 i
#22260
b11 F
b11 "
b11 >
b11 O
#22288
15
#22348
1*
#22370
b10101110 $
b10101110 D
b10101110 H
b10101110 N
b10101110 G
#22388
1!
#22408
b101100001110 z
b101100001110 r
b101100001110 +
b101100001110 S
b101100001110 m
#22428
b10101110 )
b10101110 P
b10101110 u
b10101110 |
b10101110 n
#22487
05
#22498
b110000001110 T
b100 q
#22538
b100000011 i
#22547
0*
#22558
b100000011 F
b100000011 "
b100000011 >
b100000011 O
b1110 {
b1110 t
#22587
0!
#22686
15
#22708
b11 $
b11 D
b11 H
b11 N
b11 G
#22746
1*
#22786
1!
#22806
b110000001110 z
b110000001110 r
b110000001110 +
b110000001110 S
b110000001110 m
#22826
b11 )
b11 P
b11 u
b11 |
b11 n
#22885
05
#22896
b110100001110 T
b11 q
#22936
b1000000011 i
#22945
0*
#22956
b1000000011 F
b1000000011 "
b1000000011 >
b1000000011 O
#22985
0!
#23084
15
#23106
b10011 $
b10011 D
b10011 H
b10011 N
b10011 G
#23144
1*
#23184
1!
#23204
b110100001110 z
b110100001110 r
b110100001110 +
b110100001110 S
b110100001110 m
#23224
b10011 )
b10011 P
b10011 u
b10011 |
b10011 n
#23283
05
#23294
b111000001110 T
b10 q
#23334
b1100000011 i
#23343
0*
#23354
b1100000011 F
b1100000011 "
b1100000011 >
b1100000011 O
#23383
0!
#23482
15
#23504
b100011 $
b100011 D
b100011 H
b100011 N
b100011 G
#23542
1*
#23582
1!
#23602
b111000001110 z
b111000001110 r
b111000001110 +
b111000001110 S
b111000001110 m
#23622
b100011 )
b100011 P
b100011 u
b100011 |
b100011 n
#23681
05
#23692
b111100001110 T
b1 q
#23732
b10000000011 i
#23741
0*
#23752
b10000000011 F
b10000000011 "
b10000000011 >
b10000000011 O
#23781
0!
#23880
15
#23902
b110011 $
b110011 D
b110011 H
b110011 N
b110011 G
#23940
1*
#23980
1!
#24000
b111100001110 z
b111100001110 r
b111100001110 +
b111100001110 S
b111100001110 m
#24020
b110011 )
b110011 P
b110011 u
b110011 |
b110011 n
#24079
05
#24090
b1000000001110 T
b0 q
#24130
b10100000011 i
#24139
0*
#24150
b10100000011 F
b10100000011 "
b10100000011 >
b10100000011 O
#24179
0!
#24278
15
#24300
b1000011 $
b1000011 D
b1000011 H
b1000011 N
b1000011 G
#24338
1*
#24378
1!
#24398
b1000000001110 z
b1000000001110 r
b1000000001110 +
b1000000001110 S
b1000000001110 m
#24418
b1000011 )
b1000011 P
b1000011 u
b1000011 |
b1000011 n
#24458
b101100001110 T
b101 q
#24477
05
#24537
0*
#24548
b101100001111 T
b1 p
#24577
0!
#24588
b11 i
#24608
b11 F
b11 "
b11 >
b11 O
#24628
b100 i
#24648
b100 F
b100 "
b100 >
b100 O
#24676
15
#24736
1*
#24758
b10101110 $
b10101110 D
b10101110 H
b10101110 N
b10101110 G
#24776
1!
#24796
b101100001111 z
b101100001111 r
b101100001111 +
b101100001111 S
b101100001111 m
#24816
b10101110 )
b10101110 P
b10101110 u
b10101110 |
b10101110 n
#24875
05
#24886
b110000001111 T
b100 q
#24926
b100000100 i
#24935
0*
#24946
b100000100 F
b100000100 "
b100000100 >
b100000100 O
b1111 {
b1111 t
#24975
0!
#25074
15
#25096
b100 $
b100 D
b100 H
b100 N
b100 G
#25134
1*
#25174
1!
#25194
b110000001111 z
b110000001111 r
b110000001111 +
b110000001111 S
b110000001111 m
#25214
b100 )
b100 P
b100 u
b100 |
b100 n
#25273
05
#25284
b110100001111 T
b11 q
#25324
b1000000100 i
#25333
0*
#25344
b1000000100 F
b1000000100 "
b1000000100 >
b1000000100 O
#25373
0!
#25472
15
#25494
b10100 $
b10100 D
b10100 H
b10100 N
b10100 G
#25532
1*
#25572
1!
#25592
b110100001111 z
b110100001111 r
b110100001111 +
b110100001111 S
b110100001111 m
#25612
b10100 )
b10100 P
b10100 u
b10100 |
b10100 n
#25671
05
#25682
b111000001111 T
b10 q
#25722
b1100000100 i
#25731
0*
#25742
b1100000100 F
b1100000100 "
b1100000100 >
b1100000100 O
#25771
0!
#25870
15
#25892
b100100 $
b100100 D
b100100 H
b100100 N
b100100 G
#25930
1*
#25970
1!
#25990
b111000001111 z
b111000001111 r
b111000001111 +
b111000001111 S
b111000001111 m
#26010
b100100 )
b100100 P
b100100 u
b100100 |
b100100 n
#26069
05
#26080
b111100001111 T
b1 q
#26120
b10000000100 i
#26129
0*
#26140
b10000000100 F
b10000000100 "
b10000000100 >
b10000000100 O
#26169
0!
#26268
15
#26290
b110100 $
b110100 D
b110100 H
b110100 N
b110100 G
#26328
1*
#26368
1!
#26388
b111100001111 z
b111100001111 r
b111100001111 +
b111100001111 S
b111100001111 m
#26408
b110100 )
b110100 P
b110100 u
b110100 |
b110100 n
#26467
05
#26478
b1000000001111 T
b0 q
#26518
b10100000100 i
#26527
0*
#26538
b10100000100 F
b10100000100 "
b10100000100 >
b10100000100 O
#26567
0!
#26666
15
#26688
b1000100 $
b1000100 D
b1000100 H
b1000100 N
b1000100 G
#26726
1*
#26766
1!
#26786
b1000000001111 z
b1000000001111 r
b1000000001111 +
b1000000001111 S
b1000000001111 m
#26806
b1000100 )
b1000100 P
b1000100 u
b1000100 |
b1000100 n
#26846
b101100001111 T
b101 q
#26865
05
#26925
0*
#26936
b101100010000 T
b0 p
#26965
0!
#26976
b100 i
#26996
b100 F
b100 "
b100 >
b100 O
#27016
0_
0`
b101 i
#27036
bz $
bz D
bz H
bz N
1#
x%
1'
zM
b1111 -
b1111 A
bz R
b0zzzzzzzzzzzzz F
bz "
bz >
bz O
0,
#27064
15
#27066
1%
#27124
1*
#27164
bz z
bz r
zs
bz +
bz S
bz )
bz P
bz u
bz |
0L
0a
1!
#27186
bx G
#27263
05
#27314
bx {
bx t
