hardware/gfx_module/src/out/gfx_vga_tb.vcd
$date
	Mon Nov 11 14:19:08 2024
$end
$version
	Icarus Verilog
$end
$timescale
	100ps
$end
$scope module GfxVgaTb $end
$var wire 1 ! piexel_data $end
$var wire 8 " vdata [7:0] $end
$var wire 1 # vram1_cs $end
$var wire 1 $ vram2_cs $end
$var wire 1 % vsync $end
$var wire 1 & vga_out_b $end
$var wire 1 ' vga_latch $end
$var wire 1 ( vaddr15_b $end
$var wire 16 ) vaddr [15:0] $end
$var wire 8 * pixel_data [7:0] $end
$var wire 2 + palette [1:0] $end
$var wire 8 , latch_cdata [7:0] $end
$var wire 1 - hsync $end
$var wire 1 . free_vbus_b $end
$var wire 1 / enabled_b $end
$var wire 8 0 cdata [7:0] $end
$var wire 1 1 active_b $end
$var reg 1 2 reg_clk $end
$var reg 2 3 reg_ctrl_addr [1:0] $end
$var reg 1 4 reg_ctrl_ce2 $end
$var reg 1 5 reg_ctrl_ce_b $end
$var reg 8 6 reg_ctrl_data [7:0] $end
$var reg 1 7 reg_ctrl_w_b $end
$scope module gfxVgaInst $end
$var wire 1 2 i_clk $end
$var wire 2 8 i_ctrl_addr [1:0] $end
$var wire 1 4 i_ctrl_ce2 $end
$var wire 1 5 i_ctrl_ce_b $end
$var wire 8 9 i_ctrl_data [7:0] $end
$var wire 1 7 i_ctrl_w_b $end
$var wire 8 : i_vdata [7:0] $end
$var wire 8 ; i_vdata_delayed [7:0] $end
$var wire 1 1 o_active_b $end
$var wire 1 < o_frame_end_b $end
$var wire 1 = o_frame_progress_b $end
$var wire 1 > o_frame_start_b $end
$var wire 1 . o_free_vbus_b $end
$var wire 1 - o_hsync $end
$var wire 2 ? o_palette [1:0] $end
$var wire 1 & o_vga_out_b $end
$var wire 1 % o_vsync $end
$var wire 16 @ vaddr_shifted [15:0] $end
$var wire 16 A vaddr [15:0] $end
$var wire 1 B v_cnt_rst $end
$var wire 1 ' o_vga_latch $end
$var wire 1 ( o_vaddr15_b $end
$var wire 16 C o_vaddr [15:0] $end
$var wire 8 D o_pixel_data [7:0] $end
$var wire 1 / o_enabled_b $end
$var wire 10 E h_cnt_shifted [9:0] $end
$var wire 1 F h_cnt_rst $end
$var wire 8 G dbr_pixel3 [7:0] $end
$var wire 8 H dbr_pixel2 [7:0] $end
$var wire 8 I dbr_pixel1 [7:0] $end
$var wire 8 J dbr_pixel0 [7:0] $end
$var wire 8 K dbr_pixel [7:0] $end
$var wire 1 L ctrl_enable $end
$var wire 1 M ctrl_double_res $end
$var wire 1 N active $end
$var reg 2 O reg_ctrl_palette [1:0] $end
$var reg 2 P reg_ctrl_status [1:0] $end
$var reg 8 Q reg_ctrl_x_shift [7:0] $end
$var reg 8 R reg_ctrl_y_shift [7:0] $end
$var reg 10 S reg_h_cnt [9:0] $end
$var reg 10 T reg_v_cnt [9:0] $end
$var reg 8 U reg_vdata [7:0] $end
$upscope $end
$scope module latch1Inst $end
$var wire 1 ' i_clk $end
$var wire 1 & i_oe_b $end
$var wire 8 V o_out [7:0] $end
$var wire 8 W i_in [7:0] $end
$var reg 8 X reg_q [7:0] $end
$upscope $end
$scope module paletteRamInst $end
$var wire 10 Y i_addr_l [9:0] $end
$var wire 10 Z i_addr_r [9:0] $end
$var wire 1 / i_ce_l_b $end
$var wire 1 [ i_ce_r_b $end
$var wire 1 1 i_oe_l_b $end
$var wire 1 \ i_oe_r_b $end
$var wire 1 ] i_rw_l_b $end
$var wire 1 ^ i_rw_r_b $end
$var wire 8 _ int_data_l [7:0] $end
$var wire 8 ` int_data_r [7:0] $end
$var wire 8 a io_data_r [7:0] $end
$var wire 8 b io_data_l [7:0] $end
$upscope $end
$scope module vram32Inst1 $end
$var wire 15 c i_addr [14:0] $end
$var wire 1 # i_ce_b $end
$var wire 1 1 i_re_b $end
$var wire 1 d i_we_b $end
$var wire 8 e int_data [7:0] $end
$var wire 8 f io_data [7:0] $end
$var integer 32 g i [31:0] $end
$upscope $end
$scope module vram32Inst2 $end
$var wire 15 h i_addr [14:0] $end
$var wire 1 $ i_ce_b $end
$var wire 1 1 i_re_b $end
$var wire 1 i i_we_b $end
$var wire 8 j int_data [7:0] $end
$var wire 8 k io_data [7:0] $end
$var integer 32 l i [31:0] $end
$upscope $end
$upscope $end
$enddefinitions $end
#0
$dumpvars
b111111111111111 l
bx k
bx j
1i
bx h
b111111111111111 g
bx f
bx e
1d
bx c
bx b
bz a
bx `
bx _
1^
1]
1\
1[
b0 Z
b0xxz Y
bx X
bx W
bx V
b0 U
b0 T
b0 S
b0 R
b0 Q
b0 P
b0 O
xN
0M
0L
b0 K
b0 J
b0 I
b0 H
b0 G
0F
b1111000000 E
bx D
bx C
0B
b11100000 A
b11100000 @
bx ?
x>
x=
x<
bx ;
bx :
b1 9
b0 8
17
b1 6
05
14
b0 3
12
x1
bx 0
x/
x.
x-
bx ,
bx +
bx *
bx )
x(
x'
x&
x%
x$
x#
bx "
z!
$end
#20
b0z Y
b0 +
b0 ?
#50
bz 0
bz W
bz b
1'
1>
1=
b0 *
b0 D
1/
1<
1%
1-
#60
bz "
bz :
bz f
bz k
1&
0N
11
#80
0.
#110
bz ,
bz V
1$
z(
#120
1#
bz h
bz c
bz ;
bz )
bz C
#199
02
#350
b10011001 `
#397
1L
b1 P
07
#398
12
#438
b1111000001 E
b1 S
#447
0=
0>
0/
#488
0'
#597
02
#794
17
#796
12
#836
b11100001 @
b11100001 A
b1111000010 E
b10 S
#886
bz X
1'
#995
02
#1194
12
#1234
b1111000011 E
b11 S
#1284
0'
#1393
02
#1592
12
#1632
b11100010 @
b11100010 A
b1111000100 E
b100 S
#1682
1'
#1791
02
#1990
12
#2030
b1111000101 E
b101 S
#2080
0'
#2189
02
#2388
12
#2428
b11100011 @
b11100011 A
b1111000110 E
b110 S
#2478
1'
#2587
02
#2786
12
#2826
b1111000111 E
b111 S
#2876
0'
#2985
02
#3184
12
#3224
b11100100 @
b11100100 A
b1111001000 E
b1000 S
#3274
1'
#3383
02
#3582
12
#3622
b1111001001 E
b1001 S
#3672
0'
#3781
02
#3980
12
#4020
b11100101 @
b11100101 A
b1111001010 E
b1010 S
#4070
1'
#4179
02
#4378
12
#4418
b1111001011 E
b1011 S
#4468
0'
#4577
02
#4776
12
#4816
b11100110 @
b11100110 A
b1111001100 E
b1100 S
#4866
1'
#4975
02
#5174
12
#5214
b1111001101 E
b1101 S
#5264
0'
#5373
02
#5572
12
#5612
b11100111 @
b11100111 A
b1111001110 E
b1110 S
#5662
1'
#5771
02
#5970
12
#6010
b1111001111 E
b1111 S
#6060
0'
#6169
02
#6368
12
#6408
b11101000 @
b11101000 A
b1111010000 E
b10000 S
#6458
1'
#6567
02
#6766
12
#6806
b1111010001 E
b10001 S
#6856
0'
#6965
02
#7164
12
#7204
b11101001 @
b11101001 A
b1111010010 E
b10010 S
#7254
1'
#7363
02
#7562
12
#7602
b1111010011 E
b10011 S
#7652
0'
#7761
02
#7960
12
#8000
b11101010 @
b11101010 A
b1111010100 E
b10100 S
#8050
1'
#8159
02
#8358
12
#8398
b1111010101 E
b10101 S
#8448
0'
#8557
02
#8756
12
#8796
b11101011 @
b11101011 A
b1111010110 E
b10110 S
#8846
1'
#8955
02
#9154
12
#9194
b1111010111 E
b10111 S
#9244
0'
#9353
02
#9552
12
#9592
b11101100 @
b11101100 A
b1111011000 E
b11000 S
#9642
1'
#9751
02
#9950
12
#9990
b1111011001 E
b11001 S
#10040
0'
#10149
02
#10348
12
#10388
b11101101 @
b11101101 A
b1111011010 E
b11010 S
#10438
1'
#10547
02
#10746
12
#10786
b1111011011 E
b11011 S
#10836
0'
#10945
02
#11144
12
#11184
b11101110 @
b11101110 A
b1111011100 E
b11100 S
#11234
1'
#11343
02
#11542
12
#11582
b1111011101 E
b11101 S
#11632
0'
#11741
02
#11940
12
#11980
b11101111 @
b11101111 A
b1111011110 E
b11110 S
#12030
1'
#12139
02
#12338
12
#12378
b1111011111 E
b11111 S
#12428
0'
#12537
02
#12736
12
#12776
b11110000 @
b11110000 A
b1111100000 E
b100000 S
#12826
1'
#12935
02
#13134
12
#13174
b1111100001 E
b100001 S
#13224
0'
#13333
02
#13532
12
#13572
b11110001 @
b11110001 A
b1111100010 E
b100010 S
#13622
1'
#13731
02
#13930
12
#13970
b1111100011 E
b100011 S
#14020
0'
#14129
02
#14328
12
#14368
b11110010 @
b11110010 A
b1111100100 E
b100100 S
#14418
1'
#14527
02
#14726
12
#14766
b1111100101 E
b100101 S
#14816
0'
#14925
02
#15124
12
#15164
b11110011 @
b11110011 A
b1111100110 E
b100110 S
#15214
1'
#15323
02
#15522
12
#15562
b1111100111 E
b100111 S
#15612
0'
#15721
02
#15920
12
#15960
b11110100 @
b11110100 A
b1111101000 E
b101000 S
#16010
1'
#16119
02
#16318
12
#16358
b1111101001 E
b101001 S
#16408
0'
#16517
02
#16716
12
#16756
b11110101 @
b11110101 A
b1111101010 E
b101010 S
#16806
1'
#16915
02
#17114
12
#17154
b1111101011 E
b101011 S
#17204
0'
#17313
02
#17512
12
#17552
b11110110 @
b11110110 A
b1111101100 E
b101100 S
#17602
1'
#17711
02
#17910
12
#17950
b1111101101 E
b101101 S
#18000
0'
#18109
02
#18308
12
#18348
b11110111 @
b11110111 A
b1111101110 E
b101110 S
#18398
1'
#18507
02
#18706
12
#18746
b1111101111 E
b101111 S
#18796
0'
#18905
02
#19104
12
#19144
b11111000 @
b11111000 A
b1111110000 E
b110000 S
#19194
1'
#19303
02
#19502
12
#19542
b1111110001 E
b110001 S
#19592
0'
#19701
02
#19900
12
#19940
b11111001 @
b11111001 A
b1111110010 E
b110010 S
#19990
1'
#20099
02
#20298
12
#20338
b1111110011 E
b110011 S
#20388
0'
#20497
02
#20696
12
#20736
b11111010 @
b11111010 A
b1111110100 E
b110100 S
#20786
1'
#20895
02
#21094
12
#21134
b1111110101 E
b110101 S
#21184
0'
#21293
02
#21492
12
#21532
b11111011 @
b11111011 A
b1111110110 E
b110110 S
#21582
1'
#21691
02
#21890
12
#21930
b1111110111 E
b110111 S
#21980
0'
#22089
02
#22288
12
#22328
b11111100 @
b11111100 A
b1111111000 E
b111000 S
#22378
1'
#22487
02
#22686
12
#22726
b1111111001 E
b111001 S
#22776
0'
#22885
02
#23084
12
#23124
b11111101 @
b11111101 A
b1111111010 E
b111010 S
#23174
1'
#23283
02
#23482
12
#23522
b1111111011 E
b111011 S
#23572
0'
#23681
02
#23880
12
#23920
b11111110 @
b11111110 A
b1111111100 E
b111100 S
#23970
1'
#24079
02
#24278
12
#24318
b1111111101 E
b111101 S
#24368
0'
#24477
02
#24676
12
#24716
b11111111 @
b11111111 A
b1111111110 E
b111110 S
#24766
1'
#24796
1.
#24875
02
#25074
12
#25114
b1111111111 E
b111111 S
#25164
0'
#25273
02
#25472
12
#25512
b0 @
b0 A
b0 E
b1000000 S
#25562
1'
#25572
bx 0
bx W
bx b
1N
01
#25671
02
#25682
1$
1(
#25692
bx "
bx :
bx f
bx k
0#
b0 h
b0 c
b0 )
b0 C
#25752
bx ;
#25842
b0 "
b0 :
b0 f
b0 k
b0 j
b0 e
#25870
12
#25902
b0 ;
#25910
b1 E
b1000001 S
#25960
0'
#26069
02
#26268
12
#26308
b1 @
b1 A
b10 E
b1000010 S
#26358
bx X
1'
#26428
b1 h
b1 c
b1 )
b1 C
#26467
02
#26578
b1 "
b1 :
b1 f
b1 k
b1 j
b1 e
#26638
b1 ;
#26666
12
#26706
b11 E
b1000011 S
#26756
0'
#26865
02
#27064
12
#27094
b1 K
b1 J
b1 U
#27104
b10 @
b10 A
b0 K
b100 E
b1000100 S
#27144
b1 *
b1 D
#27154
1'
#27164
0&
#27214
bx ,
bx V
#27224
b10 h
b10 c
b10 )
b10 C
#27263
02
#27374
b10 "
b10 :
b10 f
b10 k
b10 j
b10 e
#27434
b10 ;
#27462
12
#27502
b101 E
b1000101 S
#27552
0'
#27661
02
#27860
12
#27890
b10 J
b10 U
#27900
b11 @
b11 A
b110 E
b1000110 S
#27940
b10 *
b10 D
#27950
1'
#28020
b11 h
b11 c
b11 )
b11 C
#28059
02
#28170
b11 "
b11 :
b11 f
b11 k
b11 j
b11 e
#28230
b11 ;
#28258
12
#28298
b10 K
b111 E
b1000111 S
#28348
0'
#28457
02
#28656
12
#28686
b11 K
b11 J
b11 U
#28696
b100 @
b100 A
b0 K
b1000 E
b1001000 S
#28736
b11 *
b11 D
#28746
1'
#28816
b100 h
b100 c
b100 )
b100 C
#28855
02
#28966
b100 "
b100 :
b100 f
b100 k
b100 j
b100 e
#29026
b100 ;
#29054
12
#29094
b1001 E
b1001001 S
#29144
0'
#29253
02
#29452
12
#29482
b0 J
b1 I
b100 U
#29492
b101 @
b101 A
b1010 E
b1001010 S
#29532
b100 *
b100 D
#29542
1'
#29612
b101 h
b101 c
b101 )
b101 C
#29651
02
#29762
b101 "
b101 :
b101 f
b101 k
b101 j
b101 e
#29822
b101 ;
#29850
12
#29890
b1011 E
b1001011 S
#29940
0'
#30049
02
#30248
12
#30278
b1 K
b1 J
b101 U
#30288
b110 @
b110 A
b1100 E
b1001100 S
#30328
b101 *
b101 D
#30338
1'
#30408
b110 h
b110 c
b110 )
b110 C
#30447
02
#30558
b110 "
b110 :
b110 f
b110 k
b110 j
b110 e
#30618
b110 ;
#30646
12
#30686
b0 K
b1101 E
b1001101 S
#30736
0'
#30845
02
#31044
12
#31074
b10 J
b110 U
#31084
b111 @
b111 A
b1110 E
b1001110 S
#31124
b110 *
b110 D
#31134
1'
#31204
b111 h
b111 c
b111 )
b111 C
#31243
02
#31354
b111 "
b111 :
b111 f
b111 k
b111 j
b111 e
#31414
b111 ;
#31442
12
#31482
b10 K
b1111 E
b1001111 S
#31532
0'
#31641
02
#31840
12
#31870
b11 K
b11 J
b111 U
#31880
b1000 @
b1000 A
b1 K
b10000 E
b1010000 S
#31920
b111 *
b111 D
#31930
1'
#32000
b1000 h
b1000 c
b1000 )
b1000 C
#32039
02
#32150
b1000 "
b1000 :
b1000 f
b1000 k
b1000 j
b1000 e
#32210
b1000 ;
#32238
12
#32278
b0 K
b10001 E
b1010001 S
#32328
0'
#32437
02
#32636
12
#32666
b0 J
b10 I
b1000 U
#32676
b1001 @
b1001 A
b10010 E
b1010010 S
#32716
b1000 *
b1000 D
#32726
1'
#32796
b1001 h
b1001 c
b1001 )
b1001 C
#32835
02
#32946
b1001 "
b1001 :
b1001 f
b1001 k
b1001 j
b1001 e
#33006
b1001 ;
#33034
12
#33074
b10011 E
b1010011 S
#33124
0'
#33233
02
#33432
12
#33462
b1 K
b1 J
b1001 U
#33472
b1010 @
b1010 A
b10 K
b10100 E
b1010100 S
#33512
b1001 *
b1001 D
#33522
1'
#33592
b1010 h
b1010 c
b1010 )
b1010 C
#33631
02
#33742
b1010 "
b1010 :
b1010 f
b1010 k
b1010 j
b1010 e
#33802
b1010 ;
#33830
12
#33870
b0 K
b10101 E
b1010101 S
#33920
0'
#34029
02
#34228
12
#34258
b10 J
b1010 U
#34268
b1011 @
b1011 A
b10110 E
b1010110 S
#34308
b1010 *
b1010 D
#34318
1'
#34388
b1011 h
b1011 c
b1011 )
b1011 C
#34427
02
#34538
b1011 "
b1011 :
b1011 f
b1011 k
b1011 j
b1011 e
#34598
b1011 ;
#34626
12
#34666
b10 K
b10111 E
b1010111 S
#34716
0'
#34825
02
#35024
12
#35054
b11 K
b11 J
b1011 U
#35064
b1100 @
b1100 A
b10 K
b11000 E
b1011000 S
#35104
b1011 *
b1011 D
#35114
1'
#35184
b1100 h
b1100 c
b1100 )
b1100 C
#35223
02
#35334
b1100 "
b1100 :
b1100 f
b1100 k
b1100 j
b1100 e
#35394
b1100 ;
#35422
12
#35462
b0 K
b11001 E
b1011001 S
#35512
0'
#35621
02
#35820
12
#35850
b0 J
b11 I
b1100 U
#35860
b1101 @
b1101 A
b11010 E
b1011010 S
#35900
b1100 *
b1100 D
#35910
1'
#35980
b1101 h
b1101 c
b1101 )
b1101 C
#36019
02
#36130
b1101 "
b1101 :
b1101 f
b1101 k
b1101 j
b1101 e
#36190
b1101 ;
#36218
12
#36258
b11011 E
b1011011 S
#36308
0'
#36417
02
#36616
12
#36646
b1 K
b1 J
b1101 U
#36656
b1110 @
b1110 A
b11 K
b11100 E
b1011100 S
#36696
b1101 *
b1101 D
#36706
1'
#36776
b1110 h
b1110 c
b1110 )
b1110 C
#36815
02
#36926
b1110 "
b1110 :
b1110 f
b1110 k
b1110 j
b1110 e
#36986
b1110 ;
#37014
12
#37054
b0 K
b11101 E
b1011101 S
#37104
0'
#37213
02
#37412
12
#37442
b10 J
b1110 U
#37452
b1111 @
b1111 A
b11110 E
b1011110 S
#37492
b1110 *
b1110 D
#37502
1'
#37572
b1111 h
b1111 c
b1111 )
b1111 C
#37611
02
#37722
b1111 "
b1111 :
b1111 f
b1111 k
b1111 j
b1111 e
#37782
b1111 ;
#37810
12
#37850
b10 K
b11111 E
b1011111 S
#37900
0'
#38009
02
#38208
12
#38238
b11 K
b11 J
b1111 U
#38248
b10000 @
b10000 A
b100000 E
b1100000 S
#38288
b1111 *
b1111 D
#38298
1'
#38368
b10000 h
b10000 c
b10000 )
b10000 C
#38407
02
#38518
b10000 "
b10000 :
b10000 f
b10000 k
b10000 j
b10000 e
#38578
b10000 ;
#38606
12
#38646
b0 K
b100001 E
b1100001 S
#38696
0'
#38805
02
#39004
12
#39034
b1 K
b0 J
b0 I
b1 H
b10000 U
#39044
b10001 @
b10001 A
b0 K
b100010 E
b1100010 S
#39084
b10000 *
b10000 D
#39094
1'
#39164
b10001 h
b10001 c
b10001 )
b10001 C
#39203
02
#39314
b10001 "
b10001 :
b10001 f
b10001 k
b10001 j
b10001 e
#39374
b10001 ;
#39402
12
#39442
b100011 E
b1100011 S
#39492
0'
#39601
02
#39800
12
#39830
b1 K
b1 J
b10001 U
#39840
b10010 @
b10010 A
b0 K
b100100 E
b1100100 S
#39880
b10001 *
b10001 D
#39890
1'
#39960
b10010 h
b10010 c
b10010 )
b10010 C
#39999
02
#40110
b10010 "
b10010 :
b10010 f
b10010 k
b10010 j
b10010 e
#40170
b10010 ;
#40198
12
#40238
b1 K
b100101 E
b1100101 S
#40288
0'
#40397
02
#40596
12
#40626
b10 J
b10010 U
#40636
b10011 @
b10011 A
b0 K
b100110 E
b1100110 S
#40676
b10010 *
b10010 D
#40686
1'
#40756
b10011 h
b10011 c
b10011 )
b10011 C
#40795
02
#40906
b10011 "
b10011 :
b10011 f
b10011 k
b10011 j
b10011 e
#40966
b10011 ;
#40994
12
#41034
b10 K
b100111 E
b1100111 S
#41084
0'
#41193
02
#41392
12
#41422
b11 K
b11 J
b10011 U
#41432
b10100 @
b10100 A
b0 K
b101000 E
b1101000 S
#41472
b10011 *
b10011 D
#41482
1'
#41552
b10100 h
b10100 c
b10100 )
b10100 C
#41591
02
#41702
b10100 "
b10100 :
b10100 f
b10100 k
b10100 j
b10100 e
#41762
b10100 ;
#41790
12
#41830
b1 K
b101001 E
b1101001 S
#41880
0'
#41989
02
#42188
12
#42218
b0 J
b1 I
b10100 U
#42228
b10101 @
b10101 A
b0 K
b101010 E
b1101010 S
#42268
b10100 *
b10100 D
#42278
1'
#42348
b10101 h
b10101 c
b10101 )
b10101 C
#42387
02
#42498
b10101 "
b10101 :
b10101 f
b10101 k
b10101 j
b10101 e
#42558
b10101 ;
#42586
12
#42626
b101011 E
b1101011 S
#42676
0'
#42785
02
#42984
12
#43014
b1 K
b1 J
b10101 U
#43024
b10110 @
b10110 A
b101100 E
b1101100 S
#43064
b10101 *
b10101 D
#43074
1'
#43144
b10110 h
b10110 c
b10110 )
b10110 C
#43183
02
#43294
b10110 "
b10110 :
b10110 f
b10110 k
b10110 j
b10110 e
#43354
b10110 ;
#43382
12
#43422
b101101 E
b1101101 S
#43472
0'
#43581
02
#43780
12
#43810
b10 J
b10110 U
#43820
b10111 @
b10111 A
b0 K
b101110 E
b1101110 S
#43860
b10110 *
b10110 D
#43870
1'
#43940
b10111 h
b10111 c
b10111 )
b10111 C
#43979
02
#44090
b10111 "
b10111 :
b10111 f
b10111 k
b10111 j
b10111 e
#44150
b10111 ;
#44178
12
#44218
b10 K
b101111 E
b1101111 S
#44268
0'
#44377
02
#44576
12
#44606
b11 K
b11 J
b10111 U
#44616
b11000 @
b11000 A
b1 K
b110000 E
b1110000 S
#44656
b10111 *
b10111 D
#44666
1'
#44736
b11000 h
b11000 c
b11000 )
b11000 C
#44775
02
#44886
b11000 "
b11000 :
b11000 f
b11000 k
b11000 j
b11000 e
#44946
b11000 ;
#44974
12
#45014
b110001 E
b1110001 S
#45064
0'
#45173
02
#45372
12
#45402
b0 J
b10 I
b11000 U
#45412
b11001 @
b11001 A
b0 K
b110010 E
b1110010 S
#45452
b11000 *
b11000 D
#45462
1'
#45532
b11001 h
b11001 c
b11001 )
b11001 C
#45571
02
#45682
b11001 "
b11001 :
b11001 f
b11001 k
b11001 j
b11001 e
#45742
b11001 ;
#45770
12
#45810
b110011 E
b1110011 S
#45860
0'
#45969
02
#46168
12
#46198
b1 K
b1 J
b11001 U
#46208
b11010 @
b11010 A
b10 K
b110100 E
b1110100 S
#46248
b11001 *
b11001 D
#46258
1'
#46328
b11010 h
b11010 c
b11010 )
b11010 C
#46367
02
#46478
b11010 "
b11010 :
b11010 f
b11010 k
b11010 j
b11010 e
#46538
b11010 ;
#46566
12
#46606
b1 K
b110101 E
b1110101 S
#46656
0'
#46765
02
#46964
12
#46994
b10 J
b11010 U
#47004
b11011 @
b11011 A
b0 K
b110110 E
b1110110 S
#47044
b11010 *
b11010 D
#47054
1'
#47124
b11011 h
b11011 c
b11011 )
b11011 C
#47163
02
#47274
b11011 "
b11011 :
b11011 f
b11011 k
b11011 j
b11011 e
#47334
b11011 ;
#47362
12
#47402
b10 K
b110111 E
b1110111 S
#47452
0'
#47561
02
#47760
12
#47790
b11 K
b11 J
b11011 U
#47800
b11100 @
b11100 A
b10 K
b111000 E
b1111000 S
#47840
b11011 *
b11011 D
#47850
1'
#47920
b11100 h
b11100 c
b11100 )
b11100 C
#47959
02
#48070
b11100 "
b11100 :
b11100 f
b11100 k
b11100 j
b11100 e
#48130
b11100 ;
#48158
12
#48198
b1 K
b111001 E
b1111001 S
#48248
0'
#48357
02
#48556
12
#48586
b0 J
b11 I
b11100 U
#48596
b11101 @
b11101 A
b0 K
b111010 E
b1111010 S
#48636
b11100 *
b11100 D
#48646
1'
#48716
b11101 h
b11101 c
b11101 )
b11101 C
#48755
02
#48866
b11101 "
b11101 :
b11101 f
b11101 k
b11101 j
b11101 e
#48926
b11101 ;
#48954
12
#48994
b111011 E
b1111011 S
#49044
0'
#49153
02
#49352
12
#49382
b1 K
b1 J
b11101 U
#49392
b11110 @
b11110 A
b11 K
b111100 E
b1111100 S
#49432
b11101 *
b11101 D
#49442
1'
#49512
b11110 h
b11110 c
b11110 )
b11110 C
#49551
02
#49662
b11110 "
b11110 :
b11110 f
b11110 k
b11110 j
b11110 e
#49722
b11110 ;
#49750
12
#49790
b1 K
b111101 E
b1111101 S
#49840
0'
#49949
02
#50148
12
#50178
b10 J
b11110 U
#50188
b11111 @
b11111 A
b0 K
b111110 E
b1111110 S
#50228
b11110 *
b11110 D
#50238
1'
#50308
b11111 h
b11111 c
b11111 )
b11111 C
#50347
02
#50458
b11111 "
b11111 :
b11111 f
b11111 k
b11111 j
b11111 e
#50518
b11111 ;
#50546
12
#50586
b10 K
b111111 E
b1111111 S
#50636
0'
#50745
02
#50944
12
#50974
b11 K
b11 J
b11111 U
#50984
b100000 @
b100000 A
b1000000 E
b10000000 S
#51024
b11111 *
b11111 D
#51034
1'
#51104
b100000 h
b100000 c
b100000 )
b100000 C
#51143
02
#51254
b100000 "
b100000 :
b100000 f
b100000 k
b100000 j
b100000 e
#51314
b100000 ;
#51342
12
#51382
b1 K
b1000001 E
b10000001 S
#51432
0'
#51541
02
#51740
12
#51770
b10 K
b0 J
b0 I
b10 H
b100000 U
#51780
b100001 @
b100001 A
b0 K
b1000010 E
b10000010 S
#51820
b100000 *
b100000 D
#51830
1'
#51900
b100001 h
b100001 c
b100001 )
b100001 C
#51939
02
#52050
b100001 "
b100001 :
b100001 f
b100001 k
b100001 j
b100001 e
#52110
b100001 ;
#52138
12
#52178
b1000011 E
b10000011 S
#52228
0'
#52337
02
#52536
12
#52566
b1 K
b1 J
b100001 U
#52576
b100010 @
b100010 A
b0 K
b1000100 E
b10000100 S
#52616
b100001 *
b100001 D
#52626
1'
#52696
b100010 h
b100010 c
b100010 )
b100010 C
#52735
02
#52846
b100010 "
b100010 :
b100010 f
b100010 k
b100010 j
b100010 e
#52906
b100010 ;
#52934
12
#52974
b10 K
b1000101 E
b10000101 S
#53024
0'
#53133
02
#53332
12
#53362
b10 J
b100010 U
#53372
b100011 @
b100011 A
b0 K
b1000110 E
b10000110 S
#53412
b100010 *
b100010 D
#53422
1'
#53492
b100011 h
b100011 c
b100011 )
b100011 C
#53531
02
#53642
b100011 "
b100011 :
b100011 f
b100011 k
b100011 j
b100011 e
#53702
b100011 ;
#53730
12
#53770
b10 K
b1000111 E
b10000111 S
#53820
0'
#53929
02
#54128
12
#54158
b11 K
b11 J
b100011 U
#54168
b100100 @
b100100 A
b0 K
b1001000 E
b10001000 S
#54208
b100011 *
b100011 D
#54218
1'
#54288
b100100 h
b100100 c
b100100 )
b100100 C
#54327
02
#54438
b100100 "
b100100 :
b100100 f
b100100 k
b100100 j
b100100 e
#54498
b100100 ;
#54526
12
#54566
b10 K
b1001001 E
b10001001 S
#54616
0'
#54725
02
#54924
12
#54954
b0 J
b1 I
b100100 U
#54964
b100101 @
b100101 A
b0 K
b1001010 E
b10001010 S
#55004
b100100 *
b100100 D
#55014
1'
#55084
b100101 h
b100101 c
b100101 )
b100101 C
#55123
02
#55234
b100101 "
b100101 :
b100101 f
b100101 k
b100101 j
b100101 e
#55294
b100101 ;
#55322
12
#55362
b1001011 E
b10001011 S
#55412
0'
#55521
02
#55720
12
#55750
b1 K
b1 J
b100101 U
#55760
b100110 @
b100110 A
b1001100 E
b10001100 S
#55800
b100101 *
b100101 D
#55810
1'
#55880
b100110 h
b100110 c
b100110 )
b100110 C
#55919
02
#56030
b100110 "
b100110 :
b100110 f
b100110 k
b100110 j
b100110 e
#56090
b100110 ;
#56118
12
#56158
b10 K
b1001101 E
b10001101 S
#56208
0'
#56317
02
#56516
12
#56546
b10 J
b100110 U
#56556
b100111 @
b100111 A
b0 K
b1001110 E
b10001110 S
#56596
b100110 *
b100110 D
#56606
1'
#56676
b100111 h
b100111 c
b100111 )
b100111 C
#56715
02
#56826
b100111 "
b100111 :
b100111 f
b100111 k
b100111 j
b100111 e
#56886
b100111 ;
#56914
12
#56954
b10 K
b1001111 E
b10001111 S
#57004
0'
#57113
02
#57312
12
#57342
b11 K
b11 J
b100111 U
#57352
b101000 @
b101000 A
b1 K
b1010000 E
b10010000 S
#57392
b100111 *
b100111 D
#57402
1'
#57472
b101000 h
b101000 c
b101000 )
b101000 C
#57511
02
#57622
b101000 "
b101000 :
b101000 f
b101000 k
b101000 j
b101000 e
#57682
b101000 ;
#57710
12
#57750
b10 K
b1010001 E
b10010001 S
#57800
0'
#57909
02
#58108
12
#58138
b0 J
b10 I
b101000 U
#58148
b101001 @
b101001 A
b0 K
b1010010 E
b10010010 S
#58188
b101000 *
b101000 D
#58198
1'
#58268
b101001 h
b101001 c
b101001 )
b101001 C
#58307
02
#58418
b101001 "
b101001 :
b101001 f
b101001 k
b101001 j
b101001 e
#58478
b101001 ;
#58506
12
#58546
b1010011 E
b10010011 S
#58596
0'
#58705
02
#58904
12
#58934
b1 K
b1 J
b101001 U
#58944
b101010 @
b101010 A
b10 K
b1010100 E
b10010100 S
#58984
b101001 *
b101001 D
#58994
1'
#59064
b101010 h
b101010 c
b101010 )
b101010 C
#59103
02
#59214
b101010 "
b101010 :
b101010 f
b101010 k
b101010 j
b101010 e
#59274
b101010 ;
#59302
12
#59342
b1010101 E
b10010101 S
#59392
0'
#59501
02
#59700
12
#59730
b10 J
b101010 U
#59740
b101011 @
b101011 A
b0 K
b1010110 E
b10010110 S
#59780
b101010 *
b101010 D
#59790
1'
#59860
b101011 h
b101011 c
b101011 )
b101011 C
#59899
02
#60010
b101011 "
b101011 :
b101011 f
b101011 k
b101011 j
b101011 e
#60070
b101011 ;
#60098
12
#60138
b10 K
b1010111 E
b10010111 S
#60188
0'
#60297
02
#60496
12
#60526
b11 K
b11 J
b101011 U
#60536
b101100 @
b101100 A
b10 K
b1011000 E
b10011000 S
#60576
b101011 *
b101011 D
#60586
1'
#60656
b101100 h
b101100 c
b101100 )
b101100 C
#60695
02
#60806
b101100 "
b101100 :
b101100 f
b101100 k
b101100 j
b101100 e
#60866
b101100 ;
#60894
12
#60934
b1011001 E
b10011001 S
#60984
0'
#61093
02
#61292
12
#61322
b0 J
b11 I
b101100 U
#61332
b101101 @
b101101 A
b0 K
b1011010 E
b10011010 S
#61372
b101100 *
b101100 D
#61382
1'
#61452
b101101 h
b101101 c
b101101 )
b101101 C
#61491
02
#61602
b101101 "
b101101 :
b101101 f
b101101 k
b101101 j
b101101 e
#61662
b101101 ;
#61690
12
#61730
b1011011 E
b10011011 S
#61780
0'
#61889
02
#62088
12
#62118
b1 K
b1 J
b101101 U
#62128
b101110 @
b101110 A
b11 K
b1011100 E
b10011100 S
#62168
b101101 *
b101101 D
#62178
1'
#62248
b101110 h
b101110 c
b101110 )
b101110 C
#62287
02
#62398
b101110 "
b101110 :
b101110 f
b101110 k
b101110 j
b101110 e
#62458
b101110 ;
#62486
12
#62526
b10 K
b1011101 E
b10011101 S
#62576
0'
#62685
02
#62884
12
