hardware/gfx_module/src/out/gfx_vga_tb.vcd
$date
	Sat Dec  7 13:22:41 2024
$end
$version
	Icarus Verilog
$end
$timescale
	100ps
$end
$scope module GfxVgaTb $end
$var wire 1 ! piexel_data $end
$var wire 8 " vdata [7:0] $end
$var wire 1 # vram1_cs $end
$var wire 1 $ vram2_cs $end
$var wire 1 % vsync $end
$var wire 1 & vga_out_b $end
$var wire 1 ' vga_latch $end
$var wire 1 ( vaddr15_b $end
$var wire 16 ) vaddr [15:0] $end
$var wire 8 * pixel_data [7:0] $end
$var wire 2 + palette [1:0] $end
$var wire 8 , latch_cdata [7:0] $end
$var wire 1 - hsync $end
$var wire 1 . free_vbus_b $end
$var wire 1 / enabled_b $end
$var wire 8 0 cdata [7:0] $end
$var wire 1 1 active_b $end
$var real 1 2 TCLK $end
$var reg 1 3 reg_clk $end
$var reg 2 4 reg_ctrl_addr [1:0] $end
$var reg 1 5 reg_ctrl_ce2 $end
$var reg 1 6 reg_ctrl_ce_b $end
$var reg 8 7 reg_ctrl_data [7:0] $end
$var reg 1 8 reg_ctrl_w_b $end
$scope module gfxVgaInst $end
$var wire 1 3 i_clk $end
$var wire 2 9 i_ctrl_addr [1:0] $end
$var wire 1 5 i_ctrl_ce2 $end
$var wire 1 6 i_ctrl_ce_b $end
$var wire 8 : i_ctrl_data [7:0] $end
$var wire 1 8 i_ctrl_w_b $end
$var wire 8 ; i_vdata [7:0] $end
$var wire 8 < i_vdata_delayed [7:0] $end
$var wire 1 1 o_active_b $end
$var wire 1 = o_frame_end_b $end
$var wire 1 > o_frame_progress_b $end
$var wire 1 ? o_frame_start_b $end
$var wire 1 . o_free_vbus_b $end
$var wire 1 - o_hsync $end
$var wire 2 @ o_palette [1:0] $end
$var wire 1 & o_vga_out_b $end
$var wire 1 % o_vsync $end
$var wire 16 A vaddr_shifted [15:0] $end
$var wire 16 B vaddr [15:0] $end
$var wire 1 C v_cnt_rst $end
$var wire 1 ' o_vga_latch $end
$var wire 1 ( o_vaddr15_b $end
$var wire 16 D o_vaddr [15:0] $end
$var wire 8 E o_pixel_data [7:0] $end
$var wire 1 / o_enabled_b $end
$var wire 10 F h_cnt_shifted [9:0] $end
$var wire 1 G h_cnt_rst $end
$var wire 8 H dbr_pixel3 [7:0] $end
$var wire 8 I dbr_pixel2 [7:0] $end
$var wire 8 J dbr_pixel1 [7:0] $end
$var wire 8 K dbr_pixel0 [7:0] $end
$var wire 8 L dbr_pixel [7:0] $end
$var wire 1 M ctrl_enable $end
$var wire 1 N ctrl_double_res $end
$var wire 1 O active $end
$var parameter 10 P ACTIVE_H_END $end
$var parameter 10 Q ACTIVE_V_END $end
$var parameter 2 R CTRL_ADDR_PALETTE $end
$var parameter 2 S CTRL_ADDR_STATUS $end
$var parameter 2 T CTRL_ADDR_X_SHIFT $end
$var parameter 2 U CTRL_ADDR_Y_SHIFT $end
$var parameter 2 V CTRL_DOUBLE_RES $end
$var parameter 2 W CTRL_ENABLE $end
$var parameter 10 X FRAME_END_LINE $end
$var parameter 10 Y FRAME_START_LINE $end
$var parameter 10 Z FREE_VBUS_END $end
$var parameter 10 [ FREE_VBUS_START $end
$var parameter 10 \ HSYNC_END $end
$var parameter 10 ] HSYNC_START $end
$var parameter 10 ^ H_CENTER_SHIFT $end
$var parameter 10 _ H_CNT_RST $end
$var parameter 10 ` VGA_OUT_END $end
$var parameter 10 a VGA_OUT_START $end
$var parameter 10 b VSYNC_END $end
$var parameter 10 c VSYNC_START $end
$var parameter 10 d V_CNT_RST $end
$var reg 2 e reg_ctrl_palette [1:0] $end
$var reg 2 f reg_ctrl_status [1:0] $end
$var reg 8 g reg_ctrl_x_shift [7:0] $end
$var reg 8 h reg_ctrl_y_shift [7:0] $end
$var reg 10 i reg_h_cnt [9:0] $end
$var reg 10 j reg_v_cnt [9:0] $end
$var reg 8 k reg_vdata [7:0] $end
$upscope $end
$scope module latch1Inst $end
$var wire 1 ' i_clk $end
$var wire 1 & i_oe_b $end
$var wire 8 l o_out [7:0] $end
$var wire 8 m i_in [7:0] $end
$var parameter 32 n Delay $end
$var reg 8 o reg_q [7:0] $end
$upscope $end
$scope module paletteRamInst $end
$var wire 10 p i_addr_l [9:0] $end
$var wire 10 q i_addr_r [9:0] $end
$var wire 1 / i_ce_l_b $end
$var wire 1 r i_ce_r_b $end
$var wire 1 1 i_oe_l_b $end
$var wire 1 s i_oe_r_b $end
$var wire 1 t i_rw_l_b $end
$var wire 1 u i_rw_r_b $end
$var wire 8 v int_data_l [7:0] $end
$var wire 8 w int_data_r [7:0] $end
$var wire 8 x io_data_r [7:0] $end
$var wire 8 y io_data_l [7:0] $end
$var parameter 32 z AddrWidth $end
$var parameter 32 { Delay $end
$var parameter 184 | InitFile $end
$upscope $end
$scope module vram32Inst1 $end
$var wire 15 } i_addr [14:0] $end
$var wire 1 # i_ce_b $end
$var wire 1 1 i_re_b $end
$var wire 1 ~ i_we_b $end
$var wire 8 !" int_data [7:0] $end
$var wire 8 "" io_data [7:0] $end
$var parameter 32 #" AddrWidth $end
$var parameter 32 $" Delay $end
$var parameter 0 %" InitFile $end
$var integer 32 &" i [31:0] $end
$upscope $end
$scope module vram32Inst2 $end
$var wire 15 '" i_addr [14:0] $end
$var wire 1 $ i_ce_b $end
$var wire 1 1 i_re_b $end
$var wire 1 (" i_we_b $end
$var wire 8 )" int_data [7:0] $end
$var wire 8 *" io_data [7:0] $end
$var parameter 32 +" AddrWidth $end
$var parameter 32 ," Delay $end
$var parameter 0 -" InitFile $end
$var integer 32 ." i [31:0] $end
$upscope $end
$upscope $end
$enddefinitions $end
$comment Show the parameter values. $end
$dumpall
b -"
b1111 ,"
b1111 +"
b %"
b1111 $"
b1111 #"
b10111000101111011100100110000101101101001011110110001101101111011011000110111101110010010111110111000001100001011011000110010101110100011101000110010101011111011100100110000101101101 |
b100011 {
b1010 z
b101 n
b1000001101 d
b111101010 c
b111101100 b
b1000100 a
b1001000011 `
b1100011111 _
b1000000 ^
b1010010000 ]
b1011110000 \
b111110 [
b1001000100 Z
b0 Y
b111100000 X
b0 W
b1 V
b10 U
b1 T
b0 S
b11 R
b111100000 Q
b1000000011 P
r39.721946 2
$end
#0
$dumpvars
b111111111111111 ."
bx *"
bx )"
1("
bx '"
b111111111111111 &"
bx ""
bx !"
1~
bx }
bx y
bz x
bx w
bx v
1u
1t
1s
1r
b0 q
b0xxz p
bx o
bx m
bx l
b0 k
b0 j
b0 i
b0 h
b0 g
b0 f
b0 e
xO
0N
0M
b0 L
b0 K
b0 J
b0 I
b0 H
0G
b1111000000 F
bx E
bx D
0C
b11100000 B
b11100000 A
bx @
x?
x>
x=
bx <
bx ;
b1 :
b0 9
18
b1 7
06
15
b0 4
13
x1
bx 0
x/
x.
x-
bx ,
bx +
bx *
bx )
x(
x'
x&
x%
x$
x#
bx "
z!
$end
#20
b0z p
b0 +
b0 @
#50
bz 0
bz m
bz y
1'
1?
1>
b0 *
b0 E
1/
1=
1%
1-
#60
bz "
bz ;
bz ""
bz *"
1&
0O
11
#80
0.
#110
bz ,
bz l
1$
z(
#120
1#
bz '"
bz }
bz <
bz )
bz D
#199
03
#350
b10011001 w
#397
1M
b1 f
08
#398
13
#438
b1111000001 F
b1 i
#447
0>
0?
0/
#488
0'
#597
03
#794
18
#796
13
#836
b11100001 A
b11100001 B
b1111000010 F
b10 i
#886
bz o
1'
#995
03
#1194
13
#1234
b1111000011 F
b11 i
#1284
0'
#1393
03
#1592
13
#1632
b11100010 A
b11100010 B
b1111000100 F
b100 i
#1682
1'
#1791
03
#1990
13
#2030
b1111000101 F
b101 i
#2080
0'
#2189
03
#2388
13
#2428
b11100011 A
b11100011 B
b1111000110 F
b110 i
#2478
1'
#2587
03
#2786
13
#2826
b1111000111 F
b111 i
#2876
0'
#2985
03
#3184
13
#3224
b11100100 A
b11100100 B
b1111001000 F
b1000 i
#3274
1'
#3383
03
#3582
13
#3622
b1111001001 F
b1001 i
#3672
0'
#3781
03
#3980
13
#4020
b11100101 A
b11100101 B
b1111001010 F
b1010 i
#4070
1'
#4179
03
#4378
13
#4418
b1111001011 F
b1011 i
#4468
0'
#4577
03
#4776
13
#4816
b11100110 A
b11100110 B
b1111001100 F
b1100 i
#4866
1'
#4975
03
#5174
13
#5214
b1111001101 F
b1101 i
#5264
0'
#5373
03
#5572
13
#5612
b11100111 A
b11100111 B
b1111001110 F
b1110 i
#5662
1'
#5771
03
#5970
13
#6010
b1111001111 F
b1111 i
#6060
0'
#6169
03
#6368
13
#6408
b11101000 A
b11101000 B
b1111010000 F
b10000 i
#6458
1'
#6567
03
#6766
13
#6806
b1111010001 F
b10001 i
#6856
0'
#6965
03
#7164
13
#7204
b11101001 A
b11101001 B
b1111010010 F
b10010 i
#7254
1'
#7363
03
#7562
13
#7602
b1111010011 F
b10011 i
#7652
0'
#7761
03
#7960
13
#8000
b11101010 A
b11101010 B
b1111010100 F
b10100 i
#8050
1'
#8159
03
#8358
13
#8398
b1111010101 F
b10101 i
#8448
0'
#8557
03
#8756
13
#8796
b11101011 A
b11101011 B
b1111010110 F
b10110 i
#8846
1'
#8955
03
#9154
13
#9194
b1111010111 F
b10111 i
#9244
0'
#9353
03
#9552
13
#9592
b11101100 A
b11101100 B
b1111011000 F
b11000 i
#9642
1'
#9751
03
#9950
13
#9990
b1111011001 F
b11001 i
#10040
0'
#10149
03
#10348
13
#10388
b11101101 A
b11101101 B
b1111011010 F
b11010 i
#10438
1'
#10547
03
#10746
13
#10786
b1111011011 F
b11011 i
#10836
0'
#10945
03
#11144
13
#11184
b11101110 A
b11101110 B
b1111011100 F
b11100 i
#11234
1'
#11343
03
#11542
13
#11582
b1111011101 F
b11101 i
#11632
0'
#11741
03
#11940
13
#11980
b11101111 A
b11101111 B
b1111011110 F
b11110 i
#12030
1'
#12139
03
#12338
13
#12378
b1111011111 F
b11111 i
#12428
0'
#12537
03
#12736
13
#12776
b11110000 A
b11110000 B
b1111100000 F
b100000 i
#12826
1'
#12935
03
#13134
13
#13174
b1111100001 F
b100001 i
#13224
0'
#13333
03
#13532
13
#13572
b11110001 A
b11110001 B
b1111100010 F
b100010 i
#13622
1'
#13731
03
#13930
13
#13970
b1111100011 F
b100011 i
#14020
0'
#14129
03
#14328
13
#14368
b11110010 A
b11110010 B
b1111100100 F
b100100 i
#14418
1'
#14527
03
#14726
13
#14766
b1111100101 F
b100101 i
#14816
0'
#14925
03
#15124
13
#15164
b11110011 A
b11110011 B
b1111100110 F
b100110 i
#15214
1'
#15323
03
#15522
13
#15562
b1111100111 F
b100111 i
#15612
0'
#15721
03
#15920
13
#15960
b11110100 A
b11110100 B
b1111101000 F
b101000 i
#16010
1'
#16119
03
#16318
13
#16358
b1111101001 F
b101001 i
#16408
0'
#16517
03
#16716
13
#16756
b11110101 A
b11110101 B
b1111101010 F
b101010 i
#16806
1'
#16915
03
#17114
13
#17154
b1111101011 F
b101011 i
#17204
0'
#17313
03
#17512
13
#17552
b11110110 A
b11110110 B
b1111101100 F
b101100 i
#17602
1'
#17711
03
#17910
13
#17950
b1111101101 F
b101101 i
#18000
0'
#18109
03
#18308
13
#18348
b11110111 A
b11110111 B
b1111101110 F
b101110 i
#18398
1'
#18507
03
#18706
13
#18746
b1111101111 F
b101111 i
#18796
0'
#18905
03
#19104
13
#19144
b11111000 A
b11111000 B
b1111110000 F
b110000 i
#19194
1'
#19303
03
#19502
13
#19542
b1111110001 F
b110001 i
#19592
0'
#19701
03
#19900
13
#19940
b11111001 A
b11111001 B
b1111110010 F
b110010 i
#19990
1'
#20099
03
#20298
13
#20338
b1111110011 F
b110011 i
#20388
0'
#20497
03
#20696
13
#20736
b11111010 A
b11111010 B
b1111110100 F
b110100 i
#20786
1'
#20895
03
#21094
13
#21134
b1111110101 F
b110101 i
#21184
0'
#21293
03
#21492
13
#21532
b11111011 A
b11111011 B
b1111110110 F
b110110 i
#21582
1'
#21691
03
#21890
13
#21930
b1111110111 F
b110111 i
#21980
0'
#22089
03
#22288
13
#22328
b11111100 A
b11111100 B
b1111111000 F
b111000 i
#22378
1'
#22487
03
#22686
13
#22726
b1111111001 F
b111001 i
#22776
0'
#22885
03
#23084
13
#23124
b11111101 A
b11111101 B
b1111111010 F
b111010 i
#23174
1'
#23283
03
#23482
13
#23522
b1111111011 F
b111011 i
#23572
0'
#23681
03
#23880
13
#23920
b11111110 A
b11111110 B
b1111111100 F
b111100 i
#23970
1'
#24079
03
#24278
13
#24318
b1111111101 F
b111101 i
#24368
0'
#24477
03
#24676
13
#24716
b11111111 A
b11111111 B
b1111111110 F
b111110 i
#24766
1'
#24796
1.
#24875
03
#25074
13
#25114
b1111111111 F
b111111 i
#25164
0'
#25273
03
#25472
13
#25512
b0 A
b0 B
b0 F
b1000000 i
#25562
1'
#25572
bx 0
bx m
bx y
1O
01
#25671
03
#25682
1$
1(
#25692
bx "
bx ;
bx ""
bx *"
0#
b0 '"
b0 }
b0 )
b0 D
#25752
bx <
#25842
b0 "
b0 ;
b0 ""
b0 *"
b0 )"
b0 !"
#25870
13
#25902
b0 <
#25910
b1 F
b1000001 i
#25960
0'
#26069
03
#26268
13
#26308
b1 A
b1 B
b10 F
b1000010 i
#26358
bx o
1'
#26428
b1 '"
b1 }
b1 )
b1 D
#26467
03
#26578
b1 "
b1 ;
b1 ""
b1 *"
b1 )"
b1 !"
#26638
b1 <
#26666
13
#26706
b11 F
b1000011 i
#26756
0'
#26865
03
#27064
13
#27094
b1 L
b1 K
b1 k
#27104
b10 A
b10 B
b0 L
b100 F
b1000100 i
#27144
b1 *
b1 E
#27154
1'
#27164
0&
#27214
bx ,
bx l
#27224
b10 '"
b10 }
b10 )
b10 D
#27263
03
#27374
b10 "
b10 ;
b10 ""
b10 *"
b10 )"
b10 !"
#27434
b10 <
#27462
13
#27502
b101 F
b1000101 i
#27552
0'
#27661
03
#27860
13
#27890
b10 K
b10 k
#27900
b11 A
b11 B
b110 F
b1000110 i
#27940
b10 *
b10 E
#27950
1'
#28020
b11 '"
b11 }
b11 )
b11 D
#28059
03
#28170
b11 "
b11 ;
b11 ""
b11 *"
b11 )"
b11 !"
#28230
b11 <
#28258
13
#28298
b10 L
b111 F
b1000111 i
#28348
0'
#28457
03
#28656
13
#28686
b11 L
b11 K
b11 k
#28696
b100 A
b100 B
b0 L
b1000 F
b1001000 i
#28736
b11 *
b11 E
#28746
1'
#28816
b100 '"
b100 }
b100 )
b100 D
#28855
03
#28966
b100 "
b100 ;
b100 ""
b100 *"
b100 )"
b100 !"
#29026
b100 <
#29054
13
#29094
b1001 F
b1001001 i
#29144
0'
#29253
03
#29452
13
#29482
b0 K
b1 J
b100 k
#29492
b101 A
b101 B
b1010 F
b1001010 i
#29532
b100 *
b100 E
#29542
1'
#29612
b101 '"
b101 }
b101 )
b101 D
#29651
03
#29762
b101 "
b101 ;
b101 ""
b101 *"
b101 )"
b101 !"
#29822
b101 <
#29850
13
#29890
b1011 F
b1001011 i
#29940
0'
#30049
03
#30248
13
#30278
b1 L
b1 K
b101 k
#30288
b110 A
b110 B
b1100 F
b1001100 i
#30328
b101 *
b101 E
#30338
1'
#30408
b110 '"
b110 }
b110 )
b110 D
#30447
03
#30558
b110 "
b110 ;
b110 ""
b110 *"
b110 )"
b110 !"
#30618
b110 <
#30646
13
#30686
b0 L
b1101 F
b1001101 i
#30736
0'
#30845
03
#31044
13
#31074
b10 K
b110 k
#31084
b111 A
b111 B
b1110 F
b1001110 i
#31124
b110 *
b110 E
#31134
1'
#31204
b111 '"
b111 }
b111 )
b111 D
#31243
03
#31354
b111 "
b111 ;
b111 ""
b111 *"
b111 )"
b111 !"
#31414
b111 <
#31442
13
#31482
b10 L
b1111 F
b1001111 i
#31532
0'
#31641
03
#31840
13
#31870
b11 L
b11 K
b111 k
#31880
b1000 A
b1000 B
b1 L
b10000 F
b1010000 i
#31920
b111 *
b111 E
#31930
1'
#32000
b1000 '"
b1000 }
b1000 )
b1000 D
#32039
03
#32150
b1000 "
b1000 ;
b1000 ""
b1000 *"
b1000 )"
b1000 !"
#32210
b1000 <
#32238
13
#32278
b0 L
b10001 F
b1010001 i
#32328
0'
#32437
03
#32636
13
#32666
b0 K
b10 J
b1000 k
#32676
b1001 A
b1001 B
b10010 F
b1010010 i
#32716
b1000 *
b1000 E
#32726
1'
#32796
b1001 '"
b1001 }
b1001 )
b1001 D
#32835
03
#32946
b1001 "
b1001 ;
b1001 ""
b1001 *"
b1001 )"
b1001 !"
#33006
b1001 <
#33034
13
#33074
b10011 F
b1010011 i
#33124
0'
#33233
03
#33432
13
#33462
b1 L
b1 K
b1001 k
#33472
b1010 A
b1010 B
b10 L
b10100 F
b1010100 i
#33512
b1001 *
b1001 E
#33522
1'
#33592
b1010 '"
b1010 }
b1010 )
b1010 D
#33631
03
#33742
b1010 "
b1010 ;
b1010 ""
b1010 *"
b1010 )"
b1010 !"
#33802
b1010 <
#33830
13
#33870
b0 L
b10101 F
b1010101 i
#33920
0'
#34029
03
#34228
13
#34258
b10 K
b1010 k
#34268
b1011 A
b1011 B
b10110 F
b1010110 i
#34308
b1010 *
b1010 E
#34318
1'
#34388
b1011 '"
b1011 }
b1011 )
b1011 D
#34427
03
#34538
b1011 "
b1011 ;
b1011 ""
b1011 *"
b1011 )"
b1011 !"
#34598
b1011 <
#34626
13
#34666
b10 L
b10111 F
b1010111 i
#34716
0'
#34825
03
#35024
13
#35054
b11 L
b11 K
b1011 k
#35064
b1100 A
b1100 B
b10 L
b11000 F
b1011000 i
#35104
b1011 *
b1011 E
#35114
1'
#35184
b1100 '"
b1100 }
b1100 )
b1100 D
#35223
03
#35334
b1100 "
b1100 ;
b1100 ""
b1100 *"
b1100 )"
b1100 !"
#35394
b1100 <
#35422
13
#35462
b0 L
b11001 F
b1011001 i
#35512
0'
#35621
03
#35820
13
#35850
b0 K
b11 J
b1100 k
#35860
b1101 A
b1101 B
b11010 F
b1011010 i
#35900
b1100 *
b1100 E
#35910
1'
#35980
b1101 '"
b1101 }
b1101 )
b1101 D
#36019
03
#36130
b1101 "
b1101 ;
b1101 ""
b1101 *"
b1101 )"
b1101 !"
#36190
b1101 <
#36218
13
#36258
b11011 F
b1011011 i
#36308
0'
#36417
03
#36616
13
#36646
b1 L
b1 K
b1101 k
#36656
b1110 A
b1110 B
b11 L
b11100 F
b1011100 i
#36696
b1101 *
b1101 E
#36706
1'
#36776
b1110 '"
b1110 }
b1110 )
b1110 D
#36815
03
#36926
b1110 "
b1110 ;
b1110 ""
b1110 *"
b1110 )"
b1110 !"
#36986
b1110 <
#37014
13
#37054
b0 L
b11101 F
b1011101 i
#37104
0'
#37213
03
#37412
13
#37442
b10 K
b1110 k
#37452
b1111 A
b1111 B
b11110 F
b1011110 i
#37492
b1110 *
b1110 E
#37502
1'
#37572
b1111 '"
b1111 }
b1111 )
b1111 D
#37611
03
#37722
b1111 "
b1111 ;
b1111 ""
b1111 *"
b1111 )"
b1111 !"
#37782
b1111 <
#37810
13
#37850
b10 L
b11111 F
b1011111 i
#37900
0'
#38009
03
#38208
13
#38238
b11 L
b11 K
b1111 k
#38248
b10000 A
b10000 B
b100000 F
b1100000 i
#38288
b1111 *
b1111 E
#38298
1'
#38368
b10000 '"
b10000 }
b10000 )
b10000 D
#38407
03
#38518
b10000 "
b10000 ;
b10000 ""
b10000 *"
b10000 )"
b10000 !"
#38578
b10000 <
#38606
13
#38646
b0 L
b100001 F
b1100001 i
#38696
0'
#38805
03
#39004
13
#39034
b1 L
b0 K
b0 J
b1 I
b10000 k
#39044
b10001 A
b10001 B
b0 L
b100010 F
b1100010 i
#39084
b10000 *
b10000 E
#39094
1'
#39164
b10001 '"
b10001 }
b10001 )
b10001 D
#39203
03
#39314
b10001 "
b10001 ;
b10001 ""
b10001 *"
b10001 )"
b10001 !"
#39374
b10001 <
#39402
13
#39442
b100011 F
b1100011 i
#39492
0'
#39601
03
#39800
13
#39830
b1 L
b1 K
b10001 k
#39840
b10010 A
b10010 B
b0 L
b100100 F
b1100100 i
#39880
b10001 *
b10001 E
#39890
1'
#39960
b10010 '"
b10010 }
b10010 )
b10010 D
#39999
03
#40110
b10010 "
b10010 ;
b10010 ""
b10010 *"
b10010 )"
b10010 !"
#40170
b10010 <
#40198
13
#40238
b1 L
b100101 F
b1100101 i
#40288
0'
#40397
03
#40596
13
#40626
b10 K
b10010 k
#40636
b10011 A
b10011 B
b0 L
b100110 F
b1100110 i
#40676
b10010 *
b10010 E
#40686
1'
#40756
b10011 '"
b10011 }
b10011 )
b10011 D
#40795
03
#40906
b10011 "
b10011 ;
b10011 ""
b10011 *"
b10011 )"
b10011 !"
#40966
b10011 <
#40994
13
#41034
b10 L
b100111 F
b1100111 i
#41084
0'
#41193
03
#41392
13
#41422
b11 L
b11 K
b10011 k
#41432
b10100 A
b10100 B
b0 L
b101000 F
b1101000 i
#41472
b10011 *
b10011 E
#41482
1'
#41552
b10100 '"
b10100 }
b10100 )
b10100 D
#41591
03
#41702
b10100 "
b10100 ;
b10100 ""
b10100 *"
b10100 )"
b10100 !"
#41762
b10100 <
#41790
13
#41830
b1 L
b101001 F
b1101001 i
#41880
0'
#41989
03
#42188
13
#42218
b0 K
b1 J
b10100 k
#42228
b10101 A
b10101 B
b0 L
b101010 F
b1101010 i
#42268
b10100 *
b10100 E
#42278
1'
#42348
b10101 '"
b10101 }
b10101 )
b10101 D
#42387
03
#42498
b10101 "
b10101 ;
b10101 ""
b10101 *"
b10101 )"
b10101 !"
#42558
b10101 <
#42586
13
#42626
b101011 F
b1101011 i
#42676
0'
#42785
03
#42984
13
#43014
b1 L
b1 K
b10101 k
#43024
b10110 A
b10110 B
b101100 F
b1101100 i
#43064
b10101 *
b10101 E
#43074
1'
#43144
b10110 '"
b10110 }
b10110 )
b10110 D
#43183
03
#43294
b10110 "
b10110 ;
b10110 ""
b10110 *"
b10110 )"
b10110 !"
#43354
b10110 <
#43382
13
#43422
b101101 F
b1101101 i
#43472
0'
#43581
03
#43780
13
#43810
b10 K
b10110 k
#43820
b10111 A
b10111 B
b0 L
b101110 F
b1101110 i
#43860
b10110 *
b10110 E
#43870
1'
#43940
b10111 '"
b10111 }
b10111 )
b10111 D
#43979
03
#44090
b10111 "
b10111 ;
b10111 ""
b10111 *"
b10111 )"
b10111 !"
#44150
b10111 <
#44178
13
#44218
b10 L
b101111 F
b1101111 i
#44268
0'
#44377
03
#44576
13
#44606
b11 L
b11 K
b10111 k
#44616
b11000 A
b11000 B
b1 L
b110000 F
b1110000 i
#44656
b10111 *
b10111 E
#44666
1'
#44736
b11000 '"
b11000 }
b11000 )
b11000 D
#44775
03
#44886
b11000 "
b11000 ;
b11000 ""
b11000 *"
b11000 )"
b11000 !"
#44946
b11000 <
#44974
13
#45014
b110001 F
b1110001 i
#45064
0'
#45173
03
#45372
13
#45402
b0 K
b10 J
b11000 k
#45412
b11001 A
b11001 B
b0 L
b110010 F
b1110010 i
#45452
b11000 *
b11000 E
#45462
1'
#45532
b11001 '"
b11001 }
b11001 )
b11001 D
#45571
03
#45682
b11001 "
b11001 ;
b11001 ""
b11001 *"
b11001 )"
b11001 !"
#45742
b11001 <
#45770
13
#45810
b110011 F
b1110011 i
#45860
0'
#45969
03
#46168
13
#46198
b1 L
b1 K
b11001 k
#46208
b11010 A
b11010 B
b10 L
b110100 F
b1110100 i
#46248
b11001 *
b11001 E
#46258
1'
#46328
b11010 '"
b11010 }
b11010 )
b11010 D
#46367
03
#46478
b11010 "
b11010 ;
b11010 ""
b11010 *"
b11010 )"
b11010 !"
#46538
b11010 <
#46566
13
#46606
b1 L
b110101 F
b1110101 i
#46656
0'
#46765
03
#46964
13
#46994
b10 K
b11010 k
#47004
b11011 A
b11011 B
b0 L
b110110 F
b1110110 i
#47044
b11010 *
b11010 E
#47054
1'
#47124
b11011 '"
b11011 }
b11011 )
b11011 D
#47163
03
#47274
b11011 "
b11011 ;
b11011 ""
b11011 *"
b11011 )"
b11011 !"
#47334
b11011 <
#47362
13
#47402
b10 L
b110111 F
b1110111 i
#47452
0'
#47561
03
#47760
13
#47790
b11 L
b11 K
b11011 k
#47800
b11100 A
b11100 B
b10 L
b111000 F
b1111000 i
#47840
b11011 *
b11011 E
#47850
1'
#47920
b11100 '"
b11100 }
b11100 )
b11100 D
#47959
03
#48070
b11100 "
b11100 ;
b11100 ""
b11100 *"
b11100 )"
b11100 !"
#48130
b11100 <
#48158
13
#48198
b1 L
b111001 F
b1111001 i
#48248
0'
#48357
03
#48556
13
#48586
b0 K
b11 J
b11100 k
#48596
b11101 A
b11101 B
b0 L
b111010 F
b1111010 i
#48636
b11100 *
b11100 E
#48646
1'
#48716
b11101 '"
b11101 }
b11101 )
b11101 D
#48755
03
#48866
b11101 "
b11101 ;
b11101 ""
b11101 *"
b11101 )"
b11101 !"
#48926
b11101 <
#48954
13
#48994
b111011 F
b1111011 i
#49044
0'
#49153
03
#49352
13
#49382
b1 L
b1 K
b11101 k
#49392
b11110 A
b11110 B
b11 L
b111100 F
b1111100 i
#49432
b11101 *
b11101 E
#49442
1'
#49512
b11110 '"
b11110 }
b11110 )
b11110 D
#49551
03
#49662
b11110 "
b11110 ;
b11110 ""
b11110 *"
b11110 )"
b11110 !"
#49722
b11110 <
#49750
13
#49790
b1 L
b111101 F
b1111101 i
#49840
0'
#49949
03
#50148
13
#50178
b10 K
b11110 k
#50188
b11111 A
b11111 B
b0 L
b111110 F
b1111110 i
#50228
b11110 *
b11110 E
#50238
1'
#50308
b11111 '"
b11111 }
b11111 )
b11111 D
#50347
03
#50458
b11111 "
b11111 ;
b11111 ""
b11111 *"
b11111 )"
b11111 !"
#50518
b11111 <
#50546
13
#50586
b10 L
b111111 F
b1111111 i
#50636
0'
#50745
03
#50944
13
#50974
b11 L
b11 K
b11111 k
#50984
b100000 A
b100000 B
b1000000 F
b10000000 i
#51024
b11111 *
b11111 E
#51034
1'
#51104
b100000 '"
b100000 }
b100000 )
b100000 D
#51143
03
#51254
b100000 "
b100000 ;
b100000 ""
b100000 *"
b100000 )"
b100000 !"
#51314
b100000 <
#51342
13
#51382
b1 L
b1000001 F
b10000001 i
#51432
0'
#51541
03
#51740
13
#51770
b10 L
b0 K
b0 J
b10 I
b100000 k
#51780
b100001 A
b100001 B
b0 L
b1000010 F
b10000010 i
#51820
b100000 *
b100000 E
#51830
1'
#51900
b100001 '"
b100001 }
b100001 )
b100001 D
#51939
03
#52050
b100001 "
b100001 ;
b100001 ""
b100001 *"
b100001 )"
b100001 !"
#52110
b100001 <
#52138
13
#52178
b1000011 F
b10000011 i
#52228
0'
#52337
03
#52536
13
#52566
b1 L
b1 K
b100001 k
#52576
b100010 A
b100010 B
b0 L
b1000100 F
b10000100 i
#52616
b100001 *
b100001 E
#52626
1'
#52696
b100010 '"
b100010 }
b100010 )
b100010 D
#52735
03
#52846
b100010 "
b100010 ;
b100010 ""
b100010 *"
b100010 )"
b100010 !"
#52906
b100010 <
#52934
13
#52974
b10 L
b1000101 F
b10000101 i
#53024
0'
#53133
03
#53332
13
#53362
b10 K
b100010 k
#53372
b100011 A
b100011 B
b0 L
b1000110 F
b10000110 i
#53412
b100010 *
b100010 E
#53422
1'
#53492
b100011 '"
b100011 }
b100011 )
b100011 D
#53531
03
#53642
b100011 "
b100011 ;
b100011 ""
b100011 *"
b100011 )"
b100011 !"
#53702
b100011 <
#53730
13
#53770
b10 L
b1000111 F
b10000111 i
#53820
0'
#53929
03
#54128
13
#54158
b11 L
b11 K
b100011 k
#54168
b100100 A
b100100 B
b0 L
b1001000 F
b10001000 i
#54208
b100011 *
b100011 E
#54218
1'
#54288
b100100 '"
b100100 }
b100100 )
b100100 D
#54327
03
#54438
b100100 "
b100100 ;
b100100 ""
b100100 *"
b100100 )"
b100100 !"
#54498
b100100 <
#54526
13
#54566
b10 L
b1001001 F
b10001001 i
#54616
0'
#54725
03
#54924
13
#54954
b0 K
b1 J
b100100 k
#54964
b100101 A
b100101 B
b0 L
b1001010 F
b10001010 i
#55004
b100100 *
b100100 E
#55014
1'
#55084
b100101 '"
b100101 }
b100101 )
b100101 D
#55123
03
#55234
b100101 "
b100101 ;
b100101 ""
b100101 *"
b100101 )"
b100101 !"
#55294
b100101 <
#55322
13
#55362
b1001011 F
b10001011 i
#55412
0'
#55521
03
#55720
13
#55750
b1 L
b1 K
b100101 k
#55760
b100110 A
b100110 B
b1001100 F
b10001100 i
#55800
b100101 *
b100101 E
#55810
1'
#55880
b100110 '"
b100110 }
b100110 )
b100110 D
#55919
03
#56030
b100110 "
b100110 ;
b100110 ""
b100110 *"
b100110 )"
b100110 !"
#56090
b100110 <
#56118
13
#56158
b10 L
b1001101 F
b10001101 i
#56208
0'
#56317
03
#56516
13
#56546
b10 K
b100110 k
#56556
b100111 A
b100111 B
b0 L
b1001110 F
b10001110 i
#56596
b100110 *
b100110 E
#56606
1'
#56676
b100111 '"
b100111 }
b100111 )
b100111 D
#56715
03
#56826
b100111 "
b100111 ;
b100111 ""
b100111 *"
b100111 )"
b100111 !"
#56886
b100111 <
#56914
13
#56954
b10 L
b1001111 F
b10001111 i
#57004
0'
#57113
03
#57312
13
#57342
b11 L
b11 K
b100111 k
#57352
b101000 A
b101000 B
b1 L
b1010000 F
b10010000 i
#57392
b100111 *
b100111 E
#57402
1'
#57472
b101000 '"
b101000 }
b101000 )
b101000 D
#57511
03
#57622
b101000 "
b101000 ;
b101000 ""
b101000 *"
b101000 )"
b101000 !"
#57682
b101000 <
#57710
13
#57750
b10 L
b1010001 F
b10010001 i
#57800
0'
#57909
03
#58108
13
#58138
b0 K
b10 J
b101000 k
#58148
b101001 A
b101001 B
b0 L
b1010010 F
b10010010 i
#58188
b101000 *
b101000 E
#58198
1'
