hardware/gfx_module/src/out/gfx_dma_tb.vcd
$date
	Thu Dec 19 02:09:29 2024
$end
$version
	Icarus Verilog
$end
$timescale
	100ps
$end
$scope module GfxDmaTb $end
$var wire 1 ! clk $end
$var wire 13 " cram_addr [12:0] $end
$var wire 1 # cram_ce_b $end
$var wire 8 $ cram_data [7:0] $end
$var wire 1 % cram_oe_b $end
$var wire 1 & cram_we_b $end
$var wire 1 ' vga_ce_b $end
$var wire 1 ( vram_addr15_b $end
$var wire 8 ) vram_data [7:0] $end
$var wire 1 * vram_we_b $end
$var wire 16 + vram_addr [15:0] $end
$var wire 1 , dma_addr_sel $end
$var wire 1 - dma_active $end
$var wire 8 . ctrlBusOutput [7:0] $end
$var wire 8 / ctrlBusInput [7:0] $end
$var parameter 1 0 HIGH $end
$var parameter 1 1 HZ $end
$var parameter 1 2 LOW $end
$var real 1 3 UTCLK $end
$var real 1 4 VTCLK $end
$var reg 13 5 reg_addr [12:0] $end
$var reg 1 6 reg_clk2 $end
$var reg 8 7 reg_data [7:0] $end
$var reg 1 8 reg_free_vbus_b $end
$var reg 1 9 reg_ram_ce_b $end
$var reg 1 : reg_ram_re_b $end
$var reg 1 ; reg_ram_we_b $end
$var reg 1 < reg_vga_active_b $end
$var reg 1 = reg_vga_ce_b $end
$scope module bdAddrInst $end
$var wire 13 > i_a [12:0] $end
$var wire 13 ? o_y [12:0] $end
$var wire 1 - i_oe_b $end
$var parameter 32 @ BusWidth $end
$upscope $end
$scope module bdCtrlInst $end
$var wire 8 A i_a [7:0] $end
$var wire 8 B o_y [7:0] $end
$var wire 1 - i_oe_b $end
$var parameter 32 C BusWidth $end
$upscope $end
$scope module bdDataInst $end
$var wire 8 D i_a [7:0] $end
$var wire 8 E o_y [7:0] $end
$var wire 1 - i_oe_b $end
$var parameter 32 F BusWidth $end
$upscope $end
$scope module cram32Inst $end
$var wire 15 G i_addr [14:0] $end
$var wire 1 # i_ce_b $end
$var wire 1 % i_re_b $end
$var wire 1 & i_we_b $end
$var wire 8 H int_data [7:0] $end
$var wire 8 I io_data [7:0] $end
$var parameter 32 J AddrWidth $end
$var parameter 32 K Delay $end
$var parameter 104 L InitFile $end
$upscope $end
$scope module gfxDmaInst $end
$var wire 1 M dst_out_enabled $end
$var wire 1 ! i_clk $end
$var wire 1 6 i_clk2 $end
$var wire 1 8 i_free_vbus_b $end
$var wire 1 N i_src_ce2_b $end
$var wire 1 ' i_src_ce_b $end
$var wire 8 O i_src_data [7:0] $end
$var wire 13 P io_src_addr [12:0] $end
$var wire 1 & io_src_we_b $end
$var wire 1 - o_active $end
$var wire 1 , o_addr_sel $end
$var wire 16 Q o_dst_addr [15:0] $end
$var wire 8 R o_dst_data [7:0] $end
$var wire 1 * o_dst_we_b $end
$var wire 1 % o_src_re_b $end
$var wire 1 S skip_cpy $end
$var wire 2 T o_src_ram_page [1:0] $end
$var wire 16 U dst_addr_offset [15:0] $end
$var parameter 1 V CFG_CPY_ALL $end
$var parameter 1 W CFG_CPY_NON_ZERO $end
$var parameter 3 X CTRL_ADDR_DST_ADDR_H $end
$var parameter 3 Y CTRL_ADDR_DST_ADDR_L $end
$var parameter 3 Z CTRL_ADDR_HEIGHT $end
$var parameter 3 [ CTRL_ADDR_MASK $end
$var parameter 3 \ CTRL_ADDR_SRC_ADDR_H $end
$var parameter 3 ] CTRL_ADDR_SRC_ADDR_L $end
$var parameter 3 ^ CTRL_ADDR_STATE $end
$var parameter 3 _ CTRL_ADDR_WIDTH $end
$var reg 1 ` reg_active $end
$var reg 1 a reg_active_clk1 $end
$var reg 1 b reg_active_clk2 $end
$var reg 1 c reg_ctrl_config $end
$var reg 5 d reg_ctrl_cpy_x_mask [4:0] $end
$var reg 3 e reg_ctrl_cpy_y_mask [2:0] $end
$var reg 2 f reg_ctrl_data_mask [1:0] $end
$var reg 8 g reg_ctrl_dst_x_origin [7:0] $end
$var reg 8 h reg_ctrl_dst_y_origin [7:0] $end
$var reg 8 i reg_ctrl_height [7:0] $end
$var reg 13 j reg_ctrl_src_addr [12:0] $end
$var reg 8 k reg_ctrl_src_x_origin [7:0] $end
$var reg 5 l reg_ctrl_src_y_origin [4:0] $end
$var reg 8 m reg_ctrl_width [7:0] $end
$var reg 16 n reg_dst_addr_hold [15:0] $end
$var reg 8 o reg_dst_data_hold [7:0] $end
$var reg 1 p reg_free_vbus_b $end
$var reg 2 q reg_src_ram_page [1:0] $end
$var reg 8 r reg_x_cnt [7:0] $end
$var reg 8 s reg_y_cnt [7:0] $end
$upscope $end
$scope module vram32Inst1 $end
$var wire 15 t i_addr [14:0] $end
$var wire 1 u i_ce_b $end
$var wire 1 < i_re_b $end
$var wire 1 * i_we_b $end
$var wire 8 v int_data [7:0] $end
$var wire 8 w io_data [7:0] $end
$var parameter 32 x AddrWidth $end
$var parameter 32 y Delay $end
$var parameter 0 z InitFile $end
$var integer 32 { i [31:0] $end
$upscope $end
$scope module vram32Inst2 $end
$var wire 15 | i_addr [14:0] $end
$var wire 1 ( i_ce_b $end
$var wire 1 < i_re_b $end
$var wire 1 * i_we_b $end
$var wire 8 } int_data [7:0] $end
$var wire 8 ~ io_data [7:0] $end
$var parameter 32 !" AddrWidth $end
$var parameter 32 "" Delay $end
$var parameter 0 #" InitFile $end
$var integer 32 $" i [31:0] $end
$upscope $end
$upscope $end
$enddefinitions $end
$comment Show the parameter values. $end
$dumpall
b #"
b1111 ""
b1111 !"
b z
b1111 y
b1111 x
b100 _
b111 ^
b0 ]
b1 \
b110 [
b101 Z
b10 Y
b11 X
0W
1V
b101110001011110111001001100001011011010010111101100100011011010110000101011111011100100110000101101101 L
b1111 K
b1111 J
b1000 F
b1000 C
b1101 @
r39.721946 4
r79.44389200000001 3
02
z1
10
$end
#0
$dumpvars
b111111111111111 $"
bz ~
bx }
b0 |
b111111111111111 {
bz w
bx v
0u
b0 t
b0 s
b0 r
bx q
xp
b0 o
b0 n
b0 m
bx l
bx k
b0 j
b0 i
b0 h
b0 g
bx f
b111 e
b11111 d
0c
0b
0a
0`
b0 U
bx T
1S
bz R
b0 Q
bx P
bx O
xN
0M
bx I
bx H
b0xxxxxxxxxxxxx G
bx E
b0 D
bx B
b1111 A
bx ?
b0 >
1=
1<
1;
1:
19
08
b0 7
16
b0 5
b1111 /
bx .
x-
x,
b0 +
x*
bz )
z(
x'
x&
x%
bx $
x#
bx "
x!
$end
#20
b0 $
b0 E
b0 I
b0 O
1#
1'
0N
b1111 .
b1111 B
b0 G
b0 "
b0 ?
b0 P
bz T
0-
#50
1%
1&
#60
1*
#100
0p
1!
#130
0,
#150
b0 }
b0 v
#170
b10101110 H
#199
06
#299
0!
#398
16
#498
1!
#597
06
#697
0!
#794
0'
b1110 .
b1110 B
b1110 /
b1110 A
0=
#796
16
#896
1!
#995
06
#1095
0!
#1194
16
#1294
1!
#1393
06
#1493
0!
#1588
0&
b1010 .
b1010 B
b1010 /
b1010 A
0;
#1592
16
#1692
b0 k
1!
#1791
06
#1891
0!
#1990
16
#2090
1!
#2189
06
#2289
0!
#2382
1&
b1 G
b1 "
b1 ?
b1 P
b1110 .
b1110 B
b1 5
b1 >
b1110 /
b1110 A
1;
#2388
16
#2488
1!
#2587
06
#2687
0!
#2786
16
#2886
1!
#2985
06
#3085
0!
#3176
0&
b1010 .
b1010 B
b1010 /
b1010 A
0;
#3184
16
#3284
b0 q
b0 l
1!
#3383
06
#3483
0!
#3582
16
#3682
1!
#3781
06
#3881
0!
#3970
1&
b10000 $
b10000 E
b10000 I
b10000 O
b10 G
b10 "
b10 ?
b10 P
b1110 .
b1110 B
b10000 7
b10000 D
b10 5
b10 >
b1110 /
b1110 A
1;
#3980
16
#4080
1!
#4179
06
#4279
0!
#4378
16
#4478
1!
#4577
06
#4677
0!
#4764
0&
b1010 .
b1010 B
b1010 /
b1010 A
0;
#4776
16
#4876
b10000 U
b10000 g
1!
#4975
06
#5075
0!
#5174
16
#5274
1!
#5373
06
#5473
0!
#5558
1&
b11 G
b11 "
b11 ?
b11 P
b1110 .
b1110 B
b11 5
b11 >
b1110 /
b1110 A
1;
#5572
16
#5672
1!
#5771
06
#5871
0!
#5970
16
#6070
1!
#6169
06
#6269
0!
#6352
0&
b1010 .
b1010 B
b1010 /
b1010 A
0;
#6368
16
#6468
b1000000010000 U
b10000 h
1!
#6567
06
#6667
0!
#6766
16
#6866
1!
#6965
06
#7065
0!
#7146
1&
b101 $
b101 E
b101 I
b101 O
b100 G
b100 "
b100 ?
b100 P
b1110 .
b1110 B
b101 7
b101 D
b100 5
b100 >
b1110 /
b1110 A
1;
#7164
16
#7264
1!
#7363
06
#7463
0!
#7562
16
#7662
1!
#7761
06
#7861
0!
#7940
0&
b1010 .
b1010 B
b1010 /
b1010 A
0;
#7960
16
#8060
b101 m
1!
#8159
06
#8259
0!
#8358
16
#8458
1!
#8557
06
#8657
0!
#8734
1&
b101 G
b101 "
b101 ?
b101 P
b1110 .
b1110 B
b101 5
b101 >
b1110 /
b1110 A
1;
#8756
16
#8856
1!
#8955
06
#9055
0!
#9154
16
#9254
1!
#9353
06
#9453
0!
#9528
0&
b1010 .
b1010 B
b1010 /
b1010 A
0;
#9552
16
#9652
b101 i
1!
#9751
06
#9851
0!
#9950
16
#10050
1!
#10149
06
#10249
0!
#10322
1&
b11111111 $
b11111111 E
b11111111 I
b11111111 O
b110 G
b110 "
b110 ?
b110 P
b1110 .
b1110 B
b11111111 7
b11111111 D
b110 5
b110 >
b1110 /
b1110 A
1;
#10348
16
#10448
1!
#10547
06
#10647
0!
#10746
16
#10846
1!
#10945
06
#11045
0!
#11116
0&
b1010 .
b1010 B
b1010 /
b1010 A
0;
#11144
16
#11244
1!
#11343
06
#11443
0!
#11542
16
#11642
1!
#11741
06
#11841
0!
#11910
1&
b0 $
b0 E
b0 I
b0 O
b111 G
b111 "
b111 ?
b111 P
b1110 .
b1110 B
b0 7
b0 D
b111 5
b111 >
b1110 /
b1110 A
1;
#11940
16
#12040
1!
#12139
06
#12239
0!
#12338
16
#12438
1!
#12537
06
#12637
0!
#12704
0&
b1010 .
b1010 B
b1010 /
b1010 A
0;
#12736
16
#12836
1`
b0 f
b101 s
b101100001011 U
b101 r
1!
#12856
0#
1&
1%
1'
zN
bz $
bz E
bz I
bz O
bz .
bz B
b0zzzzzzzzzzzzz G
bz "
bz ?
bz P
1-
#12935
06
#13006
bx H
#13035
0!
#13134
16
#13234
1a
1!
#13254
0N
b0 G
b0 "
b0 ?
b0 P
b0 T
#13284
bx $
bx E
bx I
bx O
0%
1&
#13333
06
#13404
b10101110 $
b10101110 E
b10101110 I
b10101110 O
b10101110 H
#13433
0!
#13498
bz 7
bz D
bz 5
bz >
b1110 /
b1110 A
1;
#13532
16
#13632
b0 )
b0 R
b0 w
b0 ~
1M
1b
1!
#13652
b101100001011 |
b101100001011 t
b101100001011 +
b101100001011 Q
b101100001011 n
#13672
0S
b10101110 )
b10101110 R
b10101110 w
b10101110 ~
b10101110 o
#13731
06
#13742
b110000001011 U
b100 s
#13782
b100000000 j
#13791
0*
#13802
b100000000 G
b100000000 "
b100000000 ?
b100000000 P
b1011 }
b1011 v
#13831
0!
#13930
16
#13990
1*
#14030
1!
#14050
b110000001011 |
b110000001011 t
b110000001011 +
b110000001011 Q
b110000001011 n
#14129
06
#14140
b110100001011 U
b11 s
#14180
b1000000000 j
#14189
0*
#14200
b1000000000 G
b1000000000 "
b1000000000 ?
b1000000000 P
#14229
0!
#14292
b1111 /
b1111 A
1=
#14328
16
#14388
1*
#14428
1!
#14448
b110100001011 |
b110100001011 t
b110100001011 +
b110100001011 Q
b110100001011 n
#14527
06
#14538
b111000001011 U
b10 s
#14578
b1100000000 j
#14587
0*
#14598
b1100000000 G
b1100000000 "
b1100000000 ?
b1100000000 P
#14627
0!
#14726
16
#14786
1*
#14826
1!
#14846
b111000001011 |
b111000001011 t
b111000001011 +
b111000001011 Q
b111000001011 n
#14925
06
#14936
b111100001011 U
b1 s
#14976
b10000000000 j
#14985
0*
#14996
b10000000000 G
b10000000000 "
b10000000000 ?
b10000000000 P
#15025
0!
#15124
16
#15184
1*
#15224
1!
#15244
b111100001011 |
b111100001011 t
b111100001011 +
b111100001011 Q
b111100001011 n
#15323
06
#15334
b1000000001011 U
b0 s
#15374
b10100000000 j
#15383
0*
#15394
b10100000000 G
b10100000000 "
b10100000000 ?
b10100000000 P
#15423
0!
#15522
16
#15582
1*
#15622
1!
#15642
b1000000001011 |
b1000000001011 t
b1000000001011 +
b1000000001011 Q
b1000000001011 n
#15702
b101100001011 U
b101 s
#15721
06
#15781
0*
#15792
b101100001100 U
b100 r
#15821
0!
#15832
b0 j
#15852
b0 G
b0 "
b0 ?
b0 P
#15872
b1 j
#15892
b1 G
b1 "
b1 ?
b1 P
#15920
16
#15980
1*
#16020
1!
#16040
b101100001100 |
b101100001100 t
b101100001100 +
b101100001100 Q
b101100001100 n
#16119
06
#16130
b110000001100 U
b100 s
#16170
b100000001 j
#16179
0*
#16190
b100000001 G
b100000001 "
b100000001 ?
b100000001 P
b1100 }
b1100 v
#16219
0!
#16318
16
#16340
b1 $
b1 E
b1 I
b1 O
b1 H
#16378
1*
#16418
1!
#16438
b110000001100 |
b110000001100 t
b110000001100 +
b110000001100 Q
b110000001100 n
#16458
b1 )
b1 R
b1 w
b1 ~
b1 o
#16517
06
#16528
b110100001100 U
b11 s
#16568
b1000000001 j
#16577
0*
#16588
b1000000001 G
b1000000001 "
b1000000001 ?
b1000000001 P
#16617
0!
#16716
16
#16738
b10001 $
b10001 E
b10001 I
b10001 O
b10001 H
#16776
1*
#16816
1!
#16836
b110100001100 |
b110100001100 t
b110100001100 +
b110100001100 Q
b110100001100 n
#16856
b10001 )
b10001 R
b10001 w
b10001 ~
b10001 o
#16915
06
#16926
b111000001100 U
b10 s
#16966
b1100000001 j
#16975
0*
#16986
b1100000001 G
b1100000001 "
b1100000001 ?
b1100000001 P
#17015
0!
#17114
16
#17136
b100001 $
b100001 E
b100001 I
b100001 O
b100001 H
#17174
1*
#17214
1!
#17234
b111000001100 |
b111000001100 t
b111000001100 +
b111000001100 Q
b111000001100 n
#17254
b100001 )
b100001 R
b100001 w
b100001 ~
b100001 o
#17313
06
#17324
b111100001100 U
b1 s
#17364
b10000000001 j
#17373
0*
#17384
b10000000001 G
b10000000001 "
b10000000001 ?
b10000000001 P
#17413
0!
#17512
16
#17534
b110001 $
b110001 E
b110001 I
b110001 O
b110001 H
#17572
1*
#17612
1!
#17632
b111100001100 |
b111100001100 t
b111100001100 +
b111100001100 Q
b111100001100 n
#17652
b110001 )
b110001 R
b110001 w
b110001 ~
b110001 o
#17711
06
#17722
b1000000001100 U
b0 s
#17762
b10100000001 j
#17771
0*
#17782
b10100000001 G
b10100000001 "
b10100000001 ?
b10100000001 P
#17811
0!
#17910
16
#17932
b1000001 $
b1000001 E
b1000001 I
b1000001 O
b1000001 H
#17970
1*
#18010
1!
#18030
b1000000001100 |
b1000000001100 t
b1000000001100 +
b1000000001100 Q
b1000000001100 n
#18050
b1000001 )
b1000001 R
b1000001 w
b1000001 ~
b1000001 o
#18090
b101100001100 U
b101 s
#18109
06
#18169
0*
#18180
b101100001101 U
b11 r
#18209
0!
#18220
b1 j
#18240
b1 G
b1 "
b1 ?
b1 P
#18260
b10 j
#18280
b10 G
b10 "
b10 ?
b10 P
#18308
16
#18368
1*
#18390
b10101110 $
b10101110 E
b10101110 I
b10101110 O
b10101110 H
#18408
1!
#18428
b101100001101 |
b101100001101 t
b101100001101 +
b101100001101 Q
b101100001101 n
#18448
b10101110 )
b10101110 R
b10101110 w
b10101110 ~
b10101110 o
#18507
06
#18518
b110000001101 U
b100 s
#18558
b100000010 j
#18567
0*
#18578
b100000010 G
b100000010 "
b100000010 ?
b100000010 P
b1101 }
b1101 v
#18607
0!
#18706
16
#18728
b10 $
b10 E
b10 I
b10 O
b10 H
#18766
1*
#18773
18
#18806
bz )
bz R
bz w
bz ~
0M
1p
1!
#18836
1,
#18867
b10101110 v
#18905
06
#19005
0!
#19104
16
#19204
1!
#19303
06
#19403
0!
#19502
16
#19602
1!
#19701
06
#19801
0!
#19900
16
#20000
1!
#20099
06
#20199
0!
#20298
16
#20362
08
#20398
b10101110 )
b10101110 R
b10101110 w
b10101110 ~
1M
0p
1!
#20418
b110000001101 |
b110000001101 t
b110000001101 +
b110000001101 Q
b110000001101 n
#20428
0,
#20438
b10 )
b10 R
b10 w
b10 ~
b10 o
#20497
06
#20508
b110100001101 U
b11 s
#20548
b1000000010 j
#20557
0*
#20568
b1000000010 G
b1000000010 "
b1000000010 ?
b1000000010 P
b1101 v
#20597
0!
#20696
16
#20718
b10010 $
b10010 E
b10010 I
b10010 O
b10010 H
#20756
1*
#20796
1!
#20816
b110100001101 |
b110100001101 t
b110100001101 +
b110100001101 Q
b110100001101 n
#20836
b10010 )
b10010 R
b10010 w
b10010 ~
b10010 o
#20895
06
#20906
b111000001101 U
b10 s
#20946
b1100000010 j
#20955
0*
#20966
b1100000010 G
b1100000010 "
b1100000010 ?
b1100000010 P
#20995
0!
#21094
16
#21116
b100010 $
b100010 E
b100010 I
b100010 O
b100010 H
#21154
1*
#21194
1!
#21214
b111000001101 |
b111000001101 t
b111000001101 +
b111000001101 Q
b111000001101 n
#21234
b100010 )
b100010 R
b100010 w
b100010 ~
b100010 o
#21293
06
#21304
b111100001101 U
b1 s
#21344
b10000000010 j
#21353
0*
#21364
b10000000010 G
b10000000010 "
b10000000010 ?
b10000000010 P
#21393
0!
#21492
16
#21514
b110010 $
b110010 E
b110010 I
b110010 O
b110010 H
#21552
1*
#21592
1!
#21612
b111100001101 |
b111100001101 t
b111100001101 +
b111100001101 Q
b111100001101 n
#21632
b110010 )
b110010 R
b110010 w
b110010 ~
b110010 o
#21691
06
#21702
b1000000001101 U
b0 s
#21742
b10100000010 j
#21751
0*
#21762
b10100000010 G
b10100000010 "
b10100000010 ?
b10100000010 P
#21791
0!
#21890
16
#21912
b1000010 $
b1000010 E
b1000010 I
b1000010 O
b1000010 H
#21950
1*
#21990
1!
#22010
b1000000001101 |
b1000000001101 t
b1000000001101 +
b1000000001101 Q
b1000000001101 n
#22030
b1000010 )
b1000010 R
b1000010 w
b1000010 ~
b1000010 o
#22070
b101100001101 U
b101 s
#22089
06
#22149
0*
#22160
b101100001110 U
b10 r
#22189
0!
#22200
b10 j
#22220
b10 G
b10 "
b10 ?
b10 P
#22240
b11 j
#22260
b11 G
b11 "
b11 ?
b11 P
#22288
16
#22348
1*
#22370
b10101110 $
b10101110 E
b10101110 I
b10101110 O
b10101110 H
#22388
1!
#22408
b101100001110 |
b101100001110 t
b101100001110 +
b101100001110 Q
b101100001110 n
#22428
b10101110 )
b10101110 R
b10101110 w
b10101110 ~
b10101110 o
#22487
06
#22498
b110000001110 U
b100 s
#22538
b100000011 j
#22547
0*
#22558
b100000011 G
b100000011 "
b100000011 ?
b100000011 P
b1110 }
b1110 v
#22587
0!
#22686
16
#22708
b11 $
b11 E
b11 I
b11 O
b11 H
#22746
1*
#22786
1!
#22806
b110000001110 |
b110000001110 t
b110000001110 +
b110000001110 Q
b110000001110 n
#22826
b11 )
b11 R
b11 w
b11 ~
b11 o
#22885
06
#22896
b110100001110 U
b11 s
#22936
b1000000011 j
#22945
0*
#22956
b1000000011 G
b1000000011 "
b1000000011 ?
b1000000011 P
#22985
0!
#23084
16
#23106
b10011 $
b10011 E
b10011 I
b10011 O
b10011 H
#23144
1*
#23184
1!
#23204
b110100001110 |
b110100001110 t
b110100001110 +
b110100001110 Q
b110100001110 n
#23224
b10011 )
b10011 R
b10011 w
b10011 ~
b10011 o
#23283
06
#23294
b111000001110 U
b10 s
#23334
b1100000011 j
#23343
0*
#23354
b1100000011 G
b1100000011 "
b1100000011 ?
b1100000011 P
#23383
0!
#23482
16
#23504
b100011 $
b100011 E
b100011 I
b100011 O
b100011 H
#23542
1*
#23582
1!
#23602
b111000001110 |
b111000001110 t
b111000001110 +
b111000001110 Q
b111000001110 n
#23622
b100011 )
b100011 R
b100011 w
b100011 ~
b100011 o
#23681
06
#23692
b111100001110 U
b1 s
#23732
b10000000011 j
#23741
0*
#23752
b10000000011 G
b10000000011 "
b10000000011 ?
b10000000011 P
#23781
0!
#23880
16
#23902
b110011 $
b110011 E
b110011 I
b110011 O
b110011 H
#23940
1*
#23980
1!
#24000
b111100001110 |
b111100001110 t
b111100001110 +
b111100001110 Q
b111100001110 n
#24020
b110011 )
b110011 R
b110011 w
b110011 ~
b110011 o
#24079
06
#24090
b1000000001110 U
b0 s
#24130
b10100000011 j
#24139
0*
#24150
b10100000011 G
b10100000011 "
b10100000011 ?
b10100000011 P
#24179
0!
#24278
16
#24300
b1000011 $
b1000011 E
b1000011 I
b1000011 O
b1000011 H
#24338
1*
#24378
1!
#24398
b1000000001110 |
b1000000001110 t
b1000000001110 +
b1000000001110 Q
b1000000001110 n
#24418
b1000011 )
b1000011 R
b1000011 w
b1000011 ~
b1000011 o
#24458
b101100001110 U
b101 s
#24477
06
#24537
0*
#24548
b101100001111 U
b1 r
#24577
0!
#24588
b11 j
#24608
b11 G
b11 "
b11 ?
b11 P
#24628
b100 j
#24648
b100 G
b100 "
b100 ?
b100 P
#24676
16
#24736
1*
#24758
b10101110 $
b10101110 E
b10101110 I
b10101110 O
b10101110 H
#24776
1!
#24796
b101100001111 |
b101100001111 t
b101100001111 +
b101100001111 Q
b101100001111 n
#24816
b10101110 )
b10101110 R
b10101110 w
b10101110 ~
b10101110 o
#24875
06
#24886
b110000001111 U
b100 s
#24926
b100000100 j
#24935
0*
#24946
b100000100 G
b100000100 "
b100000100 ?
b100000100 P
b1111 }
b1111 v
#24975
0!
#25074
16
#25096
b100 $
b100 E
b100 I
b100 O
b100 H
#25134
1*
#25174
1!
#25194
b110000001111 |
b110000001111 t
b110000001111 +
b110000001111 Q
b110000001111 n
#25214
b100 )
b100 R
b100 w
b100 ~
b100 o
#25273
06
#25284
b110100001111 U
b11 s
#25324
b1000000100 j
#25333
0*
#25344
b1000000100 G
b1000000100 "
b1000000100 ?
b1000000100 P
#25373
0!
#25472
16
#25494
b10100 $
b10100 E
b10100 I
b10100 O
b10100 H
#25532
1*
#25572
1!
#25592
b110100001111 |
b110100001111 t
b110100001111 +
b110100001111 Q
b110100001111 n
#25612
b10100 )
b10100 R
b10100 w
b10100 ~
b10100 o
#25671
06
#25682
b111000001111 U
b10 s
#25722
b1100000100 j
#25731
0*
#25742
b1100000100 G
b1100000100 "
b1100000100 ?
b1100000100 P
#25771
0!
#25870
16
#25892
b100100 $
b100100 E
b100100 I
b100100 O
b100100 H
#25930
1*
#25970
1!
#25990
b111000001111 |
b111000001111 t
b111000001111 +
b111000001111 Q
b111000001111 n
#26010
b100100 )
b100100 R
b100100 w
b100100 ~
b100100 o
#26069
06
#26080
b111100001111 U
b1 s
#26120
b10000000100 j
#26129
0*
#26140
b10000000100 G
b10000000100 "
b10000000100 ?
b10000000100 P
#26169
0!
#26268
16
#26290
b110100 $
b110100 E
b110100 I
b110100 O
b110100 H
#26328
1*
#26368
1!
#26388
b111100001111 |
b111100001111 t
b111100001111 +
b111100001111 Q
b111100001111 n
#26408
b110100 )
b110100 R
b110100 w
b110100 ~
b110100 o
#26467
06
#26478
b1000000001111 U
b0 s
#26518
b10100000100 j
#26527
0*
#26538
b10100000100 G
b10100000100 "
b10100000100 ?
b10100000100 P
#26567
0!
#26666
16
#26688
b1000100 $
b1000100 E
b1000100 I
b1000100 O
b1000100 H
#26726
1*
#26766
1!
#26786
b1000000001111 |
b1000000001111 t
b1000000001111 +
b1000000001111 Q
b1000000001111 n
#26806
b1000100 )
b1000100 R
b1000100 w
b1000100 ~
b1000100 o
#26846
b101100001111 U
b101 s
#26865
06
#26925
0*
#26936
b101100010000 U
b0 r
#26965
0!
#26976
b100 j
#26996
b100 G
b100 "
b100 ?
b100 P
#27016
0`
0a
b101 j
#27036
bz $
bz E
bz I
bz O
1#
x%
1'
zN
b1111 .
b1111 B
bz T
b0zzzzzzzzzzzzz G
bz "
bz ?
bz P
0-
#27064
16
#27066
1%
#27124
1*
#27164
bz )
bz R
bz w
bz ~
0M
0b
1!
#27186
bx H
#27225
b1000100 v
